{


#规则包
//"spider":"https://demo.ifile.space/sdown/h9afxiUp43/4ad809cd0844ee846ed2619b90e18487a9dcf618/1004.jar?passcode=&authtoken=8ddb7962e2a38e39b13b421f40c7ffad;md5;F0BD8B1C698C3BC7554F2EDBD77E81EE",
//"spider":"https://share.nite07.com/api/v3/file/source/26960/top97.jar?sign=s_AeiGUUyT4SfF12gztayJOUYHCPH3ND4QAfWEFeSVs%3D%3A0;md5;7299C83C6EE488B6051041D3F9A30488",
"spider":"https://download.kstore.space/download/3051/1080%E5%93%94%E5%93%A9.jar;md5;C4BA98711FAC35DAFF17780D0817F5DC",

#直播
"lives":[{"group":"redirect","channels":[{"name":"live","urls":["proxy://do=live&type=txt&ext=aHR0cHM6Ly9naXRsYWIuY29tL3p5azIxMi90bHgtbGFiLy0vcmF3L21hc3Rlci9UVi9UVjQ="]}]}],
//"lives":[{"group":"redirect","channels":[{"name":"live","urls":["proxy://do=live&type=txt&ext=aHR0cHM6Ly9naXRlYS5jb20venlrMjEyL1RMWC9yYXcvYnJhbmNoL21hc3Rlci8lRTglQTclQTMlRTYlOUUlOTAvVFYudHh0"]}]}],
#壁纸
"wallpaper":"https://bing.hecady.com/api/image/1080/1",
//"wallpaper":"https://tool.weetai.cn/api",

"rules":[
{"host":"*","rule":["douyinvod.com","/video/tos/cn/"]},
{"host":"*","rule":["default.365yg.com","/video/tos/cn/"]},
{"host":"*","rule":["aliyundrive.net","response-content-disposition=",".m3u8"]},
{"host":"*","rule":["aliyundrive.net","response-content-disposition=",".mp4"]},
{"host":"*","rule":["aliyundrive.net","response-content-disposition=",".mkv"]},
{"host":"*","rule":["/m3u8.php?path=",".m3u8"]},
{"host":"zjmiao.com","rule":["play.videomiao.vip/API.php","time=","key=","path="]},
{"host":"*","rule":["/API.php?time=","key=","path=",".m3u8"]},
{"host":"*","rule":["oss-cn-m3u8","myqcloud.com.zh188.net","?url=",".m3u8"]},
{"host":"www.007ts.me","rule":["hls.pchj.net",".m3u8"]},
{"host":"*","rule":["iesdouyin.com/aweme","video_id="]},
{"host":"*","rule":["huoshan.com","/item/video/"]},
{"host":"*","rule":["http((?!http).){12,}?\\.(m3u8|mp4|flv|avi|mkv|rm|wmv|mpg|m4a)\\?.*"]},
{"host":"*","rule":["http((?!http).){12,}\\.(m3u8|mp4|flv|avi|mkv|rm|wmv|mpg|m4a)"]},
{"host":"*","rule":["mp3"]},
{"host":"*","rule":["m4a"]}
],

#配置源
"sites":[

#内置规则※※※※※※※※※※※※※※※※※※※※※※※※※※※※
{"key":"主页","name":"🏳️‍🌈点击切换视频源","type":3,"api":"csp_SP360","searchable":0,"quickSearch":1,"filterable":0,"jar":"","playerType":2},
{"key":"主页2","name":"🏳️‍🌈豆瓣推荐-长按搜索","type":4,"api":"http://top.fuqizhishi.com/vod","searchable":1,"quickSearch":1,"filterable":1},
{"key":"csp_SP360","name":"💘360影视(SP)","type":3,"api":"csp_SP360","searchable":1,"quickSearch":1,"filterable":1},
{"key":"csp_Kunyu77","name":"👒酷云七七(秒播)","type":3,"api":"csp_Kunyu77","searchable":1,"quickSearch":1,"filterable":1,"jar":""},
{"key":"XYQH_柠檬TV","name":"🌐电视直播CCTV","type":3,"api":"csp_XYQHiker","searchable":1,"quickSearch":1,"filterable":1,"ext":"https://gitlab.com/zyk212/tlx-lab/-/raw/master/XYQHiker/xyqh_%E6%9F%A0%E6%AA%ACTV2.json",
"jar":"https://gitlab.com/zyk212/tlx-lab/-/raw/master/XYQHiker/XYQPlugin_1028.jar"},
{"key":"csp_Kuaikan","name":"👀快看影视(SP)","type":3,"api":"csp_Kuaikan","searchable":1,"quickSearch":1,"filterable":1,"jar":""},
{"key":"csp_smdyy","name":"🐎神马影视(SP)","type":3,"api":"csp_Smdyy","searchable":1,"quickSearch":1,"filterable":1,"jar":""},
{"key":"csp_DiDuan","name":"🎬低端影视(SP)","api":"csp_Ddrk","type":3,"searchable":1,"quickSearch":1,"filterable":1,"jar":""},
{"key":"csp_Bttoo","name":"🐞两个BT〔SP〕","type":3,"api":"csp_Bttoo","searchable":1,"quickSearch":1,"filterable":1,"jar":""},
// {"key":"csp_Auete","name":"🐼Auete(SP)","type":3,"api":"csp_Auete","searchable":1,"quickSearch":1,"filterable":1,"jar":""},
{"key":"csp_爱看影视","name":"🦉爱看影视(Do)","type":3,"api":"csp_Dora","searchable":1,"quickSearch":1,"filterable":1,"ext": "a4ce9a4ba7d4f4bced2ff9dfc4ab4e50","jar":"https://download.kstore.space/download/3051/1106bili.jar;md5;66ff55d33c20f2465e3b77a3da076eab"},
{"key":"csp_AppTT","name":"🖼图图影视(Do)","type":3,"api":"csp_Dora","searchable":1,"quickSearch":1,"filterable":1,"ext": "110c922de7d69804467fb83d3bb664b5","jar":"https://download.kstore.space/download/3051/1106bili.jar;md5;66ff55d33c20f2465e3b77a3da076eab"},
{"key":"csp_LibVio","name":"📼LibVio〔SP〕","type":3,"api":"csp_Lib","searchable":1,"quickSearch":1,"filterable":0,"jar":""},
{"key":"厂长影视","name":"🚬厂长资源(SP)","type":3,"api":"csp_Czsapp","searchable":1,"quickSearch":1,"filterable":1,"jar":""},
{"key":"csp_lezhu","name":"🐷乐猪影视(SP)","type":3,"api":"csp_Lezhu","searchable":1,"quickSearch":1,"filterable":1,"jar":""},
{"key":"csp_剧荒","name":"🎭剧荒影视(SP)","type":3,"api":"csp_Juhuang","searchable":1,"quickSearch":1,"filterable":1,"jar":""},
{"key":"mjxq_spider","name":"🌏美剧星球(SP)","type":3,"api":"csp_Mjxq","searchable":1,"quickSearch":1,"filterable":1,"jar":""},
{"key":"Zjdr","name":"💻追剧达人(SP)","type":3,"api":"csp_Zjdr","searchable":1,"quickSearch":1,"filterable":1,"jar":""},
{"key":"csp_LiteApple","name":"🍎小苹果TV(SP)","type":3,"api":"csp_LiteApple","searchable":1,"quickSearch":1,"filterable":1,"jar":""},
{"key":"3EDY","name":"🐞叁亿电影(SP)","type":3,"api":"csp_EEEDY","searchable":1,"quickSearch":1,"filterable":1,"jar":"https://0a.fit/PiLgY;md5;F0BD8B1C698C3BC7554F2EDBD77E81EE"},
{"key":"csp_Cokemv","name":"📺Cokemv(SP)","type":3,"api":"csp_Cokemv","searchable":1,"quickSearch":1,"filterable":1,"jar":""},
{"key":"在线之家","name":"🏠在线之家(SP)","type":3,"api":"csp_Zxzj","searchable":1,"quickSearch":1,"filterable":1,"jar":""},
{"key":"Yanet","name":"🐥奈飞影视(Do)","type":"3","api":"csp_Dora","searchable":"1","quickSearch":"1","filterable":"1","ext":"a369b1f623fe86605f1b029f0cf66349","jar":"https://download.kstore.space/download/3051/1106bili.jar;md5;66ff55d33c20f2465e3b77a3da076eab"},

{"key":"QQ","name":"🐧腾讯视频(官)","type":3,"api":"csp_QQ","searchable":1,"quickSearch":1,"filterable":1,"jar":"",
"categories":["电视剧","电影","综艺","动漫","少儿","纪录片","知识","学堂"]},
{"key":"爱奇艺","name":"🥑爱奇艺(官源)","type":3,"api":"csp_IQIYI","searchable":1,"quickSearch":1,"filterable":1,"jar":""},
{"key":"MGTV","name":"🥭芒果TV(官源)","type":3,"api":"csp_MGTV","searchable":1,"quickSearch":1,"filterable":1,"jar":""},
{"key":"dr_优酷","name":"🥁优酷视频(长按搜索js)","type":3,
"api":"https://ghproxy.com/https://raw.githubusercontent.com/ShadowDemon1997/CatVodSpiderJS/main/drpy.js",
"ext":"https://gitcode.net/qq_32394351/dr_py/-/raw/master/js/优酷.js"},

{"key":"csp_Yj1211","name":"📽️在线直播(SP)","type":3,"api":"csp_Yj1211","searchable":1,"quickSearch":1,"filterable":1,"jar":""},
{"key":"追剧喵","name":"🥇追剧喵TV(SP)","type":3,"api":"csp_ZJMiao","searchable":1,"quickSearch":1,"filterable":1,"jar":""},
{"key":"csp_Nmys","name":"🥝农民影视(SP)","type":3,"api":"csp_Nmys","searchable":1,"quickSearch":1,"filterable":1,"ext":"https://agit.ai/Yoursmile7/TVBox/raw/branch/master/sub/Nmys.json","jar":""},
#Dora规则※※※※※※※※※※※※※※※※※※※※※※※※※※※※
// {"key":"Hei","name":"🥥石榴影院(Do)","type":"3","api":"csp_Dora","searchable":"1","quickSearch":"1","filterable":"1","ext":"3bff500c8b1e06c052a1b0f1f7a62b45","jar":"https://download.kstore.space/download/3051/1106bili.jar;md5;66ff55d33c20f2465e3b77a3da076eab"},
{"key":"Pang","name":"🐯胖虎影视(Do)","type":"3","api":"csp_Dora","searchable":"1","quickSearch":"1","filterable":"1","ext":"c41fdb671b20925c76fa9b6ff8bad027","jar":"https://download.kstore.space/download/3051/1106bili.jar;md5;66ff55d33c20f2465e3b77a3da076eab"},


#XBP规则※※※※※※※※※※※※※※※※※※※※※※※※※※※※
{"key":"csp_看片狂人","name":"️🌟看片狂人 (XBP)","type":3,"api":"csp_xBPQ","searchable":1,"quickSearch":1,"filterable":0,"ext":"https://gitlab.com/zyk212/tlx-lab/-/raw/master/XBPQ/xbpq_%E7%9C%8B%E7%89%87%E7%8B%82%E4%BA%BA.json","jar":"https://gitlab.com/zyk212/tlx-lab/-/raw/master/XBPQ/xBPQ_1028.jar"},
{"key":"csp_4k","name":"️🌟4k影视(XBP)","type":3,"api":"csp_xBPQ","searchable":1,"quickSearch":1,"filterable":0,"ext":"https://agit.ai/xiaohewanwan/atest/raw/branch/master/4kvm.json","jar":"https://gitlab.com/zyk212/tlx-lab/-/raw/master/XBPQ/xBPQ_1026_1.jar"},
{"key":"csp_影渣渣","name":"️🌟影渣渣(XBP)","type":3,"api":"csp_xBPQ","searchable":1,"quickSearch":1,"filterable":0,"ext":"https://gitlab.com/zyk212/tlx-lab/-/raw/master/XBPQ/xbpq_%E5%BD%B1%E6%B8%A3%E6%B8%A3.json","jar":"https://gitlab.com/zyk212/tlx-lab/-/raw/master/XBPQ/xBPQ_1026_1.jar"},
{"key":"csp_电影先生","name":"️🌟电影先生(XBP)","type":3,"api":"csp_xBPQ","searchable":1,"quickSearch":1,"filterable":0,"ext":"https://gitlab.com/zyk212/tlx-lab/-/raw/master/XBPQ/xbpq_%E7%94%B5%E5%BD%B1%E5%85%88%E7%94%9F.json","jar":"https://gitlab.com/zyk212/tlx-lab/-/raw/master/XBPQ/xBPQ_1026_1.jar"},
{"key":"csp_极品影视","name":"️🌟极品影视(XBP)","type":3,"api":"csp_xBPQ","searchable":1,"quickSearch":1,"filterable":0,"ext":"https://gitlab.com/zyk212/tlx-lab/-/raw/master/XBPQ/%E6%9E%81%E5%93%81%E5%BD%B1%E8%A7%86.json","jar":"https://gitlab.com/zyk212/tlx-lab/-/raw/master/XBPQ/xBPQ_1028.jar"},
{"key":"csp_热播酷","name":"️🌟热播酷(XBP)","type":3,"api":"csp_xBPQ","searchable":1,"quickSearch":1,"filterable":0,"ext":"https://gitlab.com/zyk212/tlx-lab/-/raw/master/XBPQ/xbpq_%E7%83%AD%E6%92%AD%E9%85%B7.json","jar":"https://gitlab.com/zyk212/tlx-lab/-/raw/master/XBPQ/xBPQ_1101.jar"},
{"key":"csp_大师兄","name":"️🌟大师兄影视(XBP)","type":3,"api":"csp_xBPQ","searchable":1,"quickSearch":1,"filterable":0,"ext":"https://gitlab.com/zyk212/tlx-lab/-/raw/master/XBPQ/xbpq_%E5%A4%A7%E5%B8%88%E5%85%84%E5%BD%B1%E8%A7%86.json","jar":"https://gitlab.com/zyk212/tlx-lab/-/raw/master/XBPQ/xBPQ_1101.jar"},
{"key":"xbpq_555","name":"️🌟555(XBP)","type":3,"api":"csp_xBPQ","searchable":1,"quickSearch":1,"filterable":0,"ext":"https://gitlab.com/zyk212/tlx-lab/-/raw/master/XBPQ/555%E7%94%B5%E5%BD%B1.json","jar":"https://gitlab.com/zyk212/tlx-lab/-/raw/master/XBPQ/xBPQ_1101.jar"},
{"key":"csp_voflix","name":"️🌟voflix(XBP)","type":3,"api":"csp_xBPQ","searchable":1,"quickSearch":1,"filterable":0,"ext":"https://gitlab.com/zyk212/tlx-lab/-/raw/master/XBPQ/xBPQ_voflix.json","jar":"https://gitlab.com/zyk212/tlx-lab/-/raw/master/XBPQ/xBPQ_1102.jar"},
{"key":"csp_xf_cs","name":"️🌟FREEOK(XBP)","type":3,"api":"csp_xBPQ","searchable":1,"quickSearch":1,"filterable":0,"ext":"{\"免嗅\":\"1\",\"播放标题\":\"span>&&<\",\"副标题\":\"class=\\\"module-item-note\\\">&&</div>\",\"线路数组\":\"class=\\\"module-tab-itemtab-item&&</div>\",\"线路标题\":\"<span>&&</span>\",\"播放数组\":\"class=\\\"module-play-list&&</div>\",\"分类\":\"剧集$2#电影$1#综艺$4#动漫$3\",\"分类url\":\"https://www.freeok.vip/vodshow/{cateId}--------{catePg}---/\"}","jar":"https://gitlab.com/zyk212/tlx-lab/-/raw/master/XBPQ/xBPQ_1102.jar"},
{"key":"csp_xBPQ_fositv","name":"️🌟fositv(XBP)","type":3,"api":"csp_xBPQ","searchable":1,"quickSearch":1,"filterable":0,"ext":"https://gitlab.com/zyk212/tlx-lab/-/raw/master/XBPQ/xb_fositv.json",
"jar":"https://gitlab.com/zyk212/tlx-lab/-/raw/master/XBPQ/xBPQ_1102.jar"},
{"key":"csp_抓饭直播","name":"️🌟抓饭体育(XBP)","type":3,"api":"csp_xBPQ","searchable":1,"quickSearch":1,"filterable":0,"ext":"https://gitlab.com/zyk212/tlx-lab/-/raw/master/XBPQ/XBP_zhuafanTV.json","jar":"https://gitlab.com/zyk212/tlx-lab/-/raw/master/XBPQ/xBPQ_1011.jar"},
{"key":"csp_xBPQ_干饭影视","name":"️🌟干饭影视(XBP)","type":3,"api":"csp_xBPQ","searchable":1,"quickSearch":1,"filterable":0,"ext":"{\"免嗅\":\"1\",\"播放标题\":\">&&<\",\"播放数组\":\"class=\\\"stui-content__playlist&&</div>\",\"分类url\":\"https://www.gfysys1.com/vodshow/{cateId}--------{catePg}---.html\"}","jar":"https://gitlab.com/zyk212/tlx-lab/-/raw/master/XBPQ/xBPQ_1026_1.jar"},
{"key":"csp_xBPQ_um影院","name":"️🌟UM影院(XBP)","type":3,"api":"csp_xBPQ","searchable":1,"quickSearch":1,"filterable":1,"ext":"{\"免嗅\":\"1\",\"导演\":\"导演：&&</div\",\"主演\":\"主演：&&</div\",\"简介\":\"module-info-introduction-content&&</div>\",\"线路数组\":\"class=\\\"module-tab-itemtab-item&&</div>\",\"线路标题\":\"<span>&&</span>\",\"播放标题\":\"span>&&<\",\"播放数组\":\"class=\\\"module-play-list&&</div>\",\"分类url\":\"https://www.umkan.com/index.php/vod/show/id/{cateId}/page/{catePg}.html\"}","jar":"https://gitlab.com/zyk212/tlx-lab/-/raw/master/XBPQ/xBPQ_1026_1.jar"},
{"key":"csp_xBPQ-真不卡","name":"️🌟真不卡(XBP)","type":3,"api":"csp_xBPQ","searchable":1,"quickSearch":1,"filterable":1,"ext":"{\"免嗅\":\"1\",\"播放标题\":\">&&<\",\"播放数组\":\"class=\\\"stui-content__playlist&&</div>\",\"分类url\":\"https://www.zbkk.net/vodshow/{cateId}--------{catePg}---.html\"}","jar":"https://gitlab.com/zyk212/tlx-lab/-/raw/master/XBPQ/xBPQ_1026_1.jar"},
{"key":"csp_xBPQ_蓝光影视","name":"🌟蓝光影视(XBP)","type":3,"api":"csp_xBPQ","searchable":1,"quickSearch":1,"filterable":1,"ext":"{\"免嗅\":\"1\",\"线路数组\":\"class=\\\"module-tab-itemtab-item&&</div>\",\"线路标题\":\"<span>&&</span>\",\"播放标题\":\"span>&&<\",\"播放数组\":\"class=\\\"module-play-list&&</div>\",\"分类url\":\"https://www.lgyy.cc/vodtype/{cateId}/page/{catePg}---.html\"}","jar":"https://gitlab.com/zyk212/tlx-lab/-/raw/master/XBPQ/xBPQ.jar?inline=false"},
{"key":"csp_xBPQ_NO影视","name":"🌟NO影视(XBP)","type":3,"api":"csp_xBPQ","searchable":1,"quickSearch":1,"filterable":1,"ext":"https://gitlab.com/zyk212/tlx-lab/-/raw/master/XBPQ/xbpq_NO%E8%A7%86%E9%A2%91.json","jar":"https://gitlab.com/zyk212/tlx-lab/-/raw/master/XBPQ/xBPQ_1026_1.jar"},
{"key":"csp_xBPQ_素白白影视","name":"🌟素白白影视(XBP)","type":3,"api":"csp_xBPQ","searchable":1,"quickSearch":1,"filterable":1,"ext":"https://gitlab.com/zyk212/tlx-lab/-/raw/master/XBPQ/XBP_SBB.json","jar":"https://gitlab.com/zyk212/tlx-lab/-/raw/master/XBPQ/xBPQ_1026_1.jar"},
{"key":"csp_xBPQ_101影视","name":"🌟101影视(XBP)","type":3,"api":"csp_xBPQ","searchable":1,"quickSearch":1,"filterable":1,"ext":"https://gitlab.com/zyk212/tlx-lab/-/raw/master/XBPQ/xbpq_101.json","jar":"https://gitlab.com/zyk212/tlx-lab/-/raw/master/XBPQ/xBPQ_1026_1.jar"},
{"key":"csp_xBPQ_奇粹视频","name":"🌟奇粹视频(XBP)","type":3,"api":"csp_xBPQ","searchable":1,"quickSearch":1,"filterable":1,"ext":"{\"分类url\":\"http://www.blssv.com/index.php/vod/show/id/{cateId}/page/{catePg}.html\",\"数组\":\"class=\\\"module-item-pic&&</div>\",\"线路数组\":\"class=\\\"module-tab-itemtab-item&&</div>\",\"线路标题\":\"span>&&<[替换:多多广告>>免嗅秒播]\",\"免嗅\":\"1\",\"分类\":\"电影$20#连续剧$21#动漫$22#海外$23#综艺$24\",\"播放数组\":\"class=\\\"sort-item&&</div>\",\"播放列表\":\"<a&&/a>[不含序号:2]\",\"搜索后缀\":\"/vod/detail/id/\"}",
"jar":"https://gitlab.com/zyk212/tlx-lab/-/raw/master/XBPQ/xBPQ_1026_1.jar"},
{"key":"csp_xBPQ_黑洞影视","name":"🌟黑洞影视(XBP)","type":3,"api":"csp_xBPQ","searchable":1,"quickSearch":1,"filterable":1,"ext":"{\"免嗅\":\"0\",\"副标题\":\"class=\\\"hl-lc-1remarks\\\">&&</span>\",\"导演\":\"导演：&&</div\",\"主演\":\"主演：&&</div\",\"简介\":\"简介：&&</li>\",\"播放标题\":\">&&<\",\"播放数组\":\"hl-list-wrap&&</ul>\",\"线路数组\":\"class=\\\"hl-plays-wrap&&</div>\",\"分类\":\"电视剧$2#动漫$4#电影$1#综艺$3\",\"分类url\":\"https://www.nulltm.com/vodtype/{cateId}.html\",\"年份\":\"2000-2022\",\"筛选\":\"0\"}",
"jar":"https://gitlab.com/zyk212/tlx-lab/-/raw/master/XBPQ/xBPQ_1026_1.jar"},

{"key":"csp_xBPQ_胖虎影视",
"name":"🌟胖虎影视(xBPQ)",
"type":3,
"api":"csp_xBPQ",
"searchable":1,
"quickSearch":1,
"filterable":0,
"ext":"https://gitlab.com/zyk212/tlx-lab/-/raw/master/XBPQ/xyqh_%E8%83%96%E8%99%8E%E5%BD%B1%E8%A7%86.json",
"jar":"https://gitlab.com/zyk212/tlx-lab/-/raw/master/XBPQ/xBPQ_1102.jar"},

{"key":"csp_xBPQ_花猫","name":"️🌟花猫tv(XBP)","type":3,"api":"csp_xBPQ","searchable":1,"quickSearch":0,"filterable":0,"ext":"{\"副标题\":\"class=\\\"pic-text\\\">&&</span>\",\"线路数组\":\"/span><h3class=\\\"title&&/h3>\",
\"线路标题\":\">&&<\",\"播放标题\":\">&&<\",\"播放数组\":\"class=\\\"stui-content__playlist&&</div>\",\"分类url\":\"http://www.huamaotv.com/type/{cateId}-{catePg}.html\"}","jar":"https://gitlab.com/zyk212/tlx-lab/-/raw/master/XBPQ/xBPQ_1026_1.jar"},

{"key":"csp_xBPQ_爱酷酷影","name":"🌟爱酷影视(XBP)","type":3,"api":"csp_xBPQ","searchable":1,"quickSearch":1,"filterable":0,"ext":"{\"免嗅\":\"1\",\"副标题\":\"class=\\\"handle-btn-name\\\">&&</span>\",\"导演\":\"导演：&&</div\",\"主演\":\"主演：&&</div\",\"简介\":\"简介：&&</li>\",\"播放标题\":\"span>&&</span\",\"播放数组\":\"module-play-list&&</div>\",\"分类\":\"电视剧$2#动漫$4#电影$1#综艺$3\",\"分类url\":\"https://www.zhanlangbu.com/index.php/vod/type/id/{cateId}.html\",\"年份\":\"2004-2022\",\"筛选\":\"0\"}",
"jar":"https://gitlab.com/zyk212/tlx-lab/-/raw/master/XBPQ/xBPQ_1026_1.jar"},
{"key":"csp_xb_fqys","name":"🌟番茄影视(XBP)","type":3,"api":"csp_xBPQ","searchable":1,"quickSearch":1,"filterable":0,
"ext":"https://tjomet.com/vodshow/{cateId}--------{catePg}---.html","jar":"https://gitlab.com/zyk212/tlx-lab/-/raw/master/XBPQ/xBPQ_1026_1.jar"},
{"key":"csp_biubiu_子子影视","name":"🌟子子影视(XBP)","type":3,"api":"csp_xBPQ","searchable":1,"quickSearch":1,"filterable":0,"ext":"https://gitlab.com/zyk212/tlx-lab/-/raw/master/XB/zzys.json","jar":"https://gitlab.com/zyk212/tlx-lab/-/raw/master/XBPQ/xBPQ.jar?inline=false"},
{
"key":"csp_xBPQ_98影院",
"name":"🌟98影院(XBP)",
"type":3,
"api":"csp_xBPQ",
"searchable":1,
"quickSearch":1,
"filterable":0,
"ext":"{\"免嗅\":\"0\",\"副标题\":\"right\\\">&&</span>\",\"播放标题\":\">&&</a>\",\"播放数组\":\"<ulclass=\\\"stui-content__playlist&&</ul>\",\"线路数组\":\"<imgsrc=&&/h3>\",\"线路标题\":\">&&<\",\"分类url\":\"http://www.98ju.com/{cateId}/index{catePg}.html[http://www.98ju.com/{cateId}/index.html]\",\"分类\":\"电影$dianyingpian#电视剧$dianshiju#综艺$zongyi#动漫$dongman\",\"类型\":\"dianyingpian--动作片$dongzuopian#爱情片$aiqingpian#科幻片$kehuanpian#恐怖片$kongbupian#战争片$zhanzhengpian#喜剧片$xijupian#纪录片$jilupian#剧情片$juqingpian||dianshiju--国产剧$guochanju#港台剧$gangtaiju#日韩剧$rihanju#欧美剧$oumeiju]\",\"地区\":\"0\",\"剧情\":\"0\",\"年份\":\"0\",\"排序\":\"0\",\"筛选\":\"1\"}"
,"jar":"https://gitlab.com/zyk212/tlx-lab/-/raw/master/XBPQ/xBPQ_1026_1.jar"},

{
"key":"csp_xBPQ_荐片",
"name":"🌟荐片影视|xBPQ|",
"type":3,
"api":"csp_xBPQ",
"searchable":1,
"quickSearch":1,
"filterable":0,
"ext":"{\"免嗅\":\"1\",\"播放标题\":\"span>&&<\",\"副标题\":\"class=\\\"module-item-note\\\">&&</div>\",\"线路数组\":\"class=\\\"module-tab-itemtab-item&&</div>\",\"线路标题\":\"<span>&&</span>\",\"播放数组\":\"class=\\\"module-play-list&&</div>\",\"分类url\":\"http://www.jpys.me/vodshow/{cateId}-{area}-{by}-{class}-{lang}----{catePg}---{year}.html\"}",
"jar":"https://gitlab.com/zyk212/tlx-lab/-/raw/master/XBPQ/xBPQ_1026_1.jar"},
{"key":"csp_饭团影视HD","name":"️🌟饭团影视(XBP)","type":3,"api":"csp_xBPQ","searchable":1,"quickSearch":1,"filterable":0,"ext":"https://gitlab.com/zyk212/tlx-lab/-/raw/master/XBPQ/xbpq_%E9%A5%AD%E5%9B%A2%E5%BD%B1%E8%A7%86HD.json","jar":"https://gitlab.com/zyk212/tlx-lab/-/raw/master/XBPQ/xBPQ_1026_1.jar"},

{"key":"csp_奇优影院","name":"️🌟奇优影院(XBP)","type":3,"api":"csp_xBPQ","searchable":1,"quickSearch":1,"filterable":0,"ext":"https://gitlab.com/zyk212/tlx-lab/-/raw/master/XBPQ/xbpq_%E5%A5%87%E4%BC%98%E5%BD%B1%E9%99%A2.json","jar":"https://gitlab.com/zyk212/tlx-lab/-/raw/master/XBPQ/xBPQ_1020.jar"},
{"key":"csp_xBPQ_盒子影视",
"name":"🌟盒子影视(XBP)",
"type":3,
"api":"csp_xBPQ",
"searchable":1,
"quickSearch":1,
"filterable":0,
"ext":"{
\"免嗅\":\"0\",
\"副标题\":\"class=\\\"continu\\\">&&<\",
\"简介\":\"介绍：&&<\",
\"播放数组\":\"list-unstyledrowtext-centerff-playurl-lineff-playurl&&</ul>\",
\"线路数组\":\"glyphiconglyphicon-facetime-videoff-text\\\"></span&&/h2>\",
\"线路标题\":\">&&<\",
\"搜索url\":\"http://m.tv7box.com/index.php?s=vod-search-name-{wd}\",
\"搜索模式\":\"1\",
\"分类\":\"电视剧$2#电影$1#动漫$4#综艺$3\",
\"分类url\":\"http://m.tv7box.com/list-select-id-{cateId}-type-{class}-area-{area}-year-{year}-star--state--order-addtime-p-{catePg}.html\",
\"地区\":\"替换[大陆$大陆>>内地$内地]\",
\"年份\":\"2000-2022\",
\"筛选\":\"1\"}",
"jar":"https://gitlab.com/zyk212/tlx-lab/-/raw/master/XBPQ/xBPQ_1026_1.jar"},
{"key":"csp_xBPQ_DOUYIN",
"name":"🌟短视频",
"type":3,
"api":"csp_xBPQ",
"searchable":1,
"quickSearch":1,
"filterable":0,
"ext":"{\n\"分类url\":\"http://www.sharenice.net/{cateId}?page={catePg}\",\n\"分类\":\"抖音$douyin#快手$kuaishou#微视$weishi#场库$changku#美拍$meipai#秒拍$miaopai#全民$quanmin#梨$lishipin#好兔$haotu#开眼$kaiyan\",\n\"链接\":\"http://www.sharenice.net&&\\\"\",\n\"直接播放\":\"1\"\n}"
},
{"key":"csp_xBPQ_酷蚂蚁影视",
"name":"🌟蚂蚁影视",
"type":3,
"api":"csp_xBPQ",
"searchable":1,
"quickSearch":1,
"filterable":0,
"ext":"{
\"分类\":\"电视剧$2#动漫$4#电影$1#综艺$3\",
\"分类url\":\"http://www.kmy5.com/tv/{cateId}-{catePg}.html\"
}",
"jar":"https://gitlab.com/zyk212/tlx-lab/-/raw/master/XBPQ/xBPQ_1020.jar"},
{"key":"xbpq_石榴","name":"️🌟石榴影院(XBP)","type":3,"api":"csp_xBPQ","searchable":1,"quickSearch":1,"filterable":0,"ext":"https://gitlab.com/zyk212/tlx-lab/-/raw/master/XBPQ/xbpq_%E7%9F%B3%E6%A6%B4%E7%94%B5%E5%BD%B1.json","jar":"https://gitlab.com/zyk212/tlx-lab/-/raw/master/XBPQ/xBPQ_1106.jar"},

#XYQ规则※※※※※※※※※※※※※※※※※※※※※※※※※※※※
{"key":"XYQ_番茄影视","name":"🌷番茄影视(XYQ)","type":3,"api":"csp_XYQBiu","searchable":1,"quickSearch":1,"filterable":1,"ext":"https://gitlab.com/zyk212/tlx-lab/-/raw/master/XYQ/fqys(XYQ).json","jar":"https://gitlab.com/zyk212/tlx-lab/-/raw/master/XYQHiker/XYQPlugin_1028.jar"},
{"key":"XYQ_万能影视","name":"🌷万能影视(XYQ)","type":3,"api":"csp_XYQBiu","searchable":1,"quickSearch":1,"filterable":1,"ext":"https://agit.ai/zyk212/tlx/raw/branch/master/yxq/wnys%28xyq%29.json",
"jar":"https://gitlab.com/zyk212/tlx-lab/-/raw/master/XYQHiker/XYQPlugin_1028.jar"},
{"key":"XYQ_凌云影视","name":"🌷凌云影视(XYQ)","type":3,"api":"csp_XYQBiu","searchable":1,"quickSearch":1,"filterable":1,"ext":"https://agit.ai/zyk212/tlx/raw/branch/master/yxq/%e5%87%8c%e4%ba%91%e5%bd%b1%e8%a7%86.json",
"jar":"https://gitlab.com/zyk212/tlx-lab/-/raw/master/XYQHiker/XYQPlugin_1028.jar"},
{"key":"csp_XYQBiu_剧荒电影","name":"🌷剧荒影院(XYQ)","type":3,"api":"csp_XYQBiu","searchable":1,"quickSearch":1,"filterable":0,"ext":"https://gitlab.com/zyk212/tlx-lab/-/raw/master/XYQ/juhuang(XYQ).json",
"jar":"https://gitlab.com/zyk212/tlx-lab/-/raw/master/XYQHiker/XYQPlugin_1028.jar"},
{"key":"XYQ_艾菲影视","name":"🌷艾菲影视(XYQ)","type":3,"api":"csp_XYQBiu","searchable":1,"quickSearch":1,"filterable":1,"ext":"https://gitlab.com/zyk212/tlx-lab/-/raw/master/XYQ/XYQ_%E8%89%BE%E8%8F%B2%E5%BD%B1%E8%A7%86.json",
"jar":"https://gitlab.com/zyk212/tlx-lab/-/raw/master/XYQHiker/XYQPlugin_1028.jar"},

#XYQHiker规则※※※※※※※※※※※※※※※※※※※※※※※※※※※※
{"key":"XYQH_万能影视","name":"🌐万能影视(XYQH)","type":3,"api":"csp_XYQHiker","searchable":1,"quickSearch":1,"filterable":1,"ext":"https://gitlab.com/zyk212/tlx-lab/-/raw/master/XYQHiker/WNYS.json",
"jar":"https://gitlab.com/zyk212/tlx-lab/-/raw/master/XYQHiker/XYQPlugin_1028.jar"},
{"key":"XYQH_无插件直播","name":"🌐无插件直播(XYQH)","type":3,"api":"csp_XYQHiker","searchable":1,"quickSearch":1,"filterable":1,"ext":"https://gitlab.com/zyk212/tlx-lab/-/raw/master/XYQHiker/无插件直播.json",
"jar":"https://gitlab.com/zyk212/tlx-lab/-/raw/master/XYQHiker/XYQPlugin_1028.jar"},
{"key":"XYQH_电影港磁力","name":"🌐电影港磁力(XYQH)","type":3,"api":"csp_XYQHiker","searchable":1,"quickSearch":1,"filterable":1,"ext":"https://gitlab.com/zyk212/tlx-lab/-/raw/master/XYQHiker/XYQ_%E7%94%B5%E5%BD%B1%E6%B8%AF%EF%BC%88%E7%A3%81%E5%8A%9B%EF%BC%89.json",
"jar":"https://gitlab.com/zyk212/tlx-lab/-/raw/master/XYQHiker/XYQPlugin_1028.jar"},
{"key":"XYQH_Hdmoli","name":"🌐Hdmoli(XYQH)","type":3,"api":"csp_XYQHiker","searchable":1,"quickSearch":1,"filterable":1,"ext":"https://gitlab.com/zyk212/tlx-lab/-/raw/master/XYQHiker/xyqh_Hdmoli.json",
"jar":"https://gitlab.com/zyk212/tlx-lab/-/raw/master/XYQHiker/XYQPlugin_1028.jar"},
{"key":"XYQH_宝仙HD","name":"🌐宝仙HD(XYQH)","type":3,"api":"csp_XYQHiker","searchable":1,"quickSearch":1,"filterable":1,"ext":"https://gitlab.com/zyk212/tlx-lab/-/raw/master/XYQHiker/xyqh_%E5%AE%9D%E4%BB%99HD.json",
"jar":"https://gitlab.com/zyk212/tlx-lab/-/raw/master/XYQHiker/XYQPlugin_1028.jar"},
{"key":"XYQH_Vidhub","name":"🌐Vidhub(XYQH)","type":3,"api":"csp_XYQHiker","searchable":1,"quickSearch":1,"filterable":1,"ext":"https://gitlab.com/zyk212/tlx-lab/-/raw/master/XYQHiker/xyqh_Vidhub%E8%A7%86%E9%A2%91%E5%BA%93.json",
"jar":"https://gitlab.com/zyk212/tlx-lab/-/raw/master/XYQHiker/XYQPlugin_1028.jar"},
{"key":"csp_xf_heihei","name":"️🌐嘿嘿影视(XYQH)","type":3,"api":"csp_XYQHiker","searchable":1,"quickSearch":1,"filterable":0,"ext":"https://gitlab.com/zyk212/tlx-lab/-/raw/master/XYQHiker/xyqh_heihei.json","jar":"https://gitlab.com/zyk212/tlx-lab/-/raw/master/XYQHiker/XYQPlugin_1028.jar"},
{"key":"XYQH_l0l直播","name":"🌐l0l直播(XYQH)","type":3,"api":"csp_XYQHiker","searchable":1,"quickSearch":1,"filterable":1,"ext":"https://gitlab.com/zyk212/tlx-lab/-/raw/master/XYQHiker/%20xyqh_%E7%9B%B4%E6%92%ADl0l.json",
"jar":"https://gitlab.com/zyk212/tlx-lab/-/raw/master/XYQHiker/XYQPlugin_1028.jar"},
{"key":"XYQH_RP影院","name":"🌐RP影院(XYQH)","type":3,"api":"csp_XYQHiker","searchable":1,"quickSearch":1,"filterable":1,"ext":"https://gitlab.com/zyk212/tlx-lab/-/raw/master/XYQHiker/xyqh_RP%E5%BD%B1%E8%A7%86.json",
"jar":"https://gitlab.com/zyk212/tlx-lab/-/raw/master/XYQHiker/XYQPlugin_1028.jar"},
{"key":"XYQH_鸭奈飞","name":"🌐鸭鸭奈飞(XYQH)","type":3,"api":"csp_XYQHiker","searchable":1,"quickSearch":1,"filterable":1,"ext":"https://gitlab.com/zyk212/tlx-lab/-/raw/master/XYQHiker/xyqh_yanetflix.json",
"jar":"https://gitlab.com/zyk212/tlx-lab/-/raw/master/XYQHiker/XYQPlugin_1028.jar"},
{"key":"csp_xf_naikan","name":"️🌐耐看影视(XYQH)","type":3,"api":"csp_XYQHiker","searchable":1,"quickSearch":1,"filterable":0,"ext":"https://agit.ai/xiaohewanwan/TVBox-1/raw/branch/main/XYQ/%E8%80%90%E7%9C%8B.json","jar":"https://agit.ai/xiaohewanwan/jar/raw/branch/main/XYQPlugin_0926.jar"},
{"key":"XYQH_乐猪影视","name":"🌐乐猪影视(XYQH)","type":3,"api":"csp_XYQHiker","searchable":1,"quickSearch":1,"filterable":1,"ext":"https://gitlab.com/zyk212/tlx-lab/-/raw/master/XYQHiker/xyqh_lezhu.json",
"jar":"https://gitlab.com/zyk212/tlx-lab/-/raw/master/XYQHiker/XYQPlugin_1028.jar","playerType":2},
//0system1ijk2exo10mx，默认-1为配置页面设置的播放器
{"key":"XYQH_追剧达人","name":"🌐追剧达人(XYQH)","type":3,"api":"csp_XYQHiker","searchable":1,"quickSearch":1,"filterable":1,"ext":"https://gitlab.com/zyk212/tlx-lab/-/raw/master/XYQHiker/xyqh_%E8%BF%BD%E5%89%A7%E8%BE%BE%E4%BA%BA.json",
"jar":"https://gitlab.com/zyk212/tlx-lab/-/raw/master/XYQHiker/XYQPlugin_1028.jar"},
{"key":"XYQH_魔戒影视","name":"🌐魔戒影院(XYQH)","type":3,"api":"csp_XYQHiker","searchable":1,"quickSearch":1,"filterable":1,"ext":"https://gitlab.com/zyk212/tlx-lab/-/raw/master/XYQHiker/xyqh_%E9%AD%94%E6%88%92%E5%BD%B1%E8%A7%86.json",
"jar":"https://gitlab.com/zyk212/tlx-lab/-/raw/master/XYQHiker/XYQPlugin_1028.jar"},
{"key":"XYQH_在线之家","name":"🌐在线之家(XYQH)","type":3,"api":"csp_XYQHiker","searchable":1,"quickSearch":1,"filterable":1,"ext":"https://gitlab.com/zyk212/tlx-lab/-/raw/master/XYQHiker/xyqh_%E5%9C%A8%E7%BA%BF%E4%B9%8B%E5%AE%B6.json",
"jar":"https://gitlab.com/zyk212/tlx-lab/-/raw/master/XYQHiker/XYQPlugin_1028.jar"},
{"key":"XYQH_23影视","name":"🌐23影视(XYQH)","type":3,"api":"csp_XYQHiker","searchable":1,"quickSearch":1,"filterable":1,"ext":"https://gitlab.com/zyk212/tlx-lab/-/raw/master/XYQHiker/xyqh_23wm.json",
"jar":"https://gitlab.com/zyk212/tlx-lab/-/raw/master/XYQHiker/XYQPlugin_1028.jar"},
{"key":"XYQH_789影吧","name":"🌐789影吧(XYQH)","type":3,"api":"csp_XYQHiker","searchable":1,"quickSearch":1,"filterable":1,"ext":"https://gitlab.com/zyk212/tlx-lab/-/raw/master/XYQHiker/xyqh_789%E5%BD%B1%E5%90%A7.json",
"jar":"https://gitlab.com/zyk212/tlx-lab/-/raw/master/XYQHiker/XYQPlugin_1028.jar"},
{"key":"XYQH_看了么","name":"🌐看了么(XYQH)","type":3,"api":"csp_XYQHiker","searchable":1,"quickSearch":1,"filterable":1,"ext":"https://gitlab.com/zyk212/tlx-lab/-/raw/master/XYQHiker/xyqh_%E7%9C%8B%E4%BA%86%E4%B9%88.json",
"jar":"https://gitlab.com/zyk212/tlx-lab/-/raw/master/XYQHiker/XYQPlugin_1028.jar"},
{"key":"XYQH_188","name":"🌐188影视(XYQH)","type":3,"api":"csp_XYQHiker","searchable":1,"quickSearch":1,"filterable":1,"ext":"https://gitlab.com/zyk212/tlx-lab/-/raw/master/XYQHiker/xyqh_188%E5%BD%B1%E8%A7%86.json",
"jar":"https://gitlab.com/zyk212/tlx-lab/-/raw/master/XYQHiker/XYQPlugin_1028.jar"},
{"key":"XYQH_白嫖者联盟","name":"🌐白嫖者联盟(XYQH)","type":3,"api":"csp_XYQHiker","searchable":1,"quickSearch":1,"filterable":1,"ext":"https://gitlab.com/zyk212/tlx-lab/-/raw/master/XYQHiker/xyqh_%E7%99%BD%E5%AB%96%E8%80%85%E8%81%94%E7%9B%9F.json",
"jar":"https://gitlab.com/zyk212/tlx-lab/-/raw/master/XYQHiker/XYQPlugin_1028.jar"},
{"key":"XYQH_速搜影院","name":"🌐速搜影院📵(XYQH)","type":3,"api":"csp_XYQHiker","searchable":1,"quickSearch":1,"filterable":1,"ext":"https://gitlab.com/zyk212/tlx-lab/-/raw/master/XYQHiker/xyqh_%E9%80%9F%E6%90%9C%E5%BD%B1%E9%99%A2.json",
"jar":"https://gitlab.com/zyk212/tlx-lab/-/raw/master/XYQHiker/XYQPlugin_1028.jar"},



#云盘资源※※※※※※※※※※※※※※※※※※※※※※※※※※※※
//{"key":"csp_AliPanSou","name":"😻盘搜(1)","type":3,"api":"csp_AliPanSou","searchable":1,"quickSearch":1,"filterable":1,"playerType":1,"ext":"http://home.jundie.top:666/token.txt","jar":""},
{"key":"Gitcafe","name":"📜小纸条〔SP〕","type":3,"api":"csp_Gitcafe","searchable":1,"quickSearch":1,"filterable":1,"playerType":1,"ext":"http://home.jundie.top:666/token.txt"},
{"key":"AliPS","name":"😻盘搜〔仅搜索〕","type":3,"api":"csp_AliPS","searchable":1,"quickSearch":1,"filterable":1,"playerType":1,"ext":"http://api.lengniuge.eu.org/al.txt","jar":"https://download.kstore.space/download/3051/1106bili.jar;md5;66ff55d33c20f2465e3b77a3da076eab"},
{"key":"FindZY","name":"🦊找资源〔仅搜索〕","type":3,"api":"csp_Zhaozy","searchable":1,"quickSearch":1,"filterable":1,"playerType":1,"ext":"http://ali.饭太硬.ml/tok"},
{"key":"csp_Yiso","name":"🆎易搜〔仅搜索〕","type":3,"api":"csp_Yiso","searchable":1,"quickSearch":1,"filterable":0,"playerType":1,"ext":"http://ali.饭太硬.ml/tok","jar":"http://maoyingshi.cc/tvbox/云星日记/jar/ali.jpg;md5;23a7b8ab50ead897fd733e5c52c5f3fd"},
{"key":"Upyunso","name":"云搜┃搜索","type":3,"api":"csp_Upyunso","playerType":1,"searchable":1,"quickSearch":1,"filterable":0,"playerType":1,"ext":"http://api.lengniuge.eu.org/al.txt",
"jar":""},
{"key":"push_agent","name":"🍭推送〔阿里推送/磁力推送〕","type":3,"api":"csp_PushAgent","searchable":0,"quickSearch":0,"filterable":0,"ext":"http://api.lengniuge.eu.org/al.txt","jar":"https://download.kstore.space/download/3051/1106bili.jar;md5;66ff55d33c20f2465e3b77a3da076eab"},


#XB规则※※※※※※※※※※※※※※※※※※※※※※※※※※※※
{"key":"csp_biubiu_LIBVIO","name":"🔷LIBVIO(XB)","type":3,"api":"csp_XBiubiu","searchable":1,"quickSearch":1,"filterable":0,"ext":"http://maoyingshi.cc/tvbox/%E4%BA%91%E6%98%9F%E6%97%A5%E8%AE%B0/sh/MaooXB/LIBVIO.json"},
{"key":"csp_biubiu_乐猪影视","name":"🐷乐猪影视(XB)","type":3,"api":"csp_XBiubiu","searchable":1,"quickSearch":1,"filterable":0,"ext":"http://maoyingshi.cc/tvbox/%E4%BA%91%E6%98%9F%E6%97%A5%E8%AE%B0/sh/MaooXB/lzys.json"},
{"key":"csp_biubiu_骚火电影","name":"🔥骚火电影(XB)","type":3,"api":"csp_XBiubiu","searchable":1,"quickSearch":1,"filterable":0,"ext":"http://maoyingshi.cc/tvbox/%E4%BA%91%E6%98%9F%E6%97%A5%E8%AE%B0/sh/MaooXB/shdy.json"},
{"key":"csp_biubiu_大米星球","name":"⭐️大米星球(XB)","type":3,"api":"csp_XBiubiu","searchable":1,"quickSearch":1,"filterable":0,"ext":"https://maoyingshi.cc/tvbox/%E4%BA%91%E6%98%9F%E6%97%A5%E8%AE%B0/sh/MaooXB/dmxq.json"},
{"key":"csp_69mj","name":"💥69美剧(XB)","type":3,"api":"csp_XBiubiu","searchable":1,"quickSearch":1,"filterable":0,"ext":"https://gitlab.com/zyk212/tlx-lab/-/raw/master/XB/69%E7%BE%8E%E5%89%A7.json"},
{"key":"csp_饭团","name":"💥饭团影视(XB)","type":3,"api":"csp_XBiubiu","searchable":1,"quickSearch":1,"filterable":0,"ext":"https://gitlab.com/zyk212/tlx-lab/-/raw/master/XB/%E9%A5%AD%E5%9B%A2hd.json"},
{"key":"csp_凌云影视","name":"💥凌云影视(XB)","type":3,"api":"csp_XBiubiu","searchable":1,"quickSearch":1,"filterable":0,"ext":"https://gitlab.com/zyk212/tlx-lab/-/raw/master/XB/%E5%87%8C%E4%BA%91%E5%BD%B1%E8%A7%86.json"},
{"key":"csp_xbb_锐行加速","name":"🍀锐行加速","type":3,"api":"csp_XBiubiu","searchable":1,"quickSearch":1,"filterable":0,"ext":"https://gitlab.com/zyk212/tlx-lab/-/raw/master/XB/%E9%94%90%E8%A1%8C%E5%8A%A0%E9%80%9F.json"},
{"key":"csp_biubiu_2345影视","name":"🐙2345影视(XB)","type":3,"api":"csp_XBiubiu","searchable":1,"quickSearch":1,"filterable":0,"ext":"https://gitlab.com/zyk212/tlx-lab/-/raw/master/XB/2345%E5%BD%B1%E8%A7%86%E5%A4%A7%E5%85%A8.json"},

{
"key":"csp_xb_cokemv",
"name":"🎂cokemv(R)",
"type":3,
"api":"csp_XBiu",
"searchable":1,
"quickSearch":1,
"filterable":0,
"ext":"https://cokemv.me/vodshow/{cateId}--------{catePg}---.html"
},

{
"key":"csp_xb_lxys",
"name":"🎂冷曦影视(XB)",
"type":3,
"api":"csp_XBiu",
"searchable":1,
"quickSearch":1,
"filterable":0,
"ext":"https://www.lenxitv.cc/t/{cateId}-{catePg}.html","jar":""},




#道长规则※※※※※※※※※※※※※※※※※※※※※※※※※※※※

{
"key":"drpy_js_007影视",
"name":"🥋007影视[DRPY]",
"type":3,
"api":"https://ghproxy.com/https://raw.githubusercontent.com/ShadowDemon1997/CatVodSpiderJS/main/drpy.js",
"ext":"https://gitcode.net/qq_32394351/dr_py/-/raw/master/js/007影视.js"
},

{
"key":"drpy_js_看视界",
"name":"🥋看视界[DRPY]",
"type":3,
"api":"https://ghproxy.com/https://raw.githubusercontent.com/ShadowDemon1997/CatVodSpiderJS/main/drpy.js",
"ext":"https://gitcode.net/qq_32394351/dr_py/-/raw/master/js/看视界.js"
},
{
"key":"drpy_js_人人影视",
"name":"🥋人人影视[DRPY]",
"type":3,
"api":"https://ghproxy.com/https://raw.githubusercontent.com/ShadowDemon1997/CatVodSpiderJS/main/drpy.js",
"ext":"https://gitcode.net/qq_32394351/dr_py/-/raw/master/js/人人影视.js"
},
{
"key":"drpy_js_喵喵",
"name":"🥋喵喵[DRPY]",
"type":3,
"api":"https://ghproxy.com/https://raw.githubusercontent.com/ShadowDemon1997/CatVodSpiderJS/main/drpy.js",
"ext":"https://gitcode.net/qq_32394351/dr_py/-/raw/master/js/喵喵.js",
"categories":["电视剧","电影","综艺","动漫","音乐"]},
{
"key":"drpy_js_腾云驾雾",
"name":"🥋腾云驾雾[DRPY]",
"type":3,
"api":"https://ghproxy.com/https://raw.githubusercontent.com/ShadowDemon1997/CatVodSpiderJS/main/drpy.js",
"ext":"https://gitcode.net/qq_32394351/dr_py/-/raw/master/js/腾云驾雾.js"
},
{
"key":"drpy_js_小强迷",
"name":"🥋小强迷[DRPY]",
"type":3,
"api":"https://ghproxy.com/https://raw.githubusercontent.com/ShadowDemon1997/CatVodSpiderJS/main/drpy.js",
"ext":"https://gitcode.net/qq_32394351/dr_py/-/raw/master/js/小强迷.js"
},


#XLB规则※※※※※※※※※※※※※※※※※※※※※※※※※※※※

{"key":"csp_biubiu_影视工厂","name":"🎯影视工厂(XLB)","type":3,"api":"csp_XLBiubiu","searchable":1,"quickSearch":1,"filterable":0,"ext":"https://agit.ai/zyk212/tlx/raw/branch/master/jk/%e5%bd%b1%e8%a7%86%e5%b7%a5%e5%8e%82.json","jar":"https://agit.ai/zyk212/tlx/raw/branch/master/jar/QXBiubiu%20%28Cli%29.jar;md5;381F3DE719515C74821274EB2D12877C"},
{"key":"csp_biubiu_达达龟","name":"🍊达达龟(XLB)","type":3,"api":"csp_XLBiubiu","searchable":1,"quickSearch":1,"filterable":0,"ext":"https://pan.css.lc/api/v3/file/get/79581/%E8%BE%BE%E8%BE%BE%E9%BE%9F%E5%BD%B1%E8%A7%86.json?sign=wNTJANvZhcXg7Ki36pWYt-LCs3sLQXc6rZ8hFaLfI-E%3D%3A0","jar":"https://gitcode.net/MP661/tlx-old/-/raw/master/jar/QXBiubiu.jar;md5;2D2046F00D47BC7FB47940DF6CA008DB"},


#XP规则※※※※※※※※※※※※※※※※※※※※※※※※※※※※
{"key":"csp_xpath_cokemv","name":"📼Cokemv(XPF)","type":3,"api":"csp_XPathFilter","searchable":1,"quickSearch":1,"filterable":1,"ext":"https://gitlab.com/zyk212/tlx-lab/-/raw/master/XP/cokemv.json"},
{"key":"csp_xpath_saohuotv","name":"🔥骚火电影(XP)","type":3,"api":"csp_XPath","searchable":1,"quickSearch":1,"filterable":0,"ext":"http://maoyingshi.cc/tvbox/%E4%BA%91%E6%98%9F%E6%97%A5%E8%AE%B0/sh/MaooXP/saohuotv2.json"},
{"key":"csp_XPath_bidiys","name":"🎬哔嘀影视(XP)","type":3,"api":"csp_XPath","searchable":1,"quickSearch":1,"filterable":0,"ext":"https://gitcode.net/gginn/ganggang/-/raw/master/%E5%93%94%E5%98%80%E5%BD%B1%E8%A7%86.json"},
{"key":"csp_xpath_音范丝磁力","name":"🐛音范丝磁力〔XP〕","type":3,"api":"csp_XPath","searchable":1,"quickSearch":0,"filterable":1,"ext":"http://maoyingshi.cc/tvbox/云星日记/sh/MaooXP/音范丝磁力.json","jar":"http://maoyingshi.cc/tvbox/云星日记/jar/ali.jpg;md5;23a7b8ab50ead897fd733e5c52c5f3fd"},
{"key":"csp_xpath_doujiaow","name":"💊豆角网(XP)","type":3,"api":"csp_XPathMac","searchable":1,"quickSearch":1,"filterable":0,"ext":"https://freed.yuanhsing.cf/TVBox/MaooXP/doujiaow.json"},
{"key":"csp_xpath_tvb03","name":"蓝光TVB(XPF)","type":3,"api":"csp_XPathFilter","searchable":1,"quickSearch":1,"filterable":1,"ext":"https://gitlab.com/zyk212/tlx-lab/-/raw/master/XP/tvyb03.json"},
{"key":"csp_xp_vip1280","name":"💢VIP电影〔Xp〕","type":3,"api":"csp_XPath","searchable":1,"quickSearch":1,"filterable":0,"ext":"http://maoyingshi.cc/tvbox/云星日记/sh/MaooXB/vip1280.json"},
{"key":"csp_xp_lenxitv","name":"💢冷曦影视(XPF)","type":3,"api":"csp_XPathFilter","searchable":1,"quickSearch":1,"filterable":1,"ext":"https://gitlab.com/zyk212/tlx-lab/-/raw/master/XP/XP-lenxi.json"},



#解析资源※※※※※※※※※※※※※※※※※※※※※※※※※※※※
{"key":"csp_xml_影图资源","name":"🐝影图资源","type":1,"api":"https://cj.vodimg.top/api.php/provide/vod/","playUrl":"","searchable":1,"quickSearch":1},
{"key":"飞速资源","name":"👓飞速资源","type":1,"api":"https://www.feisuzyapi.com/api.php/provide/vod/","searchable":1,"quickSearch":1},
{"key":"DY4","name":"🛋DY4(全平台解析)","type":1,"api":"http://cj-a.dy4.top:668/api.php/provide/vod/","searchable":1,"quickSearch":1,"categories":["国产剧","综艺","动漫","日韩剧","动作片","喜剧片","爱情片","科幻片","恐怖片","剧情片","战争片","港台剧","欧美剧","惊悚片","犯罪片","冒险片","悬疑片","动画片","番剧（B站）","国创（B站）","电影（B站）","电视剧（B站）"]},

{"key":"小猫咪〔官源〕","name":"🐱小猫咪💯〔官〕","type":1,"api":"http://zy.xiaomaomi.cc/api.php/provide/vod/?ac=list","searchable":1,
//"playUrl":"http://zy.xiaomaomi.tv/player/?url=",
"quickSearch":1,"categories":["国产剧","港台剧","日韩剧","欧美剧","动作片","喜剧片","爱情片","科幻片","恐怖片","剧情片","战争片","综艺","动漫","综合频道"]},
{"key":"csp_xml_诺讯资源","name":"🐝诺讯资源","type":1,"api":"https://caiji.nxflv.com/api.php/provide/vod/?ac=list","playUrl":"","searchable":1,"quickSearch":1,"categories":["国产剧","港台剧","日韩剧","欧美剧","动作片","喜剧片","爱情片","科幻片","恐怖片","剧情片","战争片","综艺","动漫","综合频道"]},
{"key":"csp_xml_星海资源","name":"🐝星海资源","type":1,"api":"https://www.xhzy01.com/api.php/provide/vod/?ac=list/","playUrl":"https://m3u8.tx-xhzy.com/?url=","searchable":1,"quickSearch":1,"categories":["国产剧","港台剧","日韩剧","欧美剧","动作片","喜剧片","爱情片","科幻片","恐怖片","剧情片","战争片","综艺","动漫","综合频道"]},
{"key":"爱酷","name":"🍀爱酷〔V2〕解析","type":3,"api":"csp_AppYsV2","searchable":1,"quickSearch":1,"filterable":1,"ext":"https://www.zhanlangbu.com/ruifenglb_api.php/v1.vod"},
{"key":"mtv_zh_暖光影视","name":"综合┃暖光影视","type":3,"api":"csp_AppYsV2","searchable":1,"quickSearch":1,"filterable":1,"ext":"https://app.bl210.com/api.php/v1.vod"},
{"key":"mtv_zh_刺猬影视","name":"综合┃刺猬影视","type":3,"api":"csp_AppYsV2","searchable":1,"quickSearch":1,"filterable":1,"ext":"http://www.cccvvv.top/api.php/iptv/vod/"},


#drpy※※※※※※※※※※※※※※※※※※※※※※※※※※※※


#动漫※※※※※※※※※※※※※※※※※※※※※※※※※※※※
{"key":"动漫直链","name":"🎭动漫巴士","type":3,"api":"csp_XPath","searchable":1,"quickSearch":1,"filterable":0,"ext":"https://gitlab.com/zyk212/tlx-lab/-/raw/master/XP/%E5%8A%A8%E6%BC%AB%E5%B7%B4%E5%A3%AB.json"},
{"key":"csp_Anime1","name":"🌸动漫连载(SP)","type":3,"api":"csp_Anime1","searchable":1,"quickSearch":1,"filterable":1,"jar":"https://0a.fit/PiLgY;md5;F0BD8B1C698C3BC7554F2EDBD77E81EE"},
{"key":"csp_biubiu_OmoFun动漫","name":"👑OmoFun动漫(XB)","type":3,"api":"csp_XBiubiu","searchable":1,"quickSearch":1,"filterable":0,"ext":"http://maoyingshi.cc/tvbox/%E4%BA%91%E6%98%9F%E6%97%A5%E8%AE%B0/sh/MaooXB/OmoFun动漫.json"},
{"key":"teyond__xp__AGE动漫","name":"✨AGE动漫〔XB〕","type":3,"api":"csp_XPath","searchable":1,"quickSearch":1,"filterable":1,"ext":"http://maoyingshi.cc/tvbox/%E4%BA%91%E6%98%9F%E6%97%A5%E8%AE%B0/sh/MaooXB/AGE动漫.json"},
{"key":"csp_xpath_网络搜集库qiumi","name":"⚽️球迷专场","type":3,"api":"csp_XPathFilter","searchable":1,"quickSearch":1,"filterable":1,"ext":"http://maoyingshi.cc/tvbox/云星日记/sh/MaooXB/dj.json"},
{"key":"csp_xpath_qiumi","name":"⚽球迷","type":3,"api":"csp_XPathFilter","searchable":1,"quickSearch":0,"filterable":1,"ext":"https://raw.liucn.cc/box/sub/ext/dj看球.json"},
{"key":"csp_xpath_88kanqiu","name":"⚽88看球","type":3,"api":"csp_XPathMac","searchable":1,"quickSearch":0,"filterable":0,"ext":"https://cdn.jsdelivr.net/gh/YuanHsing/freed@master/TVBox/MaooXP/88kanqiu.json"},
#学习资源※※※※※※※※※※※※※※※※※※※※※※※※※※※※
{"key":"学堂","name":"💙学习园地","type":3,"api":"csp_Dora","searchable":0,"quickSearch":0,"filterable":1,"ext":"http://52bsj.vip:81/api/v3/file/get/1572/%E5%90%BE%E7%88%B1%E5%AD%A6%E5%A0%820804.m3u?sign=m0FU-h5ZHcb8m0mrj8K1jolIeMUfxttQL3bjLTrIQJg%3D%3A0","jar":""},
{"key":"Bili","name":"💙哔哩哔哩","type":"3","api":"csp_Dora","searchable":"1","quickSearch":"1","filterable":"1","ext":"85b2986381a134ba3ebbaf25ae8138e7#http://api.lengniuge.eu.org/Bili.json","jar":"https://download.kstore.space/download/3051/1106bili.jar;md5;66ff55d33c20f2465e3b77a3da076eab"},
{"key":"Tbook","name":"听书网","type":"3","api":"csp_Dora","searchable":"1","quickSearch":"1","filterable":"1","ext":"d16d1517e9eaad9909cb35c55ba0b784","jar":"https://gitea.com/Pandora2277/NoWar/raw/branch/main/cs.txt"},
#切片资源※※※※※※※※※※※※※※※※※※※※※※※※※※※※
{"key":"冠军资源","name":"🔪冠军资源(切)","type":1,"api":"https://www.cmpzy.com/api.php/provide/vod/?ac=list","searchable":1,"quickSearch":1},
{"key":"TOM资源","name":"🔪TOM资源(切)","type":1,"api":"https://api.tomcaiji.com/api.php/provide/vod/","searchable":1,"quickSearch":1},



#网盘挂载※※※※※※※※※※※※※※※※※※※※※※※※※※※※

//{"key":"t4public","name":"T4公共","type":4,"api":"https://t4.secan.icu/vod?sites=all&ali_token=阿里token&timeout=10","searchable":1,"quickSearch":1,"filterable":0},
{"key":"t4public","name":"T4公共","type":4,"api":"https://t4.secan.icu/vod?sites=all&ali_token=3781469b13074e4cac1e0e7113e4fa20token&timeout=10","searchable":1,"quickSearch":1,"filterable":0},

{"key":"T4","name":"T4公共2(SP)","type":4,"api":"https://t4.secan.icu/vod","searchable":1,"quickSearch":1,"filterable":1},
{
"key":"T4_douban",
"name":"影视推荐",
"type":4,
"api":"http://top.fuqizhishi.com/vod",
"searchable":1,
"quickSearch":1,
"filterable":0
},
{"key":"csp_Alist1","name":"🐠Alist【q2版本使用】","type":3,"api":"csp_Alist","searchable":1,"quickSearch":0,"filterable":0,"ext":"木哈$https://jsonjx.xymhh.xyz/#米奇妙妙屋$https://anime.mqmmw.ga#小光盘$https://alist.xiaoguanxiaocheng.life#帅盘$https://hi.shuaipeng.wang#资源小站$https://pan.142856.xyz#晴园的宝藏库$https://alist.52qy.repl.co#嗨翻$https://pan.hikerfans.com#一只鱼$https://alist.youte.ml#听闻网盘$https://wangpan.sangxuesheng.com#菊花盘$https://pan.142856.xyz#神族九帝$https://alist.shenzjd.com#姬路白雪の资源小站$https://pan.jlbx.xyz#七米蓝$https://al.chirmyram.com","jar":"https://pan.szfx.top/down.php/285d80f6e19e2613ea305083f84bd95a.jar"},
#官采资源※※※※※※※※※※※※※※※※※※※※※※※※※※※※
{"key":"DY4采集","name":"DY4采集(解析)","type":1,"api":"http://cj-a.dy4.top:668/api.php/provide/vod/","searchable":1,"quickSearch":1},
{"key":"千橙资源","name":"千橙资源(解析)","type":1,"api":"http://124.223.10.96:8090/api.php/provide/vod/?ac=list","searchable":1,"quickSearch":1,"categories":["综艺","动漫","动作片","喜剧片","爱情片","科幻片","恐怖片","剧情片","战争片","国产剧","港台剧","日韩剧","欧美剧","惊悚片","犯罪片","冒险片","悬疑片","动画片","武侠片","奇幻片","少儿","其他片","其他剧"]},
{"key":"北雁资源","name":"北雁资源(解析)","type":1,"api":"https://zy.beiyan.cc:4433/api.php/provide/vod/?ac=list","searchable":1,"quickSearch":1},
{"key":"天堂资源","name":"天堂资源(解析)","type":1,"api":"http://vipmv.cc/api.php/provide/vod/","searchable":1,"quickSearch":1},
{"key":"搬运工","name":"搬运工(解析)","type":1,"api":"https://cj.banyung.xyz/?from=youku,mgtv,qiyi,qq&type=chaoxi&at=json&by=asc","searchable":1,"quickSearch":1,"categories":["国产剧","综艺","动漫","动作片","喜剧片","爱情片","科幻片","恐怖片","剧情片","战争片","港台剧","日韩剧","欧美剧","惊悚片","犯罪片","冒险片","悬疑片","动画片","武侠片","奇幻片","少儿","其他片","其他剧"]},



{"key":"底线","name":"——————我是底线——————","type":3,"api":"csp_360","searchable":1,"quickSearch":1,"filterable":1,"ext":"","jar":""}
],


#解析规则※※※※※※※※※※※※※※※※※※※※※※※※※※※※
"parses":[
{"name":"[Json聚合]","type":3,"url":"Demo"},
{"name":"[Web聚合]","type": 3,"url": "Web"},
{"name":"[轮询]","type":2,"url":"Sequence"},
// {"name":"[并发]","type":2,"url":"Parallel"},
{"name":"融兴","type":0,"url":"http://jx.dygfsdy.com/dp/?url="},
{"name":"虾米","type":0,"url":"https://jx.xmflv.com/?url="},
{"name":"解壹","type":0,"url":"https://jx.jsonplayer.com/player/?url="},
{"name":"懒懒","type":1,"url":"http://123.57.56.94:9931/lanlan/?url="},
{"name":"恩哥","type":1,"url":"http://newjiexi.gotka.top/keyu3.php?url=","ext":{"flag":["qq","腾讯","qiyi","爱奇艺","奇艺","youku","优酷","mgtv","芒果","letv","乐视","pptv","PPTV","sohu","bilibili","哔哩哔哩","哔哩"],"header":{"User-Agent":"okhttp/4.1.0"}}},
// {"name":"解贰","type":1,"url":"http://211.99.99.236:4567/jhjson/ceshi.php?url="},
{"name":"CK解","type":1,"url":"http://api.ckflv.cn/?url=","ext":{"flag":["qq","腾讯","qiyi","iqiyi","爱奇艺","奇艺","youku","优酷","mgtv","芒果","letv","乐视","pptv","PPTV","sohu","bilibili","哔哩哔哩","哔哩","xigua","CL4K","duoyin"],"header":{"User-Agent":"okhttp/4.1.0"}}},
{"name":"可云","type":1,"url":"http://newjiexi.gotka.top/keyu3.php?url=","ext":{"flag":["qq","腾讯","qiyi","iqiyi","爱奇艺","奇艺","youku","优酷","mgtv","芒果","letv","乐视","pptv","PPTV","sohu","bilibili","哔哩哔哩","哔哩"],"header":{"User-Agent":"okhttp/4.1.0"}}},
{"name":"云解","type":1,"url":"http://chaloli.cn/home/api?type=ys&uid=1&key=ekloswzABCGHKLOT58&url=","ext":{"flag":["qq","腾讯","qiyi","iqiyi","爱奇艺","奇艺","youku","优酷","mgtv","芒果","letv","乐视","pptv","PPTV","sohu","bilibili","哔哩哔哩","哔哩"],"header":{"User-Agent":"okhttp/4.1.0"}}},
// {"name":"江湖","type":1,"url":"http://211.99.99.236:4567/jhjson/ceshi.php?url="},
{"name": "RX2","type": 1,"url": "http://rxjx.kuanjv.com/allm3u8.php?url="},
{"name":"晓成","type":1,"url":"https://api.cygc.xyz/analysis/?url=","ext":{"flag":["qq","腾讯","qiyi","爱奇艺","奇艺","youku","优酷","mgtv","芒果","letv","乐视","pptv","PPTV","sohu","bilibili","哔哩哔哩","哔哩"],"header":{"User-Agent":"okhttp/4.1.0"}}},
{"name":"懒贰","type":1,"url":"http://lanlan.ckflv.cn/?url=","ext":{"flag":["qq","腾讯","qiyi","爱奇艺","奇艺","youku","优酷","mgtv","芒果","letv","乐视","pptv","PPTV","sohu","bilibili","哔哩哔哩","哔哩"],"header":{"User-Agent":"okhttp/4.1.0"}}},
{"name":"OK解","url":"https://api.okjx.cc:3389/jx.php?url="},
{"name":"OK综","type":0,"url":"https://okjx.cc/?url="},
{"name":"诺讯","type":0,"url":"https://www.nxflv.com/?url="},
{"name":"盘谷","type":0,"url":"http://www.pangujiexi.com/pangu/?url="},
{"name":"777","type":0,"url":"https://jx.777jiexi.com/player/?url="},
{"name":"parvip","type":0,"url":"https://vip.parwix.com:4433/player/?url=","ext":{"flag":["qq","腾讯","qiyi","iqiyi","爱奇艺","奇艺","youku","优酷","mgtv","芒果","letv","乐视","pptv","PPTV","sohu","bilibili","哔哩哔哩","哔哩"]}},
{"name":"hxys","type":0,"url":"https://hxys.tv/bfq/?url=","ext":{"flag":["rx","ltnb","renrenmi","rongxing","bilibili","哔哩哔哩","哔哩","youku","优酷","qiyi","爱奇艺","奇艺","qq","腾讯","mgtv","芒果","sohu","搜狐","letv","乐视","xigua","CL4K","西瓜"]}},
{"name":"555","type":0,"url":"https://jiexi.555jiexi.net:555/player/?url="},
{"name":"parwix","type":0,"url":"https://jx.parwix.com:4433/player/analysis.php?v=","ext":{"flag":["qq","腾讯","qiyi","iqiyi","爱奇艺","奇艺","youku","优酷","mgtv","芒果","letv","乐视","pptv","PPTV","sohu","bilibili","哔哩哔哩","哔哩"]}},
{"name":"夜幕","type":0,"url":"https://www.yemu.xyz/?url=","ext":{"flag":["qq","腾讯","qiyi","iqiyi","爱奇艺","奇艺","youku","优酷","mgtv","芒果","letv","乐视","pptv","PPTV","sohu","bilibili","哔哩哔哩","哔哩"]}},
{"name":"往往","type":0,"url":"https://zyone.vqyt.cn/player/?url="},
{"name":"8090","url":"https://www.8090.la/8090/?url="},
{"name":"PJ蓝","type":0,"url":"https://bf.ppjbk.cn/?url="},
{"name":"PJ解","type":0,"url":"https://jx.ppjbk.cn/?url="},
{"name":"lecurl","type":0,"url":"https://lecurl.cn/?url="},
{"name":"2090","type":0,"url":"https://m2090.com/?url="},
{"name":"HTjson","type":0,"url":"https://h5.freejson.xyz/player/?url="},
{"name":"007","type":0,"url":"https://jx.007ts.net:6112/?url=","ext":{"flag":["rx","ltnb","renrenmi","rongxing","bilibili","哔哩哔哩","哔哩","youku","优酷","qiyi","爱奇艺","奇艺","qq","腾讯","mgtv","芒果","sohu","搜狐","letv","乐视","xigua","CL4K","西瓜"],"header":{"User-Agent":"okhttp/4.1.0"}}},
{"name":"KB解析","type":0,"url":"https://player.238238.xyz/?v=","ext":{"flag":["rx","ltnb","renrenmi","rongxing","bilibili","哔哩哔哩","哔哩","youku","优酷","qiyi","爱奇艺","奇艺","qq","腾讯","mgtv","芒果","sohu","搜狐","letv","乐视","xigua","CL4K","西瓜"],"header":{"User-Agent":"okhttp/4.1.0"}}},
{"name":"365","type":0,"url":"https://chaxun.truechat365.com/?url=","ext":{"flag":["qq","腾讯","qiyi","iqiyi","爱奇艺","奇艺","youku","优酷","mgtv","芒果","letv","乐视","pptv","PPTV","sohu","bilibili","哔哩哔哩","哔哩"]}},
{"name":"199","type":0,"url":"http://m.199cn.cn/live_qjx/jx.html?url="},
{"name":"线路7","type":0,"url":"https://jx.parwix.com:4433/player/?url="},
{"name":"线路8","type":0,"url":"https://jx.parwix.com:4433/player/analysis.php?v="},
{"name":"线路9","type":0,"url":"https://www.yemu.xyz/?url="},
{"name":"线路11","type":0,"url":"https://jx.bozrc.com:4433/player/?url="},
{"name":"线路12","type":0,"url":"http://1.117.152.239:39000/?url="},
{"name":"线路13","type":1,"url":"http://newjiexi.gotka.top/keyu3.php?url=","ext":{"header":{"User-Agent":"okhttp/4.1.0"}}},

//{"name":"JXHC","type":1,"url":"http://jxhc.ioivip.xyz/?url=","ext":{"flag":["qq","腾讯","qiyi","iqiyi","爱奇艺","奇艺","youku","优酷","mgtv","芒果","letv","乐视","pptv","PPTV","sohu","bilibili","哔哩哔哩","哔哩","xigua","CL4K","西瓜"],"header":{"User-Agent":"okhttp/4.1.0"}}},
//{"name":"NB解析","type":1,"url":"http://rxjx.kuanjv.com/allm3u8.php?url="},
//{"name":"bt5v","type":1,"url":"https://rx.bt5v.com/json/jsonindex.php/?url=","ext":{"flag":["rx","ltnb","renrenmi","rongxing","bilibili","哔哩哔哩","哔哩","youku","优酷","qiyi","爱奇艺","奇艺","qq","腾讯","mgtv","芒果","sohu","搜狐","letv","乐视","xigua","CL4K","西瓜"],"header":{"User-Agent":"okhttp/4.1.0"}}},
//{"name":"bozrc","type":0,"url":"https://jx.bozrc.com:4433/player/?url=","ext":{"flag":["qq","腾讯","qiyi","iqiyi","爱奇艺","奇艺","youku","优酷","mgtv","芒果","letv","乐视","pptv","PPTV","sohu","bilibili","哔哩哔哩","哔哩"]}},
//{"name":"ak解析","type":1,"url":"http://123.57.56.94:9931/ak/?url=","ext":{"flag":["qq","腾讯","qiyi","iqiyi","爱奇艺","奇艺","youku","优酷","mgtv","芒果","letv","乐视","pptv","PPTV","sohu","bilibili","哔哩哔哩","哔哩"],"header":{"User-Agent":"okhttp/4.1.0"}}},
//{"name":"绿叶","type":1,"url":"https://hc.izny.cn/json.php?url="},
//{"name":"GGTV聚合","type":1,"url":"https://play.fuqizhishi.com/juhe/API.php?appkey=caijijuhe220902&url=","ext":{"flag":["qq","腾讯","qiyi","iqiyi","爱奇艺","奇艺","youku","优酷","mgtv","芒果","letv","乐视","pptv","PPTV","sohu","bilibili","哔哩哔哩","哔哩"],"header":{"User-Agent":"okhttp/4.1.0"}}},
//{"name":"猫咪","type":1,"url":"http://api.xiaomaomi.tv/api/?key=957eb7b820ca6273f751bc6085ffe846&url=","ext":{"flag":["qiyi","iqiyi","奇艺","爱奇艺","qq","腾讯","youku","优酷","pptv","PPTV","letv","乐视","bilibili","哔哩哔哩","哔哩","mgtv","芒果","xigua","西瓜","sohu","搜狐","cntv","cctv","央视","1905","m1905"]}},
//{"name":"KJV","type":1,"url":"https://za.kuanjv.com/?url=","ext":{"flag":["rx","ltnb","renrenmi","rongxing","bilibili","哔哩哔哩","哔哩","youku","优酷","qiyi","爱奇艺","奇艺","qq","腾讯","mgtv","芒果","sohu","搜狐","letv","乐视","xigua","CL4K","西瓜"],"header":{"User-Agent":"okhttp/4.1.0"}}},
//{"name":"ckplayer","type":0,"url":"https://www.ckplayer.vip/jiexi/?url="},
//{"name":"醉仙","type":0,"url":"https://jx.zui.cm/?url="},
//{"name":"Fosi嗅探","type":0,"url":"https://play.fositv.com/?url="},
//{"name":"云解析","type":0,"url":"https://jx.aidouer.net/?url="},
//{"name":"云解析02","type":0,"url":"https://jx.ppflv.com/?url="},
//{"name":"freejx","type":0,"url":"https://json.freejx.in/?url="},
//{"name":"dy4-6","type":1,"url":"http://jiexi.dy4.top:888/m3u8-json/?id=6&url="},
//{"name":"鸿途","type":1,"url":"http://139.159.220.126:5705/parse/api/鸿途.js?url="},
//{"name":"酷云","type":1,"url":"http://139.159.220.126:5705/parse/api/酷云.js?url="},
//{"name":"飞跃","type":1,"url":"http://139.159.220.126:5705/parse/api/飞跃.js?url="},


{"name":"——底线——","type":0,"url":"https://www.nxflv.com/?url="}
],


"flags":["youku","qq","iqiyi","qiyi","letv","sohu","tudou","pptv","mgtv","wasu","bilibili","renrenmi"],
"ijk":[
{"group":"软解码","options":[
{"category":4,"name":"opensles","value":"0"},
{"category":4,"name":"overlay-format","value":"842225234"},
{"category":4,"name":"framedrop","value":"1"},
{"category":4,"name":"soundtouch","value":"1"},
{"category":4,"name":"start-on-prepared","value":"1"},
{"category":1,"name":"http-detect-range-support","value":"0"},
{"category":1,"name":"fflags","value":"fastseek"},
{"category":2,"name":"skip_loop_filter","value":"48"},
{"category":4,"name":"reconnect","value":"1"},
{"category":4,"name":"enable-accurate-seek","value":"0"},
{"category":4,"name":"mediacodec","value":"0"},
{"category":4,"name":"mediacodec-auto-rotate","value":"0"},
{"category":4,"name":"mediacodec-handle-resolution-change","value":"0"},
{"category":4,"name":"mediacodec-hevc","value":"0"},
{"category":1,"name":"dns_cache_timeout","value":"600000000"}
]},
{"group":"硬解码","options":[
{"category":4,"name":"opensles","value":"0"},
{"category":4,"name":"overlay-format","value":"842225234"},
{"category":4,"name":"framedrop","value":"1"},
{"category":4,"name":"soundtouch","value":"1"},
{"category":4,"name":"start-on-prepared","value":"1"},
{"category":1,"name":"http-detect-range-support","value":"0"},
{"category":1,"name":"fflags","value":"fastseek"},
{"category":2,"name":"skip_loop_filter","value":"48"},
{"category":4,"name":"reconnect","value":"1"},
{"category":4,"name":"enable-accurate-seek","value":"0"},
{"category":4,"name":"mediacodec","value":"1"},
{"category":4,"name":"mediacodec-auto-rotate","value":"1"},
{"category":4,"name":"mediacodec-handle-resolution-change","value":"1"},
{"category":4,"name":"mediacodec-hevc","value":"1"},
{"category":1,"name":"dns_cache_timeout","value":"600000000"}
]}
],
"ads":["https://lf1-cdn-tos.bytegoofy.com/obj/tos-cn-i-dy/455ccf9e8ae744378118e4bd289288dd","mimg.0c1q0l.cn","www.googletagmanager.com","www.google-analytics.com","mc.usihnbcq.cn","mg.g1mm3d.cn","mscs.svaeuzh.cn","cnzz.hhttm.top","tp.vinuxhome.com","cnzz.mmstat.com","www.baihuillq.com","s23.cnzz.com","z3.cnzz.com","c.cnzz.com","stj.v1vo.top","z12.cnzz.com","img.mosflower.cn","tips.gamevvip.com","ehwe.yhdtns.com","xdn.cqqc3.com","www.jixunkyy.cn","sp.chemacid.cn","hm.baidu.com","s9.cnzz.com","z6.cnzz.com","um.cavuc.com","mav.mavuz.com","wofwk.aoidf3.com","z5.cnzz.com","xc.hubeijieshikj.cn","tj.tianwenhu.com","xg.gars57.cn","k.jinxiuzhilv.com","cdn.bootcss.com","ppl.xunzhuo123.com","xomk.jiangjunmh.top","img.xunzhuo123.com","z1.cnzz.com","s13.cnzz.com","xg.huataisangao.cn","z7.cnzz.com","xg.huataisangao.cn","z2.cnzz.com","s96.cnzz.com","q11.cnzz.com","thy.dacedsfa.cn","xg.whsbpw.cn","s19.cnzz.com","z8.cnzz.com","s4.cnzz.com","f5w.as12df.top","ae01.alicdn.com","www.92424.cn","k.wudejia.com","vivovip.mmszxc.top","qiu.xixiqiu.com","cdnjs.hnfenxun.com","cms.qdwght.com"]
}
