{


#规则包
//"spider":"https://demo.ifile.space/sdown/h9afxiUp43/4ad809cd0844ee846ed2619b90e18487a9dcf618/1004.jar?passcode=&authtoken=8ddb7962e2a38e39b13b421f40c7ffad;md5;F0BD8B1C698C3BC7554F2EDBD77E81EE",
//"spider":"https://share.nite07.com/api/v3/file/source/26960/top97.jar?sign=s_AeiGUUyT4SfF12gztayJOUYHCPH3ND4QAfWEFeSVs%3D%3A0;md5;7299C83C6EE488B6051041D3F9A30488",
"spider":"https://download.kstore.space/download/3051/1080%E5%93%94%E5%93%A9.jar;md5;C4BA98711FAC35DAFF17780D0817F5DC",

#直播
"lives":[{"group":"redirect","channels":[{"name":"live","urls":["proxy://do=live&type=txt&ext=aHR0cHM6Ly9naXRsYWIuY29tL3p5azIxMi90bHgtbGFiLy0vcmF3L21hc3Rlci9UVi9UVjQ="]}]}],
#壁纸

//"wallpaper":"https://picsum.photos/1920/1080/?blur",
//"wallpaper":"https://api.likepoems.com/img/sina/nature",
//"wallpaper":"https://api.btstu.cn/sjbz/api.php",
"wallpaper":"https://tuapi.eees.cc/api.php?category={dongman,fengjing,biying,meinv}&type=302",

"rules":[
{"host":"*","rule":["douyinvod.com","/video/tos/cn/"]},
{"host":"*","rule":["default.365yg.com","/video/tos/cn/"]},
{"host":"*","rule":["aliyundrive.net","response-content-disposition=",".m3u8"]},
{"host":"*","rule":["aliyundrive.net","response-content-disposition=",".mp4"]},
{"host":"*","rule":["aliyundrive.net","response-content-disposition=",".mkv"]},
{"host":"*","rule":["/m3u8.php?path=",".m3u8"]},
{"host":"zjmiao.com","rule":["play.videomiao.vip/API.php","time=","key=","path="]},
{"host":"*","rule":["/API.php?time=","key=","path=",".m3u8"]},
{"host":"*","rule":["oss-cn-m3u8","myqcloud.com.zh188.net","?url=",".m3u8"]},
{"host":"www.007ts.me","rule":["hls.pchj.net",".m3u8"]},
{"host":"*","rule":["iesdouyin.com/aweme","video_id="]},
{"host":"*","rule":["huoshan.com","/item/video/"]},
{"host":"*","rule":["http((?!http).){12,}?\\.(m3u8|mp4|flv|avi|mkv|rm|wmv|mpg|m4a)\\?.*"]},
{"host":"*","rule":["http((?!http).){12,}\\.(m3u8|mp4|flv|avi|mkv|rm|wmv|mpg|m4a)"]},
{"host":"*","rule":["mp3"]},
{"host":"*","rule":["m4a"]}
],

#配置源
"sites":[

#内置规则※※※※※※※※※※※※※※※※※※※※※※※※※※※※
{"key":"主页","name":"🌈主页切换视频源🌞","type":3,"api":"csp_SP360","searchable":0,"quickSearch":1,"filterable":1,"jar":"","playerType":2},
//{"key":"主页2","name":"🏳️‍🌈豆瓣推荐-长按搜索🏳️‍🌈","type":4,"api":"http://top.fuqizhishi.com/vod","searchable":1,"quickSearch":1,"filterable":1},
{"key":"主页3","name":"🏳️‍🌈豆瓣推荐-长按搜索🏳️‍🌈","type":3,"api":"https://gitlab.com/zyk212/tlx-lab/-/raw/master/JS/lib/drpy.min.js","ext":"https://gitlab.com/zyk212/tlx-lab/-/raw/master/JS/js/%E8%B1%86%E7%93%A3.js"},

{"key":"csp_SP360","name":"💘360影视(SP)","type":3,"api":"csp_SP360","searchable":1,"quickSearch":1,"filterable":1},
{"key":"csp_Kunyu77","name":"👒酷云七七(秒播)","type":3,"api":"csp_Kunyu77","searchable":1,"quickSearch":1,"filterable":1,"jar":""},
{"key":"XYQH_柠檬TV","name":"🌐电视直播CCTV","type":3,"api":"csp_XYQHiker","searchable":1,"quickSearch":1,"filterable":1,"ext":"https://gitlab.com/zyk212/tlx-lab/-/raw/master/XYQHiker/xyqh_%E6%9F%A0%E6%AA%ACTV2.json",
"jar":"https://gitlab.com/zyk212/tlx-lab/-/raw/master/XYQHiker/XYQPlugin_1218.jar"},
{"key":"csp_Kuaikan","name":"👀快看影视(SP)","type":3,"api":"csp_Kuaikan","searchable":1,"quickSearch":1,"filterable":1,"jar":""},
{"key":"AppTT","name":"🖼图图影视(Do)","type":"3","api":"csp_Dora","searchable":"1","quickSearch":"1","filterable":"1","ext":"110c922de7d69804467fb83d3bb664b5","jar":"https://download.kstore.space/download/3051/JAR/tang3-1201.jar;md5;ac0a983b64a2513ee476b76b8fb0e3be"},
{"key":"csp_smdyy","name":"🐎神马影视(SP)","type":3,"api":"csp_Smdyy","searchable":1,"quickSearch":1,"filterable":1,"jar":""},
{"key":"csp_DiDuan","name":"🎬低端影视(SP)","api":"csp_Ddrk","type":3,"searchable":1,"quickSearch":1,"filterable":1,"jar":""},
{"key":"csp_Bttoo","name":"🐞两个BT〔SP〕","type":3,"api":"csp_Bttoo","searchable":1,"quickSearch":1,"filterable":1,"jar":""},
{"key":"YQK_spider","name":"🥅一起看TV","api":"csp_YQKAPP","type":3,"filterable":1,"playerType":2,"quickSearch":1,"searchable":1,"ext":"https://api-tx.shumaxc.xyz","jar":"https://download.kstore.space/download/3051/JAR/tutu1125PJ.jar"},
{"key":"csp_Auete","name":"🐼Auete(SP)","type":3,"api":"csp_Auete","searchable":1,"quickSearch":1,"filterable":1,"jar":"https://download.kstore.space/download/3051/JAR/tutu1125PJ.jar;md5;6A92E85399922FF0FD7813BBC2F09957"},
{"key":"csp_爱看影视","name":"🦉爱看影视(Do)","type":3,"api":"csp_Dora","searchable":1,"quickSearch":1,"filterable":1,"ext":"a4ce9a4ba7d4f4bced2ff9dfc4ab4e50","jar":"https://download.kstore.space/download/3051/JAR/tang3-1201.jar;md5;ac0a983b64a2513ee476b76b8fb0e3be"},
{"key":"csp_新视觉","name":"🍁新视觉影院(SP)","type":3,"api":"csp_Xinsj","playerType":2,"searchable":1,"quickSearch":1,"filterable":1,"jar":"https://download.kstore.space/download/3051/JAR/%E6%96%B0%E8%A7%86%E8%A7%89.jar;md5;ECF7785B6F419593E3B1EE190F3903D1"},
//{"key":"Tutu_spider","name":"巧计|图图影视","api":"csp_TutuYs","type":3,"filterable":1,"quickSearch":1,"searchable":1,"ext":"http://110.42.6.212:7788","jar":"http://rl1eetffv.bkt.clouddn.com/czzy1122.jar"},
{"key":"csp_LibVio","name":"📼LibVio〔SP〕","type":3,"api":"csp_Lib","searchable":1,"quickSearch":1,"filterable":0,"jar":"http://饭太硬.ga/x/jar/xo.jar;md5;e80798750eca57470f29d1942bce39bb"},
//{"key":"厂长影视","name":"🚬厂长资源(SP)","type":3,"api":"csp_Czsapp","searchable":1,"quickSearch":1,"filterable":1,"jar":"http://w.g9.pub:66/381203888/Jar/panda1123.jar;md5;b1106a30c00023fc614c127cea04a331"},
{"key":"Czsapp","name":"🚬厂长资源(Do)","type":"3","api":"csp_Dora","searchable":"1","quickSearch":"1","filterable":"1","ext":"8ee655f702d0d21f3643504783babbc3","jar":"https://download.kstore.space/download/3051/JAR/tang3-1201.jar;md5;ac0a983b64a2513ee476b76b8fb0e3be"},
{"key":"csp_lezhu","name":"🐷乐猪影视(SP)","type":3,"api":"csp_Lezhu","searchable":1,"quickSearch":1,"filterable":1,"jar":"http://rl1eetffv.bkt.clouddn.com/tvbox.jar;md5;f6e93e53b2384e118aa1afb6286970fe"},
{"key":"csp_剧荒","name":"🎭剧荒影视(SP)","type":3,"api":"csp_Juhuang","searchable":1,"quickSearch":1,"filterable":1,"jar":""},
{"key":"mjxq_spider","name":"🌏美剧星球(SP)","type":3,"api":"csp_Mjxq","searchable":1,"quickSearch":1,"filterable":1,"jar":""},
{"key":"csp_LiteApple","name":"🍎小苹果TV(SP)","type":3,"api":"csp_LiteApple","searchable":1,"quickSearch":1,"filterable":1,"jar":""},
{"key":"csp_EEEDY","name":"💮飘花影视(SP)","type":3,"api":"csp_EEEDY","playerType":2,"searchable":1,"quickSearch":1,"filterable":1,"jar":"http://饭太硬.ga/x/jar/xo.jar;md5;e80798750eca57470f29d1942bce39bb"},
// {"key":"3EDY","name":"🐞叁亿电影(SP)","type":3,"api":"csp_EEEDY","searchable":1,"quickSearch":1,"filterable":1,"jar":"https://0a.fit/PiLgY;md5;F0BD8B1C698C3BC7554F2EDBD77E81EE"},
//{"key":"csp_Cokemv","name":"📺Cokemv(SP)","type":3,"api":"csp_Cokemv","searchable":1,"quickSearch":1,"filterable":1,"jar":""},
{"key":"Cokemv","name":"📺可乐影视(Do)","type":"3","api":"csp_Dora","searchable":"1","quickSearch":"1","filterable":"1","ext":"b88de1329655cca1beba45aa9776de70","jar":"https://download.kstore.space/download/3051/JAR/tang3-1201.jar;md5;ac0a983b64a2513ee476b76b8fb0e3be"},
{"key":"NoSearch_Bdys_spider","name":"🎬哔滴影视(SP)","api":"csp_Bdys01","type":3,"filterable":1,"quickSearch":1,"searchable":1,"ext":"","jar":"https://download.kstore.space/download/3051/JAR/tutu1125PJ.jar;md5;6A92E85399922FF0FD7813BBC2F09957"},
{"key":"在线之家","name":"🏠在线之家(SP)","type":3,"api":"csp_Zxzj","searchable":1,"quickSearch":1,"filterable":1,"jar":""},
{"key":"Yanet","name":"🐥奈飞影视(Do)","type":"3","api":"csp_Dora","searchable":"1","quickSearch":"1","filterable":"1","ext":"a369b1f623fe86605f1b029f0cf66349","jar":"https://download.kstore.space/download/3051/JAR/tang3-1201.jar;md5;ac0a983b64a2513ee476b76b8fb0e3be"},
{"key":"Tian","name":"✨天天影视(Do)","type":"3","api":"csp_Dora","searchable":"1","quickSearch":"1","filterable":"1","ext":"bdc1c75081e5e477189a463baa47e392","jar":"https://download.kstore.space/download/3051/JAR/tang3-1201.jar;md5;ac0a983b64a2513ee476b76b8fb0e3be"},

{"key":"QQ","name":"🐧腾讯视频(官)","type":3,"api":"csp_QQ","searchable":1,"quickSearch":1,"filterable":1,"playUrl":"","jar":"http://饭太硬.ga/x/jar/xo.jar;md5;e80798750eca57470f29d1942bce39bb"},
//{"key":"drpy_js_腾云驾雾","name":"🐧腾讯视频(js)","type":3,"api":"https://ghproxy.com/https://raw.githubusercontent.com/ShadowDemon1997/CatVodSpiderJS/main/drpy.js","ext":"https://gitcode.net/qq_32394351/dr_py/-/raw/master/js/腾云驾雾.js"},
{"key":"爱奇艺","name":"🥑爱奇艺(官源)","type":3,"api":"csp_IQIYI","searchable":1,"quickSearch":0,"filterable":1,"jar":""},
{"key":"MGTV","name":"🥭芒果TV(官源)","type":3,"api":"csp_MGTV","searchable":1,"quickSearch":1,"filterable":1,"jar":""},
{"key":"dr_优酷","name":"🥁优酷视频(JS)","type":3,"api":"http://101.34.67.237/libs/drpy.min.js","searchable":2,"quickSearch":0,"filterable":1,"ext":"http://101.34.67.237/js/优酷.js"},
{"key":"哔哩采集","name":"📺哔哩影院(采集)","type":1,"api":"http://124.223.10.96:8090/api.php/provide/vod/from/bilibili/?ac=list","searchable":1,"quickSearch":1,
"categories":["国产剧","港台剧","日韩剧","欧美剧","动漫","动画片","综艺","动作片","科幻片","喜剧片","恐怖片","爱情片","剧情片","战争片","惊悚片","犯罪片","冒险片","悬疑片","奇幻片","纪录片"]},
{"key":"csp_Nmys","name":"🥝农民影视(SP)","type":3,"api":"csp_Nmys","searchable":1,"quickSearch":1,"filterable":1,"ext":"https://agit.ai/Yoursmile7/TVBox/raw/branch/master/sub/Nmys.json","jar":""},
{"key":"drpy_js_花屋影院","name":"🌼花屋影院[js]","type":3,"api":"https://gitlab.com/zyk212/tlx-lab/-/raw/master/JS/lib/drpy2.min.js","ext":"https://gitlab.com/zyk212/tlx-lab/-/raw/master/JS/js/花屋影院.js"},
{"key": "csp_xml_taopian","name": "🍀淘片资源(切)","type": 0,"api": "https://taopianzy.com/home/cjapi/as/mc10/vod/xml/m3u8","categories": []}, 

#Dora规则※※※※※※※※※※※※※※※※※※※※※※※※※※※※
{"key":"Pang","name":"🐯胖虎影视(Do)","type":"3","api":"csp_Dora","searchable":"1","quickSearch":"1","filterable":"1","ext":"c41fdb671b20925c76fa9b6ff8bad027","jar":"https://download.kstore.space/download/3051/JAR/tang3-1201.jar;md5;ac0a983b64a2513ee476b76b8fb0e3be"},
{"key":"棉花影视","name":"☁️棉花影视(SP)","type":3,"api":"csp_MianHua","searchable":1,"playerType":2,"quickSearch":1,"filterable":0,"jar":"http://rl1eetffv.bkt.clouddn.com/tvbox.jar;md5;f6e93e53b2384e118aa1afb6286970fe"},
{"key":"sliu_spider","name":"🥥石榴电影(SP)","api":"csp_ShiLiuDY","type":3,"filterable":1,"playerType":2,"quickSearch":1,"searchable":1,"ext":"","jar":"https://download.kstore.space/download/3051/JAR/tutu1125PJ.jar;md5;6A92E85399922FF0FD7813BBC2F09957"},
//{"key":"Zjdr","name":"💻追剧达人(SP)","type":3,"api":"csp_Zjdr","searchable":1,"quickSearch":1,"filterable":1,"jar":""},
{"key":"Lgyy","name":"💎蓝光影视(Do)","type":"3","api":"csp_Dora","searchable":"1","quickSearch":"1","filterable":"1","ext":"b2e573ff040fcd54b50475660ee1a7d1","jar":"https://download.kstore.space/download/3051/JAR/tang3-1201.jar;md5;ac0a983b64a2513ee476b76b8fb0e3be"},
{"key":"drpy_js_追剧达人","name":"💻追剧达人[js]","type":3,"api":"https://gitlab.com/zyk212/tlx-lab/-/raw/master/JS/lib/drpy2.min.js","ext":"https://gitlab.com/zyk212/tlx-lab/-/raw/master/JS/js/追剧达人.js"},
//{"key":"Zjdr","name":"💻追剧达人(Do)","type":"3","api":"csp_Dora","searchable":"1","quickSearch":"1","filterable":"1","ext":"778e8966ec0e9c0ae0b4682ad3550f40","jar":"https://download.kstore.space/download/3051/JAR/tang3-1201.jar;md5;ac0a983b64a2513ee476b76b8fb0e3be"},
{"key":"Dy555","name":"🎰555影视(Do)","type":"3","api":"csp_Dora","searchable":"1","quickSearch":"1","filterable":"1","ext":"f41992bd740145ed58cb212dc0876582","jar":"https://download.kstore.space/download/3051/JAR/tang3-1201.jar;md5;ac0a983b64a2513ee476b76b8fb0e3be"},
{"key":"csp_xb_cokemv","name":"🎂可乐影视(XBI)","type":3,"api":"csp_XBiu","searchable":1,"quickSearch":1,"filterable":0,"ext":"https://cokemv.me/vodshow/{cateId}--------{catePg}---.html"},
{"key":"csp_xb_bvulei","name":"🎂布蕾影视(XBI)","type":3,"api":"csp_XBiu","searchable":1,"quickSearch":1,"filterable":0,"ext":"https://www.bulei.cc/index.php/vod/show/area/{area}/class/{class}/id/{cateId}/lang/{lang}/page/{catePg}/year/{year}.html"},
{"key":"Dm84","name":"🎊动漫剧场(Do)","type":"3","api":"csp_Dora","searchable":"1","quickSearch":"1","filterable":"1","ext":"572192a9fe2136041a58e7219a46fb2b","jar":"https://download.kstore.space/download/3051/JAR/tang3-1201.jar;md5;ac0a983b64a2513ee476b76b8fb0e3be"},
#直播资源※※※※※※※※※※※※※※※※※※※※※※※※※※※※
{"key":"csp_Yj1211","name":"📽️在线直播(SP)","type":3,"api":"csp_Yj1211","searchable":1,"quickSearch":1,"filterable":1,"jar":""},
{"key":"csp_biubiu_斗鱼","name":"🐬斗鱼〔直播〕","type":3,"api":"csp_XBiubiu","searchable":1,"quickSearch":1,"filterable":0,"ext":"http://maoyingshi.cc/tvbox/云星日记/sh/MaooXB/douyu.json"},
{"key":"JRS赛事直播","name":"🏀JRS赛事〔注意直播时间〕","type":3,"api":"XPath3","searchable":0,"quickSearch":0,"filterable":0,"ext":"https://agit.ai/Yoursmile7/TVBox/raw/branch/master/sub/JRSzb.json"},
{"key":"88看球","name":"⚽88看球〔注意直播时间〕","type":3,"api":"XPath3","searchable":0,"quickSearch":0,"filterable":0,"ext":"https://agit.ai/Yoursmile7/TVBox/raw/branch/master/sub/88kq.json"},
{"key":"dr_88看球","name":"⚽️88看球(drpy)〔注意直播时间〕","type":3,"api":"https://agit.ai/Yoursmile7/TVBox/raw/branch/master/js/lib/drpy.min.js","searchable":2,"quickSearch":0,"filterable":0,"ext":"https://agit.ai/Yoursmile7/TVBox/raw/branch/master/js/88%e7%9c%8b%e7%90%83.js"},
{"key":"csp_XYQBiu_17kan球","name":"👀17kan〔注意直播时间〕","type":3,"api":"csp_XYQBiu","searchable":0,"quickSearch":0,"filterable":0,"ext":"http://maoyingshi.cc/tvbox/云星日记/sh/MaooXB/17kan.json","jar":"http://maoyingshi.cc/tvbox/云星日记/jar/17kan.jar"},
{"key":"csp_xBPQ_zf","name":"🏀抓饭体育〔直播〕","type":3,"api":"csp_xBPQ","searchable":1,"quickSearch":0,"filterable":0,"ext":"http://maoyingshi.cc/tvbox/云星日记/sh/MaooXB/抓饭体育.json"},

#云盘资源※※※※※※※※※※※※※※※※※※※※※※※※※※※※
//{"key":"csp_AliPanSou","name":"😻盘搜(1)","type":3,"api":"csp_AliPanSou","searchable":1,"quickSearch":1,"filterable":1,"playerType":1,"ext":"http://home.jundie.top:666/token.txt","jar":""},
{"key":"Gitcafe","name":"📜小纸条〔SP〕","type":3,"api":"csp_Gitcafe","searchable":1,"quickSearch":1,"filterable":1,"playerType":1,"ext":"http://home.jundie.top:666/token.txt","jar":"https://download.kstore.space/download/3051/JAR/tang3-1201.jar;md5;ac0a983b64a2513ee476b76b8fb0e3be"},
{"key":"AliPS","name":"😻盘搜〔仅搜索〕","type":3,"api":"csp_AliPS","searchable":1,"quickSearch":1,"filterable":1,"playerType":1,"ext":"http://home.jundie.top:666/token.txt","jar":"https://download.kstore.space/download/3051/JAR/tang3-1201.jar;md5;ac0a983b64a2513ee476b76b8fb0e3be"},
{"key":"FindZY","name":"🦊找资源〔仅搜索〕","type":3,"api":"csp_Zhaozy","searchable":1,"quickSearch":1,"filterable":1,"playerType":1,"ext":"http://home.jundie.top:666/token.txt","jar":"https://download.kstore.space/download/3051/JAR/tang3-1201.jar;md5;ac0a983b64a2513ee476b76b8fb0e3be"},
{"key":"csp_Yiso","name":"🆎易搜〔仅搜索〕","type":3,"api":"csp_Yiso","searchable":1,"quickSearch":1,"filterable":0,"playerType":1,"ext":"http://home.jundie.top:666/token.txt","jar":"https://download.kstore.space/download/3051/JAR/tang3-1201.jar;md5;ac0a983b64a2513ee476b76b8fb0e3be"},
//{"key":"Upyunso","name":"云搜┃搜索","type":3,"api":"csp_Upyunso","playerType":1,"searchable":1,"quickSearch":1,"filterable":0,"playerType":1,"ext":"http://api.lengniuge.eu.org/al.txt","jar":"https://download.kstore.space/download/3051/JAR/tang3-1201.jar;md5;ac0a983b64a2513ee476b76b8fb0e3be"},
{"key":"push_agent","name":"🍭推送〔阿里推送/磁力推送〕","type":3,"api":"csp_PushAgent","searchable":0,"quickSearch":0,"filterable":0,"ext":"http://api.lengniuge.eu.org/al.txt","jar":"https://download.kstore.space/download/3051/JAR/tang3-1201.jar;md5;ac0a983b64a2513ee476b76b8fb0e3be"},
{"key":"Upso","name":"云搜","type":"3","api":"csp_Upso","searchable":"1","quickSearch":"1","filterable":"1","ext":"https://zdir.kebedd69.repl.co/public/TVBox/token.json","jar":"https://download.kstore.space/download/3051/JAR/tang3-1201.jar;md5;ac0a983b64a2513ee476b76b8fb0e3be"},
{"key":"Alist2","name":"Alist小雅搜索","type":3,"api":"http://101.34.67.237/libs/alist.min.js","searchable":1,"quickSearch":1,"filterable":0,"ext":"http://101.34.67.237/txt/json/alist.json"},
{"key":"drpy_js_Alist","name":"网盘Alist[js]","type":3,"api":"https://gitlab.com/zyk212/tlx-lab/-/raw/master/JS/lib/alist.min.js","ext":"https://gitlab.com/zyk212/tlx-lab/-/raw/master/JS/js/alist.json"},

#XYQ规则※※※※※※※※※※※※※※※※※※※※※※※※※※※※
//{"key":"XYQ_番茄影视","name":"🌷番茄影视(XYQ)","type":3,"api":"csp_XYQBiu","searchable":1,"quickSearch":1,"filterable":1,"ext":"https://gitlab.com/zyk212/tlx-lab/-/raw/master/XYQ/fqys(XYQ).json","jar":"https://gitlab.com/zyk212/tlx-lab/-/raw/master/XYQHiker/XYQPlugin_1218.jar"},
//{"key":"XYQ_万能影视","name":"🌷万能影视(XYQ)","type":3,"api":"csp_XYQBiu","searchable":1,"quickSearch":1,"filterable":1,"ext":"https://agit.ai/zyk212/tlx/raw/branch/master/yxq/wnys%28xyq%29.json",
//"jar":"https://gitlab.com/zyk212/tlx-lab/-/raw/master/XYQHiker/XYQPlugin_1218.jar"},
//{"key":"XYQ_凌云影视","name":"🌷凌云影视(XYQ)","type":3,"api":"csp_XYQBiu","searchable":1,"quickSearch":1,"filterable":1,"ext":"https://agit.ai/zyk212/tlx/raw/branch/master/yxq/%e5%87%8c%e4%ba%91%e5%bd%b1%e8%a7%86.json",
//"jar":"https://gitlab.com/zyk212/tlx-lab/-/raw/master/XYQHiker/XYQPlugin_1218.jar"},
//{"key":"csp_XYQBiu_剧荒电影","name":"🌷剧荒影院(XYQ)","type":3,"api":"csp_XYQBiu","searchable":1,"quickSearch":1,"filterable":0,"ext":"https://gitlab.com/zyk212/tlx-lab/-/raw/master/XYQ/juhuang(XYQ).json",
//"jar":"https://gitlab.com/zyk212/tlx-lab/-/raw/master/XYQHiker/XYQPlugin_1218.jar"},
{"key":"XYQ_艾菲影视","name":"🌷艾菲影视(XYQ)","type":3,"api":"csp_XYQBiu","searchable":1,"quickSearch":1,"filterable":1,"ext":"https://gitlab.com/zyk212/tlx-lab/-/raw/master/XYQ/XYQ_%E8%89%BE%E8%8F%B2%E5%BD%B1%E8%A7%86.json",
"jar":"https://gitlab.com/zyk212/tlx-lab/-/raw/master/XYQHiker/XYQPlugin_1218.jar"},

#XYQHiker规则※※※※※※※※※※※※※※※※※※※※※※※※※※※※
{"key":"XYQH_云镜影视","name":"🌐云镜影视(XYQH)","type":3,"api":"csp_XYQHiker","searchable":1,"quickSearch":1,"filterable":1,"ext":"https://gitlab.com/zyk212/tlx-lab/-/raw/master/XYQHiker/xyqh_%E4%BA%91%E9%95%9C%E5%BD%B1%E8%A7%86.json",
"jar":"https://gitlab.com/zyk212/tlx-lab/-/raw/master/XYQHiker/XYQPlugin_1218.jar"},
{"key":"XYQH_零度影视","name":"🌐零度影视(XYQH)","type":3,"api":"csp_XYQHiker","searchable":1,"quickSearch":1,"filterable":1,"ext":"https://gitlab.com/zyk212/tlx-lab/-/raw/master/XYQHiker/xyqh_%E9%9B%B6%E5%BA%A6%E5%BD%B1%E8%A7%86.json",
"jar":"https://gitlab.com/zyk212/tlx-lab/-/raw/master/XYQHiker/XYQPlugin_1218.jar"},
{"key":"XYQH_二次萌","name":"🌐二次萌(XYQH)","type":3,"api":"csp_XYQHiker","searchable":1,"quickSearch":1,"filterable":1,"ext":"https://gitlab.com/zyk212/tlx-lab/-/raw/master/XYQHiker/xyqh_%E4%BA%8C%E6%AC%A1%E8%90%8C.json",
"jar":"https://gitlab.com/zyk212/tlx-lab/-/raw/master/XYQHiker/XYQPlugin_1218.jar"},
{"key":"XYQH_布蕾影视","name":"🌐布蕾影视(XYQH)","type":3,"api":"csp_XYQHiker","searchable":1,"quickSearch":1,"filterable":1,"ext":"https://gitlab.com/zyk212/tlx-lab/-/raw/master/XYQHiker/xyqh_%E5%B8%83%E9%9B%B7%E5%BD%B1%E8%A7%86.json",
"jar":"https://gitlab.com/zyk212/tlx-lab/-/raw/master/XYQHiker/XYQPlugin_1218.jar"},
{"key":"XYQH_万能影视","name":"🌐万能影视(XYQH)","type":3,"api":"csp_XYQHiker","searchable":1,"quickSearch":1,"filterable":1,"ext":"https://gitlab.com/zyk212/tlx-lab/-/raw/master/XYQHiker/WNYS.json",
"jar":"https://gitlab.com/zyk212/tlx-lab/-/raw/master/XYQHiker/XYQPlugin_1218.jar"},
{"key":"XYQH_无插件直播","name":"🌐无插件直播(XYQH)","type":3,"api":"csp_XYQHiker","searchable":1,"quickSearch":1,"filterable":1,"ext":"https://gitlab.com/zyk212/tlx-lab/-/raw/master/XYQHiker/无插件直播.json",
"jar":"https://gitlab.com/zyk212/tlx-lab/-/raw/master/XYQHiker/XYQPlugin_1218.jar"},
{"key":"XYQH_Hdmoli","name":"🌐Hdmoli(XYQH)","type":3,"api":"csp_XYQHiker","searchable":1,"quickSearch":1,"filterable":1,"ext":"https://gitlab.com/zyk212/tlx-lab/-/raw/master/XYQHiker/xyqh_Hdmoli.json",
"jar":"https://gitlab.com/zyk212/tlx-lab/-/raw/master/XYQHiker/XYQPlugin_1218.jar"},
{"key":"XYQH_宝仙HD","name":"🌐宝仙HD(XYQH)","type":3,"api":"csp_XYQHiker","searchable":1,"quickSearch":1,"filterable":1,"ext":"https://gitlab.com/zyk212/tlx-lab/-/raw/master/XYQHiker/xyqh_%E5%AE%9D%E4%BB%99HD.json",
"jar":"https://gitlab.com/zyk212/tlx-lab/-/raw/master/XYQHiker/XYQPlugin_1218.jar"},
{"key":"XYQH_Vidhub","name":"🌐Vidhub(XYQH)","type":3,"api":"csp_XYQHiker","searchable":1,"quickSearch":1,"filterable":1,"ext":"https://gitlab.com/zyk212/tlx-lab/-/raw/master/XYQHiker/xyqh_Vidhub%E8%A7%86%E9%A2%91%E5%BA%93.json",
"jar":"https://gitlab.com/zyk212/tlx-lab/-/raw/master/XYQHiker/XYQPlugin_1218.jar"},
{"key":"csp_xf_heihei","name":"️🌐嘿嘿影视(XYQH)","type":3,"api":"csp_XYQHiker","searchable":1,"quickSearch":1,"filterable":0,"ext":"https://gitlab.com/zyk212/tlx-lab/-/raw/master/XYQHiker/xyqh_heihei.json","jar":"https://gitlab.com/zyk212/tlx-lab/-/raw/master/XYQHiker/XYQPlugin_1218.jar"},
{"key":"XYQH_l0l直播","name":"🌐l0l直播(XYQH)","type":3,"api":"csp_XYQHiker","searchable":1,"quickSearch":1,"filterable":1,"ext":"https://gitlab.com/zyk212/tlx-lab/-/raw/master/XYQHiker/%20xyqh_%E7%9B%B4%E6%92%ADl0l.json",
"jar":"https://gitlab.com/zyk212/tlx-lab/-/raw/master/XYQHiker/XYQPlugin_1218.jar"},
{"key":"XYQH_鸭奈飞","name":"🌐鸭鸭奈飞(XYQH)","type":3,"api":"csp_XYQHiker","searchable":1,"quickSearch":1,"filterable":1,"ext":"https://gitlab.com/zyk212/tlx-lab/-/raw/master/XYQHiker/xyqh_yanetflix.json",
"jar":"https://gitlab.com/zyk212/tlx-lab/-/raw/master/XYQHiker/XYQPlugin_1218.jar"},
{"key":"csp_xf_naikan","name":"️🌐耐看影视(XYQH)","type":3,"api":"csp_XYQHiker","searchable":1,"quickSearch":1,"filterable":0,"ext":"https://gitlab.com/zyk212/tlx-lab/-/raw/master/XYQHiker/xyqh_%E8%80%90%E7%9C%8B.json","jar":"https://gitlab.com/zyk212/tlx-lab/-/raw/master/XYQHiker/XYQPlugin_1218.ja"},
{"key":"XYQH_乐猪影视","name":"🌐乐猪影视(XYQH)","type":3,"api":"csp_XYQHiker","searchable":1,"quickSearch":1,"filterable":1,"ext":"https://gitlab.com/zyk212/tlx-lab/-/raw/master/XYQHiker/xyqh_lezhu.json",
"jar":"https://gitlab.com/zyk212/tlx-lab/-/raw/master/XYQHiker/XYQPlugin_1218.jar","playerType":2},
//0system1ijk2exo10mx，默认-1为配置页面设置的播放器
{"key":"XYQH_追剧达人","name":"🌐追剧达人(XYQH)","type":3,"api":"csp_XYQHiker","searchable":1,"quickSearch":1,"filterable":1,"ext":"https://gitlab.com/zyk212/tlx-lab/-/raw/master/XYQHiker/xyqh_%E8%BF%BD%E5%89%A7%E8%BE%BE%E4%BA%BA.json",
"jar":"https://gitlab.com/zyk212/tlx-lab/-/raw/master/XYQHiker/XYQPlugin_1218.jar"},
{"key":"XYQH_魔戒影视","name":"🌐魔戒影院(XYQH)","type":3,"api":"csp_XYQHiker","searchable":1,"quickSearch":1,"filterable":1,"ext":"https://gitlab.com/zyk212/tlx-lab/-/raw/master/XYQHiker/xyqh_%E9%AD%94%E6%88%92%E5%BD%B1%E8%A7%86.json",
"jar":"https://gitlab.com/zyk212/tlx-lab/-/raw/master/XYQHiker/XYQPlugin_1218.jar"},
{"key":"XYQH_在线之家","name":"🌐在线之家(XYQH)","type":3,"api":"csp_XYQHiker","searchable":1,"quickSearch":1,"filterable":1,"ext":"https://gitlab.com/zyk212/tlx-lab/-/raw/master/XYQHiker/xyqh_%E5%9C%A8%E7%BA%BF%E4%B9%8B%E5%AE%B6.json",
"jar":"https://gitlab.com/zyk212/tlx-lab/-/raw/master/XYQHiker/XYQPlugin_1218.jar"},
{"key":"XYQH_23影视","name":"🌐23影视(XYQH)","type":3,"api":"csp_XYQHiker","searchable":1,"quickSearch":1,"filterable":1,"ext":"https://gitlab.com/zyk212/tlx-lab/-/raw/master/XYQHiker/xyqh_23wm.json",
"jar":"https://gitlab.com/zyk212/tlx-lab/-/raw/master/XYQHiker/XYQPlugin_1218.jar"},
{"key":"XYQH_789影吧","name":"🌐789影吧(XYQH)","type":3,"api":"csp_XYQHiker","searchable":1,"quickSearch":1,"filterable":1,"ext":"https://gitlab.com/zyk212/tlx-lab/-/raw/master/XYQHiker/xyqh_789%E5%BD%B1%E5%90%A7.json",
"jar":"https://gitlab.com/zyk212/tlx-lab/-/raw/master/XYQHiker/XYQPlugin_1218.jar"},
{"key":"XYQH_看了么","name":"🌐看了么(XYQH)","type":3,"api":"csp_XYQHiker","searchable":1,"quickSearch":1,"filterable":1,"ext":"https://gitlab.com/zyk212/tlx-lab/-/raw/master/XYQHiker/xyqh_%E7%9C%8B%E4%BA%86%E4%B9%88.json",
"jar":"https://gitlab.com/zyk212/tlx-lab/-/raw/master/XYQHiker/XYQPlugin_1218.jar"},
{"key":"XYQH_188","name":"🌐188影视(XYQH)","type":3,"api":"csp_XYQHiker","searchable":1,"quickSearch":1,"filterable":1,"ext":"https://gitlab.com/zyk212/tlx-lab/-/raw/master/XYQHiker/xyqh_188%E5%BD%B1%E8%A7%86.json",
"jar":"https://gitlab.com/zyk212/tlx-lab/-/raw/master/XYQHiker/XYQPlugin_1218.jar"},
{"key":"XYQH_白嫖者联盟","name":"🌐白嫖者联盟(XYQH)","type":3,"api":"csp_XYQHiker","searchable":1,"quickSearch":1,"filterable":1,"ext":"https://gitlab.com/zyk212/tlx-lab/-/raw/master/XYQHiker/xyqh_%E7%99%BD%E5%AB%96%E8%80%85%E8%81%94%E7%9B%9F.json",
"jar":"https://gitlab.com/zyk212/tlx-lab/-/raw/master/XYQHiker/XYQPlugin_1218.jar"},
{"key":"XYQH_速搜影院","name":"🌐速搜影院📵(XYQH)","type":3,"api":"csp_XYQHiker","searchable":1,"quickSearch":1,"filterable":1,"ext":"https://gitlab.com/zyk212/tlx-lab/-/raw/master/XYQHiker/xyqh_%E9%80%9F%E6%90%9C%E5%BD%B1%E9%99%A2.json",
"jar":"https://gitlab.com/zyk212/tlx-lab/-/raw/master/XYQHiker/XYQPlugin_1218.jar"},
{"key":"XYQH_草民电影","name":"🌐草民电影(XYQH)","type":3,"api":"csp_XYQHiker","searchable":1,"quickSearch":1,"filterable":1,"ext":"https://gitlab.com/zyk212/tlx-lab/-/raw/master/XYQHiker/xyqh_%E8%8D%89%E6%B0%91%E7%94%B5%E5%BD%B1.json",
"jar":"https://gitlab.com/zyk212/tlx-lab/-/raw/master/XYQHiker/XYQPlugin_1218.jar"},
{"key":"XYQH_饺子电影","name":"🌐饺子影视(XYQH)","type":3,"api":"csp_XYQHiker","searchable":1,"quickSearch":1,"filterable":1,"ext":"https://gitlab.com/zyk212/tlx-lab/-/raw/master/XYQHiker/xyqh_%E9%A5%BA%E5%AD%90%E5%BD%B1%E8%A7%86.json",
"jar":"https://gitlab.com/zyk212/tlx-lab/-/raw/master/XYQHiker/XYQPlugin_1218.jar"},
{"key":"XYQH_素白白影视","name":"🌐素白白影视(XYQH)","type":3,"api":"csp_XYQHiker","searchable":1,"quickSearch":1,"filterable":1,"ext":"https://gitlab.com/zyk212/tlx-lab/-/raw/master/XYQHiker/xyqh_%E7%B4%A0%E7%99%BD%E7%99%BD%E5%BD%B1%E8%A7%86.json",
"jar":"https://gitlab.com/zyk212/tlx-lab/-/raw/master/XYQHiker/XYQPlugin_1218.jar"},
{"key":"XYQH_独播库","name":"🌐独播库(XYQH)","type":3,"api":"csp_XYQHiker","searchable":1,"quickSearch":1,"filterable":1,"ext":"https://gitlab.com/zyk212/tlx-lab/-/raw/master/XYQHiker/xyqh_%E7%8B%AC%E6%92%AD%E5%BA%93%E8%93%9D%E5%85%89.json",
"jar":"https://gitlab.com/zyk212/tlx-lab/-/raw/master/XYQHiker/XYQPlugin_1218.jar"},
{"key":"XYQH_稀饭影视","name":"🌐稀饭影视(XYQH)","type":3,"api":"csp_XYQHiker","searchable":1,"quickSearch":1,"filterable":1,"ext":"https://gitlab.com/zyk212/tlx-lab/-/raw/master/XYQHiker/xyqh_%E7%A8%80%E9%A5%AD%E5%BD%B1%E8%A7%86.json",
"jar":"https://gitlab.com/zyk212/tlx-lab/-/raw/master/XYQHiker/XYQPlugin_1218.jar"},
{"key":"XYQH_野荷塘影院","name":"🌐野荷塘影院(XYQH)","type":3,"api":"csp_XYQHiker","searchable":1,"quickSearch":1,"filterable":1,"ext":"https://gitlab.com/zyk212/tlx-lab/-/raw/master/XYQHiker/xyqh_%E9%87%8E%E8%8D%B7%E5%A1%98%E5%BD%B1%E9%99%A2.json",
"jar":"https://gitlab.com/zyk212/tlx-lab/-/raw/master/XYQHiker/XYQPlugin_1218.jar"},
{"key":"XYQH_333影视","name":"🌐333影视(XYQH)","type":3,"api":"csp_XYQHiker","searchable":1,"quickSearch":1,"filterable":1,"ext":"https://gitlab.com/zyk212/tlx-lab/-/raw/master/XYQHiker/xyqh_333%E5%BD%B1%E8%A7%86.json",
"jar":"https://gitlab.com/zyk212/tlx-lab/-/raw/master/XYQHiker/XYQPlugin_1218.jar"},
{"key":"XYQH_伊人追剧","name":"🌐伊人追剧(XYQH)","type":3,"api":"csp_XYQHiker","searchable":1,"quickSearch":1,"filterable":1,"ext":"https://gitlab.com/zyk212/tlx-lab/-/raw/master/XYQHiker/xyqh_伊人追剧.json",
"jar":"https://gitlab.com/zyk212/tlx-lab/-/raw/master/XYQHiker/XYQPlugin_1218.jar"},
{"key":"XYQH_电影港磁力","name":"🌐电影港磁力(XYQH)","type":3,"api":"csp_XYQHiker","searchable":1,"quickSearch":1,"filterable":1,"ext":"https://gitlab.com/zyk212/tlx-lab/-/raw/master/XYQHiker/XYQ_%E7%94%B5%E5%BD%B1%E6%B8%AF%EF%BC%88%E7%A3%81%E5%8A%9B%EF%BC%89.json",
"jar":"https://gitlab.com/zyk212/tlx-lab/-/raw/master/XYQHiker/XYQPlugin_1218.jar"},

#XBP规则※※※※※※※※※※※※※※※※※※※※※※※※※※※※
{"key":"xbpq_视觉","name":"️🌟视觉影院(XBP)","type":3,"api":"csp_xBPQ","searchable":1,"quickSearch":0,"filterable":1,"ext":"https://gitlab.com/zyk212/tlx-lab/-/raw/master/XBPQ/XBPQ_%E8%A7%86%E8%A7%89%E5%BD%B1%E9%99%A2.json","jar":"https://gitlab.com/zyk212/tlx-lab/-/raw/master/XBPQ/xBPQ_1107.jar"},
{"key":"xbpq_石榴","name":"️🌟石榴影院(XBP)","type":3,"api":"csp_xBPQ","searchable":1,"quickSearch":1,"filterable":1,"ext":"https://gitlab.com/zyk212/tlx-lab/-/raw/master/XBPQ/xbpq_%E7%9F%B3%E6%A6%B4%E7%94%B5%E5%BD%B1.json","jar":"https://gitlab.com/zyk212/tlx-lab/-/raw/master/XBPQ/xBPQ_1107.jar"},
{"key":"csp_看片狂人","name":"️🌟看片狂人(XBP)","type":3,"api":"csp_xBPQ","searchable":1,"quickSearch":1,"filterable":0,"ext":"https://gitlab.com/zyk212/tlx-lab/-/raw/master/XBPQ/xbpq_%E7%9C%8B%E7%89%87%E7%8B%82%E4%BA%BA.json","jar":"https://gitlab.com/zyk212/tlx-lab/-/raw/master/XBPQ/xBPQ_1107.jar"},
{"key":"csp_4k","name":"️🌟4k影视(XBP)","type":3,"api":"csp_xBPQ","searchable":1,"quickSearch":1,"filterable":0,"ext":"https://agit.ai/xiaohewanwan/atest/raw/branch/master/4kvm.json","jar":"https://gitlab.com/zyk212/tlx-lab/-/raw/master/XBPQ/xBPQ_1107.jar"},
{"key":"csp_影渣渣","name":"️🌟影渣渣(XBP)","type":3,"api":"csp_xBPQ","searchable":1,"quickSearch":1,"filterable":0,"ext":"https://gitlab.com/zyk212/tlx-lab/-/raw/master/XBPQ/xbpq_%E5%BD%B1%E6%B8%A3%E6%B8%A3.json","jar":"https://gitlab.com/zyk212/tlx-lab/-/raw/master/XBPQ/xBPQ_1107.jar"},
{"key":"csp_电影先生","name":"️🌟电影先生(XBP)","type":3,"api":"csp_xBPQ","searchable":1,"quickSearch":1,"filterable":0,"ext":"https://gitlab.com/zyk212/tlx-lab/-/raw/master/XBPQ/xbpq_%E7%94%B5%E5%BD%B1%E5%85%88%E7%94%9F.json","jar":"https://gitlab.com/zyk212/tlx-lab/-/raw/master/XBPQ/xBPQ_1107.jar"},
{"key":"csp_极品影视","name":"️🌟极品影视(XBP)","type":3,"api":"csp_xBPQ","searchable":1,"quickSearch":1,"filterable":0,"ext":"https://gitlab.com/zyk212/tlx-lab/-/raw/master/XBPQ/%E6%9E%81%E5%93%81%E5%BD%B1%E8%A7%86.json","jar":"https://gitlab.com/zyk212/tlx-lab/-/raw/master/XBPQ/xBPQ_1107.jar"},
{"key":"csp_热播酷","name":"️🌟热播酷(XBP)","type":3,"api":"csp_xBPQ","searchable":1,"quickSearch":1,"filterable":0,"ext":"https://gitlab.com/zyk212/tlx-lab/-/raw/master/XBPQ/xbpq_%E7%83%AD%E6%92%AD%E9%85%B7.json","jar":"https://gitlab.com/zyk212/tlx-lab/-/raw/master/XBPQ/xBPQ_1107.jar"},
{"key":"csp_大师兄","name":"️🌟大师兄影视(XBP)","type":3,"api":"csp_xBPQ","searchable":1,"quickSearch":1,"filterable":0,"ext":"https://gitlab.com/zyk212/tlx-lab/-/raw/master/XBPQ/xbpq_%E5%A4%A7%E5%B8%88%E5%85%84%E5%BD%B1%E8%A7%86.json","jar":"https://gitlab.com/zyk212/tlx-lab/-/raw/master/XBPQ/xBPQ_1107.jar"},
{"key":"xbpq_555","name":"️🌟555(XBP)","type":3,"api":"csp_xBPQ","searchable":1,"quickSearch":1,"filterable":0,"ext":"https://gitlab.com/zyk212/tlx-lab/-/raw/master/XBPQ/555%E7%94%B5%E5%BD%B1.json","jar":"https://gitlab.com/zyk212/tlx-lab/-/raw/master/XBPQ/xBPQ_1107.jar"},
{"key":"csp_voflix","name":"️🌟voflix(XBP)","type":3,"api":"csp_xBPQ","searchable":1,"quickSearch":1,"filterable":0,"ext":"https://gitlab.com/zyk212/tlx-lab/-/raw/master/XBPQ/xBPQ_voflix.json","jar":"https://gitlab.com/zyk212/tlx-lab/-/raw/master/XBPQ/xBPQ_1107.jar"},
{"key":"csp_xf_cs","name":"️🌟FREEOK(XBP)","type":3,"api":"csp_xBPQ","searchable":1,"quickSearch":1,"filterable":0,"ext":"{\"免嗅\":\"1\",\"播放标题\":\"span>&&<\",\"副标题\":\"class=\\\"module-item-note\\\">&&</div>\",\"线路数组\":\"class=\\\"module-tab-itemtab-item&&</div>\",\"线路标题\":\"<span>&&</span>\",\"播放数组\":\"class=\\\"module-play-list&&</div>\",\"分类\":\"剧集$2#电影$1#综艺$4#动漫$3\",\"分类url\":\"https://www.freeok.vip/vodshow/{cateId}--------{catePg}---/\"}","jar":"https://gitlab.com/zyk212/tlx-lab/-/raw/master/XBPQ/xBPQ_1107.jar"},
{"key":"csp_xBPQ_fositv","name":"️🌟fositv(XBP)","type":3,"api":"csp_xBPQ","searchable":1,"quickSearch":1,"filterable":0,"ext":"https://gitlab.com/zyk212/tlx-lab/-/raw/master/XBPQ/xb_fositv.json",
"jar":"https://gitlab.com/zyk212/tlx-lab/-/raw/master/XBPQ/xBPQ_1107.jar"},
{"key":"csp_抓饭直播","name":"️🌟抓饭体育(XBP)","type":3,"api":"csp_xBPQ","searchable":1,"quickSearch":1,"filterable":0,"ext":"https://gitlab.com/zyk212/tlx-lab/-/raw/master/XBPQ/XBP_zhuafanTV.json","jar":"https://gitlab.com/zyk212/tlx-lab/-/raw/master/XBPQ/xBPQ_1107.jar"},
{"key":"csp_xBPQ_干饭影视","name":"️🌟干饭影视(XBP)","type":3,"api":"csp_xBPQ","searchable":1,"quickSearch":1,"filterable":0,"ext":"{\"免嗅\":\"1\",\"播放标题\":\">&&<\",\"播放数组\":\"class=\\\"stui-content__playlist&&</div>\",\"分类url\":\"https://www.gfysys1.com/vodshow/{cateId}--------{catePg}---.html\"}","jar":"https://gitlab.com/zyk212/tlx-lab/-/raw/master/XBPQ/xBPQ_1107.jar"},
{"key":"csp_xBPQ_um影院","name":"️🌟UM影院(XBP)","type":3,"api":"csp_xBPQ","searchable":1,"quickSearch":1,"filterable":1,"ext":"{\"免嗅\":\"1\",\"导演\":\"导演：&&</div\",\"主演\":\"主演：&&</div\",\"简介\":\"module-info-introduction-content&&</div>\",\"线路数组\":\"class=\\\"module-tab-itemtab-item&&</div>\",\"线路标题\":\"<span>&&</span>\",\"播放标题\":\"span>&&<\",\"播放数组\":\"class=\\\"module-play-list&&</div>\",\"分类url\":\"https://www.umkan.com/index.php/vod/show/id/{cateId}/page/{catePg}.html\"}","jar":"https://gitlab.com/zyk212/tlx-lab/-/raw/master/XBPQ/xBPQ_1107.jar"},
{"key":"csp_xBPQ-真不卡","name":"️🌟真不卡(XBP)","type":3,"api":"csp_xBPQ","searchable":1,"quickSearch":1,"filterable":1,"ext":"{\"免嗅\":\"1\",\"播放标题\":\">&&<\",\"播放数组\":\"class=\\\"stui-content__playlist&&</div>\",\"分类url\":\"https://www.zbkk.net/vodshow/{cateId}--------{catePg}---.html\"}","jar":"https://gitlab.com/zyk212/tlx-lab/-/raw/master/XBPQ/xBPQ_1107.jar"},
{"key":"csp_xBPQ_蓝光影视","name":"🌟蓝光影视(XBP)","type":3,"api":"csp_xBPQ","searchable":1,"quickSearch":1,"filterable":1,"ext":"{\"免嗅\":\"1\",\"线路数组\":\"class=\\\"module-tab-itemtab-item&&</div>\",\"线路标题\":\"<span>&&</span>\",\"播放标题\":\"span>&&<\",\"播放数组\":\"class=\\\"module-play-list&&</div>\",\"分类url\":\"https://www.lgyy.cc/vodtype/{cateId}/page/{catePg}---.html\"}","jar":"https://gitlab.com/zyk212/tlx-lab/-/raw/master/XBPQ/xBPQ_1107.jar"},
{"key":"csp_xBPQ_NO影视","name":"🌟NO影视(XBP)","type":3,"api":"csp_xBPQ","searchable":1,"quickSearch":1,"filterable":1,"ext":"https://gitlab.com/zyk212/tlx-lab/-/raw/master/XBPQ/xbpq_NO%E8%A7%86%E9%A2%91.json","jar":"https://gitlab.com/zyk212/tlx-lab/-/raw/master/XBPQ/xBPQ_1107.jar"},
{"key":"csp_xBPQ_101影视","name":"🌟101影视(XBP)","type":3,"api":"csp_xBPQ","searchable":1,"quickSearch":1,"filterable":1,"ext":"https://gitlab.com/zyk212/tlx-lab/-/raw/master/XBPQ/xbpq_101.json","jar":"https://gitlab.com/zyk212/tlx-lab/-/raw/master/XBPQ/xBPQ_1107.jar"},
{"key":"csp_xBPQ_奇粹视频","name":"🌟奇粹视频(XBP)","type":3,"api":"csp_xBPQ","searchable":1,"quickSearch":1,"filterable":1,"ext":"{\"分类url\":\"http://www.blssv.com/index.php/vod/show/id/{cateId}/page/{catePg}.html\",\"数组\":\"class=\\\"module-item-pic&&</div>\",\"线路数组\":\"class=\\\"module-tab-itemtab-item&&</div>\",\"线路标题\":\"span>&&<[替换:多多广告>>免嗅秒播]\",\"免嗅\":\"1\",\"分类\":\"电影$20#连续剧$21#动漫$22#海外$23#综艺$24\",\"播放数组\":\"class=\\\"sort-item&&</div>\",\"播放列表\":\"<a&&/a>[不含序号:2]\",\"搜索后缀\":\"/vod/detail/id/\"}",
"jar":"https://gitlab.com/zyk212/tlx-lab/-/raw/master/XBPQ/xBPQ_1107.jar"},


{"key":"csp_xBPQ_胖虎影视",
"name":"🌟胖虎影视(xBPQ)",
"type":3,
"api":"csp_xBPQ",
"searchable":1,
"quickSearch":1,
"filterable":0,
"ext":"https://gitlab.com/zyk212/tlx-lab/-/raw/master/XBPQ/xyqh_%E8%83%96%E8%99%8E%E5%BD%B1%E8%A7%86.json",
"jar":"https://gitlab.com/zyk212/tlx-lab/-/raw/master/XBPQ/xBPQ_1107.jar"},

{"key":"csp_xBPQ_花猫","name":"️🌟花猫tv(XBP)","type":3,"api":"csp_xBPQ","searchable":1,"quickSearch":0,"filterable":0,"ext":"{\"副标题\":\"class=\\\"pic-text\\\">&&</span>\",\"线路数组\":\"/span><h3class=\\\"title&&/h3>\",
\"线路标题\":\">&&<\",\"播放标题\":\">&&<\",\"播放数组\":\"class=\\\"stui-content__playlist&&</div>\",\"分类url\":\"http://www.huamaotv.com/type/{cateId}-{catePg}.html\"}","jar":"https://gitlab.com/zyk212/tlx-lab/-/raw/master/XBPQ/xBPQ_1107.jar"},

{"key":"csp_xBPQ_爱酷酷影","name":"🌟爱酷影视(XBP)","type":3,"api":"csp_xBPQ","searchable":1,"quickSearch":1,"filterable":0,"ext":"{\"免嗅\":\"1\",\"副标题\":\"class=\\\"handle-btn-name\\\">&&</span>\",\"导演\":\"导演：&&</div\",\"主演\":\"主演：&&</div\",\"简介\":\"简介：&&</li>\",\"播放标题\":\"span>&&</span\",\"播放数组\":\"module-play-list&&</div>\",\"分类\":\"电视剧$2#动漫$4#电影$1#综艺$3\",\"分类url\":\"https://www.zhanlangbu.com/index.php/vod/type/id/{cateId}.html\",\"年份\":\"2004-2022\",\"筛选\":\"0\"}",
"jar":"https://gitlab.com/zyk212/tlx-lab/-/raw/master/XBPQ/xBPQ_1107.jar"},
{"key":"csp_xb_fqys","name":"🌟番茄影视(XBP)","type":3,"api":"csp_xBPQ","searchable":1,"quickSearch":1,"filterable":0,
"ext":"https://tjomet.com/vodshow/{cateId}--------{catePg}---.html","jar":"https://gitlab.com/zyk212/tlx-lab/-/raw/master/XBPQ/xBPQ_1107.jar"},
{"key":"csp_biubiu_子子影视","name":"🌟子子影视(XBP)","type":3,"api":"csp_xBPQ","searchable":1,"quickSearch":1,"filterable":0,"ext":"https://gitlab.com/zyk212/tlx-lab/-/raw/master/XB/zzys.json","jar":"https://gitlab.com/zyk212/tlx-lab/-/raw/master/XBPQ/xBPQ_1107.jar"},
{
"key":"csp_xBPQ_98影院",
"name":"🌟98影院(XBP)",
"type":3,
"api":"csp_xBPQ",
"searchable":1,
"quickSearch":1,
"filterable":0,
"ext":"{\"免嗅\":\"0\",\"副标题\":\"right\\\">&&</span>\",\"播放标题\":\">&&</a>\",\"播放数组\":\"<ulclass=\\\"stui-content__playlist&&</ul>\",\"线路数组\":\"<imgsrc=&&/h3>\",\"线路标题\":\">&&<\",\"分类url\":\"http://www.98ju.com/{cateId}/index{catePg}.html[http://www.98ju.com/{cateId}/index.html]\",\"分类\":\"电影$dianyingpian#电视剧$dianshiju#综艺$zongyi#动漫$dongman\",\"类型\":\"dianyingpian--动作片$dongzuopian#爱情片$aiqingpian#科幻片$kehuanpian#恐怖片$kongbupian#战争片$zhanzhengpian#喜剧片$xijupian#纪录片$jilupian#剧情片$juqingpian||dianshiju--国产剧$guochanju#港台剧$gangtaiju#日韩剧$rihanju#欧美剧$oumeiju]\",\"地区\":\"0\",\"剧情\":\"0\",\"年份\":\"0\",\"排序\":\"0\",\"筛选\":\"1\"}"
,"jar":"https://gitlab.com/zyk212/tlx-lab/-/raw/master/XBPQ/xBPQ_1107.jar"},

{
"key":"csp_xBPQ_荐片",
"name":"🌟荐片影视|xBPQ|",
"type":3,
"api":"csp_xBPQ",
"searchable":1,
"quickSearch":1,
"filterable":0,
"ext":"http://www.jpys.me/vodshow/{cateId}-{area}-{by}-{class}-{lang}----{catePg}---{year}.html",
"jar":"https://gitlab.com/zyk212/tlx-lab/-/raw/master/XBPQ/xBPQ_1107.jar"},
{"key":"csp_饭团影视HD","name":"️🌟饭团影视(XBP)","type":3,"api":"csp_xBPQ","searchable":1,"quickSearch":1,"filterable":0,"ext":"https://gitlab.com/zyk212/tlx-lab/-/raw/master/XBPQ/xbpq_%E9%A5%AD%E5%9B%A2%E5%BD%B1%E8%A7%86HD.json","jar":"https://gitlab.com/zyk212/tlx-lab/-/raw/master/XBPQ/xBPQ_1107.jar"},

{"key":"csp_奇优影院","name":"️🌟奇优影院(XBP)","type":3,"api":"csp_xBPQ","searchable":1,"quickSearch":1,"filterable":0,"ext":"https://gitlab.com/zyk212/tlx-lab/-/raw/master/XBPQ/xbpq_%E5%A5%87%E4%BC%98%E5%BD%B1%E9%99%A2.json","jar":"https://gitlab.com/zyk212/tlx-lab/-/raw/master/XBPQ/xBPQ_1107.jar"},
{"key":"csp_xBPQ_盒子影视",
"name":"🌟盒子影视(XBP)",
"type":3,
"api":"csp_xBPQ",
"searchable":1,
"quickSearch":1,
"filterable":0,
"ext":"{
\"免嗅\":\"0\",
\"副标题\":\"class=\\\"continu\\\">&&<\",
\"简介\":\"介绍：&&<\",
\"播放数组\":\"list-unstyledrowtext-centerff-playurl-lineff-playurl&&</ul>\",
\"线路数组\":\"glyphiconglyphicon-facetime-videoff-text\\\"></span&&/h2>\",
\"线路标题\":\">&&<\",
\"搜索url\":\"http://m.tv7box.com/index.php?s=vod-search-name-{wd}\",
\"搜索模式\":\"1\",
\"分类\":\"电视剧$2#电影$1#动漫$4#综艺$3\",
\"分类url\":\"http://m.tv7box.com/list-select-id-{cateId}-type-{class}-area-{area}-year-{year}-star--state--order-addtime-p-{catePg}.html\",
\"地区\":\"替换[大陆$大陆>>内地$内地]\",
\"年份\":\"2000-2022\",
\"筛选\":\"1\"}",
"jar":"https://gitlab.com/zyk212/tlx-lab/-/raw/master/XBPQ/xBPQ_1107.jar"},
{"key":"csp_xBPQ_DOUYIN",
"name":"🌟短视频(XBP)",
"type":3,
"api":"csp_xBPQ",
"searchable":1,
"quickSearch":1,
"filterable":0,
"ext":"{\n\"分类url\":\"http://www.sharenice.net/{cateId}?page={catePg}\",\n\"分类\":\"抖音$douyin#快手$kuaishou#微视$weishi#场库$changku#美拍$meipai#秒拍$miaopai#全民$quanmin#梨$lishipin#好兔$haotu#开眼$kaiyan\",\n\"链接\":\"http://www.sharenice.net&&\\\"\",\n\"直接播放\":\"1\"\n}"
,
"jar":"https://gitlab.com/zyk212/tlx-lab/-/raw/master/XBPQ/xBPQ_1107.jar"},






#XB规则※※※※※※※※※※※※※※※※※※※※※※※※※※※※
{"key":"csp_biubiu_LIBVIO","name":"🔷LIBVIO(XB)","type":3,"api":"csp_XBiubiu","searchable":1,"quickSearch":1,"filterable":0,"ext":"http://maoyingshi.cc/tvbox/%E4%BA%91%E6%98%9F%E6%97%A5%E8%AE%B0/sh/MaooXB/LIBVIO.json"},
{"key":"csp_biubiu_乐猪影视","name":"🐷乐猪影视(XB)","type":3,"api":"csp_XBiubiu","searchable":1,"quickSearch":1,"filterable":0,"ext":"http://maoyingshi.cc/tvbox/%E4%BA%91%E6%98%9F%E6%97%A5%E8%AE%B0/sh/MaooXB/lzys.json"},
{"key":"csp_biubiu_骚火电影","name":"🔥骚火电影(XB)","type":3,"api":"csp_XBiubiu","searchable":1,"quickSearch":1,"filterable":0,"ext":"http://maoyingshi.cc/tvbox/%E4%BA%91%E6%98%9F%E6%97%A5%E8%AE%B0/sh/MaooXB/shdy.json"},
{"key":"csp_biubiu_大米星球","name":"⭐️大米星球(XB)","type":3,"api":"csp_XBiubiu","searchable":1,"quickSearch":1,"filterable":0,"ext":"https://maoyingshi.cc/tvbox/%E4%BA%91%E6%98%9F%E6%97%A5%E8%AE%B0/sh/MaooXB/dmxq.json"},
{"key":"csp_69mj","name":"💥69美剧(XB)","type":3,"api":"csp_XBiubiu","searchable":1,"quickSearch":1,"filterable":0,"ext":"https://gitlab.com/zyk212/tlx-lab/-/raw/master/XB/69%E7%BE%8E%E5%89%A7.json"},
{"key":"csp_饭团","name":"💥饭团影视(XB)","type":3,"api":"csp_XBiubiu","searchable":1,"quickSearch":1,"filterable":0,"ext":"https://gitlab.com/zyk212/tlx-lab/-/raw/master/XB/%E9%A5%AD%E5%9B%A2hd.json"},
{"key":"csp_凌云影视","name":"💥凌云影视(XB)","type":3,"api":"csp_XBiubiu","searchable":1,"quickSearch":1,"filterable":0,"ext":"https://gitlab.com/zyk212/tlx-lab/-/raw/master/XB/%E5%87%8C%E4%BA%91%E5%BD%B1%E8%A7%86.json"},
{"key":"csp_xbb_锐行加速","name":"🍀锐行加速","type":3,"api":"csp_XBiubiu","searchable":1,"quickSearch":1,"filterable":0,"ext":"https://gitlab.com/zyk212/tlx-lab/-/raw/master/XB/%E9%94%90%E8%A1%8C%E5%8A%A0%E9%80%9F.json"},
{"key":"csp_biubiu_2345影视","name":"🐙2345影视(XB)","type":3,"api":"csp_XBiubiu","searchable":1,"quickSearch":1,"filterable":0,"ext":"https://gitlab.com/zyk212/tlx-lab/-/raw/master/XB/2345%E5%BD%B1%E8%A7%86%E5%A4%A7%E5%85%A8.json"},


{
"key":"csp_xb_lxys",
"name":"🎂冷曦影视(XBi)",
"type":3,
"api":"csp_XBiu",
"searchable":1,
"quickSearch":1,
"filterable":0,
"ext":"https://www.lenxitv.cc/t/{cateId}-{catePg}.html","jar":""},

{"key":"csp_XBiu_333影视","name":"🎂333影视(XBi)","type":3,"api":"csp_XBiu","searchable":1,"quickSearch":1,"filterable":1,"ext":"https://www.ylwt33.com/vodshow/{cateId}--------{catePg}-----.html"},
{"key":"csp_xBiu_xkbys","name": "🎂新恐怖(R)","type": 3,"api": "csp_XBiu","searchable": 1,"quickSearch": 0,"filterable": 0,"ext": "https://www.xinkongbu.com/vodshow/{cateId}-{class}--{area}-{lang}----{catePg}---{year}.html","jar":"https://raw.iqiq.io/zhanghong1983/TVBOXZY/main/JAR/Yoursmile.jar"},
// {"key":"csp_xBiu_xkbys","name": "🎂新恐怖(R)","type": 3,"api": "csp_XBiu","searchable": 1,"quickSearch": 0,"filterable": 0,"ext": "https://www.xinkongbu.com/vodtype/{cateId}-{catePg}.html","jar":"https://raw.iqiq.io/zhanghong1983/TVBOXZY/main/JAR/Yoursmile.jar"},
#道长规则※※※※※※※※※※※※※※※※※※※※※※※※※※※※

{
"key":"drpy_js_007影视",
"name":"🥋007影视[DRPY]",
"type":3,
"api":"https://ghproxy.com/https://raw.githubusercontent.com/ShadowDemon1997/CatVodSpiderJS/main/drpy.js",
"ext":"https://gitcode.net/qq_32394351/dr_py/-/raw/master/js/007影视.js"
},

{
"key":"drpy_js_看视界",
"name":"🥋看视界[DRPY]",
"type":3,
"api":"https://ghproxy.com/https://raw.githubusercontent.com/ShadowDemon1997/CatVodSpiderJS/main/drpy.js",
"ext":"https://gitcode.net/qq_32394351/dr_py/-/raw/master/js/看视界.js"
},
{
"key":"drpy_js_人人影视",
"name":"🥋人人影视[DRPY]",
"type":3,
"api":"https://ghproxy.com/https://raw.githubusercontent.com/ShadowDemon1997/CatVodSpiderJS/main/drpy.js",
"ext":"https://gitcode.net/qq_32394351/dr_py/-/raw/master/js/人人影视.js"
},
{
"key":"drpy_js_喵喵",
"name":"🥋喵喵[DRPY]",
"type":3,
"api":"https://ghproxy.com/https://raw.githubusercontent.com/ShadowDemon1997/CatVodSpiderJS/main/drpy.js",
"ext":"https://gitcode.net/qq_32394351/dr_py/-/raw/master/js/喵喵.js",
"categories":["电视剧","电影","综艺","动漫","音乐"]},

{
"key":"drpy_js_小强迷",
"name":"🥋小强迷[DRPY]",
"type":3,
"api":"https://ghproxy.com/https://raw.githubusercontent.com/ShadowDemon1997/CatVodSpiderJS/main/drpy.js",
"ext":"https://gitcode.net/qq_32394351/dr_py/-/raw/master/js/小强迷.js"
},
{
"key":"drpy_js_8号影院",
"name":"🥋8号影院[DRPY]",
"type":3,
"api":"https://gitlab.com/zyk212/tlx-lab/-/raw/master/JS/lib/drpy.min.js",
"ext":"https://gitlab.com/zyk212/tlx-lab/-/raw/master/JS/js/8%E5%8F%B7%E5%BD%B1%E9%99%A2.js"
},
{
"key":"drpy_js_异世界动漫",
"name":"🥋异世界动漫[DRPY]",
"type":3,
"api":"https://gitlab.com/zyk212/tlx-lab/-/raw/master/JS/lib/drpy.min.js",
"ext":"https://gitlab.com/zyk212/tlx-lab/-/raw/master/JS/js/%E5%BC%82%E4%B8%96%E7%95%8C%E5%8A%A8%E6%BC%AB.js"
},
{
"key":"dr_趣享星趣",
"name":"🥋趣享星趣(drpy)",
"type":3,
"api":"http://101.34.67.237/libs/drpy.min.js",
"searchable":2,
"quickSearch":0,
"filterable":0,
"ext":"http://101.34.67.237/js/趣享星趣.js"
},
#XLB规则※※※※※※※※※※※※※※※※※※※※※※※※※※※※

{"key":"csp_biubiu_影视工厂","name":"🎯影视工厂(XLB)","type":3,"api":"csp_XLBiubiu","searchable":1,"quickSearch":1,"filterable":0,"ext":"https://agit.ai/zyk212/tlx/raw/branch/master/jk/%e5%bd%b1%e8%a7%86%e5%b7%a5%e5%8e%82.json","jar":"https://agit.ai/zyk212/tlx/raw/branch/master/jar/QXBiubiu%20%28Cli%29.jar;md5;381F3DE719515C74821274EB2D12877C"},
{"key":"csp_biubiu_达达龟","name":"🍊达达龟(XLB)","type":3,"api":"csp_XLBiubiu","searchable":1,"quickSearch":1,"filterable":0,"ext":"https://pan.css.lc/api/v3/file/get/79581/%E8%BE%BE%E8%BE%BE%E9%BE%9F%E5%BD%B1%E8%A7%86.json?sign=wNTJANvZhcXg7Ki36pWYt-LCs3sLQXc6rZ8hFaLfI-E%3D%3A0","jar":"https://gitcode.net/MP661/tlx-old/-/raw/master/jar/QXBiubiu.jar;md5;2D2046F00D47BC7FB47940DF6CA008DB"},


#XP规则※※※※※※※※※※※※※※※※※※※※※※※※※※※※
{"key":"csp_xpath_cokemv","name":"📼Cokemv(XPF)","type":3,"api":"csp_XPathFilter","searchable":1,"quickSearch":1,"filterable":1,"ext":"https://gitlab.com/zyk212/tlx-lab/-/raw/master/XP/cokemv.json"},
{"key":"csp_xpath_saohuotv","name":"🔥骚火电影(XP)","type":3,"api":"csp_XPath","searchable":1,"quickSearch":1,"filterable":0,"ext":"http://maoyingshi.cc/tvbox/%E4%BA%91%E6%98%9F%E6%97%A5%E8%AE%B0/sh/MaooXP/saohuotv2.json"},
{"key":"csp_xpath_音范丝磁力","name":"🐛音范丝磁力〔XP〕","type":3,"api":"csp_XPath","searchable":1,"quickSearch":0,"filterable":1,"ext":"http://maoyingshi.cc/tvbox/云星日记/sh/MaooXP/音范丝磁力.json","jar":"http://maoyingshi.cc/tvbox/云星日记/jar/ali.jpg;md5;23a7b8ab50ead897fd733e5c52c5f3fd"},
{"key":"csp_xpath_doujiaow","name":"💊豆角网(XP)","type":3,"api":"csp_XPathMac","searchable":1,"quickSearch":1,"filterable":0,"ext":"https://freed.yuanhsing.cf/TVBox/MaooXP/doujiaow.json"},
{"key":"csp_xpath_tvb03","name":"蓝光TVB(XPF)","type":3,"api":"csp_XPathFilter","searchable":1,"quickSearch":1,"filterable":1,"ext":"https://gitlab.com/zyk212/tlx-lab/-/raw/master/XP/tvyb03.json"},
{"key":"csp_xp_vip1280","name":"💢VIP电影〔Xp〕","type":3,"api":"csp_XPath","searchable":1,"quickSearch":1,"filterable":0,"ext":"http://maoyingshi.cc/tvbox/云星日记/sh/MaooXB/vip1280.json"},
{"key":"csp_xp_lenxitv","name":"💢冷曦影视(XPF)","type":3,"api":"csp_XPathFilter","searchable":1,"quickSearch":1,"filterable":1,"ext":"https://gitlab.com/zyk212/tlx-lab/-/raw/master/XP/XP-lenxi.json"},



#解析资源※※※※※※※※※※※※※※※※※※※※※※※※※※※※
{"key":"csp_xml_影图资源","name":"🐝影图资源","type":1,"api":"https://cj.vodimg.top/api.php/provide/vod/","playUrl":"","searchable":1,"quickSearch":1},
{"key":"飞速资源","name":"👓飞速资源","type":1,"api":"https://www.feisuzyapi.com/api.php/provide/vod/","searchable":1,"quickSearch":1},
{"key":"DY4","name":"🛋DY4(全平台解析)","type":1,"api":"http://cj-a.dy4.top:668/api.php/provide/vod/","searchable":1,"quickSearch":1,"categories":["国产剧","综艺","动漫","日韩剧","动作片","喜剧片","爱情片","科幻片","恐怖片","剧情片","战争片","港台剧","欧美剧","惊悚片","犯罪片","冒险片","悬疑片","动画片","番剧（B站）","国创（B站）","电影（B站）","电视剧（B站）"]},
{"key":"小猫咪〔官源〕","name":"🐱小猫咪💯〔官〕","type":1,"api":"http://zy.xiaomaomi.cc/api.php/provide/vod/?ac=list","searchable":1,
//"playUrl":"http://zy.xiaomaomi.tv/player/?url=",
"quickSearch":1,"categories":["国产剧","港台剧","日韩剧","欧美剧","动作片","喜剧片","爱情片","科幻片","恐怖片","剧情片","战争片","综艺","动漫","综合频道"]},
{"key":"csp_xml_诺讯资源","name":"🐝诺讯资源","type":1,"api":"https://caiji.nxflv.com/api.php/provide/vod/?ac=list","playUrl":"","searchable":1,"quickSearch":1,"categories":["国产剧","港台剧","日韩剧","欧美剧","动作片","喜剧片","爱情片","科幻片","恐怖片","剧情片","战争片","综艺","动漫","综合频道"]},
{"key":"csp_xml_星海资源","name":"🐝星海资源","type":1,"api":"https://www.xhzy01.com/api.php/provide/vod/?ac=list/","playUrl":"https://m3u8.tx-xhzy.com/?url=","searchable":1,"quickSearch":1,"categories":["国产剧","港台剧","日韩剧","欧美剧","动作片","喜剧片","爱情片","科幻片","恐怖片","剧情片","战争片","综艺","动漫","综合频道"]},
{"key":"爱酷","name":"🍀爱酷〔V2〕解析","type":3,"api":"csp_AppYsV2","searchable":1,"quickSearch":1,"filterable":1,"ext":"https://www.zhanlangbu.com/ruifenglb_api.php/v1.vod"},
{"key":"mtv_zh_暖光影视","name":"综合┃暖光影视","type":3,"api":"csp_AppYsV2","searchable":1,"quickSearch":1,"filterable":1,"ext":"https://app.bl210.com/api.php/v1.vod"},
{"key":"mtv_zh_刺猬影视","name":"综合┃刺猬影视","type":3,"api":"csp_AppYsV2","searchable":1,"quickSearch":1,"filterable":1,"ext":"http://www.cccvvv.top/api.php/iptv/vod/"},
{"key":"mtv_zh_夜神视频","name":"综合┃夜神视频","type":3,"api":"csp_AppYsV2","searchable":1,"quickSearch":1,"filterable":1,"ext":"http://ys.csjcdn.cn/mogai_api.php/v1.vod"},

#drpy※※※※※※※※※※※※※※※※※※※※※※※※※※※※


#动漫※※※※※※※※※※※※※※※※※※※※※※※※※※※※
{"key":"动漫直链","name":"🎭动漫巴士","type":3,"api":"csp_XPath","searchable":1,"quickSearch":1,"filterable":0,"ext":"https://gitlab.com/zyk212/tlx-lab/-/raw/master/XP/%E5%8A%A8%E6%BC%AB%E5%B7%B4%E5%A3%AB.json"},
{"key":"csp_Anime1","name":"🌸动漫连载(SP)","type":3,"api":"csp_Anime1","searchable":1,"quickSearch":1,"filterable":1,"jar":"https://0a.fit/PiLgY;md5;F0BD8B1C698C3BC7554F2EDBD77E81EE"},
#学习资源※※※※※※※※※※※※※※※※※※※※※※※※※※※※
{"key":"学堂","name":"💙学习园地","type":3,"api":"csp_Dora","searchable":0,"quickSearch":0,"filterable":1,"ext":"http://52bsj.vip:81/api/v3/file/get/1572/%E5%90%BE%E7%88%B1%E5%AD%A6%E5%A0%820804.m3u?sign=m0FU-h5ZHcb8m0mrj8K1jolIeMUfxttQL3bjLTrIQJg%3D%3A0","jar":"https://download.kstore.space/download/3051/JAR/tang3-1201.jar;md5;ac0a983b64a2513ee476b76b8fb0e3be"},
{"key":"Bili","name":"💙哔哩视频","type":"3","api":"csp_Dora","searchable":"1","quickSearch":"1","filterable":"1","ext":"85b2986381a134ba3ebbaf25ae8138e7#https://ghproxy.com/https://raw.githubusercontent.com/FongMi/CatVodSpider/main/json/bili.json","jar":"https://download.kstore.space/download/3051/JAR/tang3-1201.jar;md5;ac0a983b64a2513ee476b76b8fb0e3be"},
{"key":"csp_Bili","name":"🅱哔哩合集","type":3,"api":"csp_Bili","playerType":2,"searchable":1,"quickSearch":0,"filterable":0,"ext":"http://xn--sss604efuw.ga/x/json/bilibili.json","jar":"http://xn--sss604efuw.ga/x/jar/xo.jar;md5;e80798750eca57470f29d1942bce39bb"},
{"key":"Tbook","name":"💙听书网","type":"3","api":"csp_Dora","searchable":"1","quickSearch":"1","filterable":"1","ext":"d16d1517e9eaad9909cb35c55ba0b784","jar":"https://download.kstore.space/download/3051/JAR/tang3-1201.jar;md5;ac0a983b64a2513ee476b76b8fb0e3be"},
{"key":"dr兔小贝","name":"📚儿童启蒙","type":1,"api":"http://dr.饭太硬.ml/vod?rule=兔小贝","searchable":1,"quickSearch":1,"filterable":0},
{"key":"少儿教育","name":"📚少儿教育","type":3,"api":"csp_Bili","playerType":2,"searchable":0,"quickSearch":1,"filterable":1,"ext":"http://xn--sss604efuw.ga/x/json/少儿教育.json","jar":"http://xn--sss604efuw.ga/x/jar/xo.jar;md5;e80798750eca57470f29d1942bce39bb"},
{"key":"小学课堂","name":"📚小学课堂","type":3,"api":"csp_Bili","playerType":2,"searchable":0,"quickSearch":1,"filterable":1,"ext":"http://xn--sss604efuw.ga/x/json/小学课堂.json","jar":"http://xn--sss604efuw.ga/x/jar/xo.jar;md5;e80798750eca57470f29d1942bce39bb"},
{"key":"初中课堂","name":"📚初中课堂","type":3,"api":"csp_Bili","playerType":2,"searchable":0,"quickSearch":1,"filterable":1,"ext":"http://xn--sss604efuw.ga/x/json/初中课堂.json","jar":"http://xn--sss604efuw.ga/x/jar/xo.jar;md5;e80798750eca57470f29d1942bce39bb"},
{"key":"高中教育","name":"📚高中课堂","type":3,"api":"csp_Bili","playerType":2,"searchable":0,"quickSearch":1,"filterable":1,"ext":"http://xn--sss604efuw.ga/x/json/高中课堂.json","jar":"http://xn--sss604efuw.ga/x/jar/xo.jar;md5;e80798750eca57470f29d1942bce39bb"},
#切片资源※※※※※※※※※※※※※※※※※※※※※※※※※※※※
{"key":"TOM资源","name":"🔪TOM资源(切)","type":1,"api":"https://api.tomcaiji.com/api.php/provide/vod/","searchable":1,"quickSearch":1,"categories":["国产剧","港台剧","日韩剧","欧美剧","动漫","动画片","综艺","动作片","科幻片","喜剧片","恐怖片","爱情片","剧情片","战争片","惊悚片","犯罪片","冒险片","悬疑片","奇幻片","纪录片"]},
{"key":"光速","name":"🔪光速资源(切)","type":1,"api":"https://api.guangsuapi.com/api.php/provide/vod/from/gsm3u8/","searchable":1,"quickSearch":1,"categories":[""]},
{"key":"百度","name":"🔪百度资源(切)","type":1,"api":"https://api.apibdzy.com/api.php/provide/vod/","searchable":1,"filterable":0,"categories":["国产动漫","日韩动漫","大陆剧","欧美剧","韩剧","日剧","动作片","喜剧片","爱情片","科幻片","恐怖片","剧情片","战争片"]},
#网盘挂载※※※※※※※※※※※※※※※※※※※※※※※※※※※※
//{"key":"t4public","name":"T4公共","type":4,"api":"https://t4.secan.icu/vod?sites=all&ali_token=阿里token&timeout=10","searchable":1,"quickSearch":1,"filterable":0},
{"key":"t4public","name":"T4公共","type":4,"api":"https://t4.secan.icu/vod?sites=all&ali_token=3781469b13074e4cac1e0e7113e4fa20token&timeout=10","searchable":1,"quickSearch":1,"filterable":0},
{"key":"T4","name":"T4公共2(SP)","type":4,"api":"https://t4.secan.icu/vod","searchable":1,"quickSearch":1,"filterable":1},
{"key":"T4_douban","name":"影视推荐","type":4,"api":"http://top.fuqizhishi.com/vod","searchable":1,"quickSearch":1,"filterable":0},
{"key":"AList","name":"💿alist💿","type":3,"api":"csp_AList","searchable":1,"ext":"https://ghproxy.com/https://raw.githubusercontent.com/FongMi/CatVodSpider/main/json/alist.json","jar":"https://download.kstore.space/download/3051/JAR/tang3-1201.jar;md5;ac0a983b64a2513ee476b76b8fb0e3be"},

#官采资源※※※※※※※※※※※※※※※※※※※※※※※※※※※※
{"key":"DY4采集","name":"DY4采集(解析)","type":1,"api":"http://cj-a.dy4.top:668/api.php/provide/vod/","searchable":1,"quickSearch":1},
{"key":"千橙资源","name":"千橙资源(解析)","type":1,"api":"http://124.223.10.96:8090/api.php/provide/vod/?ac=list","searchable":1,"quickSearch":1,"categories":["综艺","动漫","动作片","喜剧片","爱情片","科幻片","恐怖片","剧情片","战争片","国产剧","港台剧","日韩剧","欧美剧","惊悚片","犯罪片","冒险片","悬疑片","动画片","武侠片","奇幻片","少儿","其他片","其他剧"]},
//{"key":"北雁资源","name":"北雁资源(解析)","type":1,"api":"https://zy.beiyan.cc:4433/api.php/provide/vod/?ac=list","searchable":1,"quickSearch":1},
{"key":"天堂资源","name":"天堂资源(解析)","type":1,"api":"http://vipmv.cc/api.php/provide/vod/","searchable":1,"quickSearch":1},
{"key":"M3U8资源","name":"M3U8资源(解析)","type":1,"api":"https://www.zycaiji.net:7788/api.php/provide/vod/","searchable":1,"quickSearch":1,"categories":["国产剧","港台剧","日韩剧","欧美剧","动作片","喜剧片","爱情片","科幻片","恐怖片","剧情片","战争片","犯罪片","悬疑片","惊悚片","奇幻片","冒险片","记录片","动画片","综艺","动漫","番剧（B站专用）","国创（B站专用）","电影（B站专用）","电视剧（B站专用）"]},
{"key":"诺讯采集","name":"诺讯采集(解析)","type":1,"api":"https://caiji.nxflv.com/api.php/provide/vod","searchable":1,"quickSearch":1},
{"key":"底线","name":"————❌我是底线❌————","type":3,"api":"csp_360","searchable":1,"quickSearch":1,"filterable":1,"ext":"","jar":""}
],


#解析规则※※※※※※※※※※※※※※※※※※※※※※※※※※※※
"parses":[
{"name":"Json聚合","type":3,"url":"Demo"},
{"name":"Web聚合","type":3,"url":"Web"},
{"name":"Json轮询","type":2,"url":"Sequence"},
//{"name":"[并发]","type":2,"url":"Parallel"},
//{"name":"ak解析","type":1,"url":"http://123.57.56.94:9931/ak/?url=","ext":{"flag":["qq","腾讯","qiyi","爱奇艺","奇艺","youku","优酷","sohu","搜狐","letv","乐视","mgtv","芒果","CL4K","renrenmi","ltnb","bilibili","1905","xigua"],"header":{"User-Agent":"okhttp/4.1.0"}}},
{"name":"懒懒","type":1,"url":"http://lanlan.ckflv.cn/?url=","ext":{"flag":["qq","腾讯","qiyi","爱奇艺","奇艺","youku","优酷","sohu","搜狐","letv","乐视","mgtv","芒果","CL4K","renrenmi","ltnb","bilibili","1905","xigua"]}},
{"name":"解壹","type":0,"url":"https://jx.jsonplayer.com/player/?url=","ext":{"flag":["qq","腾讯","qiyi","爱奇艺","奇艺","youku","优酷","mgtv","芒果","letv","乐视","pptv","PPTV","sohu","xigua"]}},
{"name":"J238","type":0,"url":"https://jiexi.238238.xyz/player/?url="},
{"name":"万能","type":0,"url":"https://json.legendwhb.cn/llq/?url="},
{"name":"看看","type":0,"url":"https://jx.m3u8.pw/?url="},
{"name":"M3U8一","type":0,"url":"https://jx.m3u8.tv/jiexi/?url="},
{"name":"稳定","type":0,"url":"https://jx.bozrc.com:4433/player/?url="},
{"name":"布蕾","type":0,"url":"https://www.bulei.cc/bfq/?url=","ext":{"flag":["qq","腾讯","qiyi","爱奇艺","奇艺","youku","优酷","mgtv","芒果","letv","乐视","pptv","PPTV","sohu","bilibili","哔哩哔哩","哔哩"],"header":{"User-Agent":"okhttp/4.1.0"}}},
{"name":"九酷","type":0,"url":"https://jiuku.site/addons/dp/player/dp.php?key=0&from=&id=56677&api=&url="},
{"name":"九酷2","type":0,"url":"https://jiuku.site/addons/dp/player/dp.php?key=0&from=&id=104818&api=&url="},
{
"name":"九酷3","url":"https://jiuku.site/addons/dp/player/index.php?key=0&id=104818&url=",
"type":0,"ext":{
"flag":["qiyi","imgo","爱奇艺","奇艺","qq","腾讯","youku","优酷","pptv","PPTV","letv","乐视","leshi","bilibili","哔哩哔哩","哔哩","mgtv","芒果","sohu","xigua","fun","风行"],
"header":{"User-Agent":"Mozilla/5.0"}},"header":{"User-Agent":"Mozilla/5.0"}
},
{"name":"鸿途","type":0,"url":"https://h5.freejson.xyz/player/?url="},
{"name":"OK综","type":0,"url":"https://okjx.cc/?url="},
{"name":"jxla","type":0,"url":"https://api.jiexi.la/?url="},
{"name":"1717云","type":0,"url":"https://www.1717yun.com/1717yun/?url="},
{"name":"盘谷","type":0,"url":"http://www.pangujiexi.com/pangu/?url="},
{"name":"8090","type":0,"url":"https://www.8090.la/8090/?url="},
{"name":"爱酷","type":0,"url":"https://jx.zhanlangbu.com/?url="},
{"name":"虾米","type":0,"url":"https://jx.xmflv.com/?url="},
{"name":"M3U8","type":1,"url":"https://m3u8.co/api/?key=ilRCFtQb425VQorcdb&url="},
{"name":"懒懒2","type":1,"url":"http://lanlan.ckflv.cn/?url=","ext":{"flag":["qq","腾讯","qiyi","爱奇艺","奇艺","youku","优酷","sohu","搜狐","letv","乐视","mgtv","芒果","CL4K","renrenmi","ltnb","bilibili","1905","xigua"]}},
{"name":"左岸","type":1,"url":"http://110.42.2.115:880/analysis/json/?uid=2100&my=cqrtwyACDGLOXY0249&mgtv=app&url=","ext":{"flag":["qq","腾讯","qiyi","爱奇艺","奇艺","youku","优酷","sohu","搜狐","letv","乐视","mgtv","芒果","CL4K","renrenmi","ltnb","bilibili","1905","xigua"]}},
//{"name":"Q2","type":1,"url":"http://150.158.175.250:88/parse/sign/812a0f3b8a7ae9dbf90f3d7fac9c8cbc?url="},
{"name":"Q1","type":1,"url":"https://parse.ikunfk.cc/parse/sign/7859e0a8dc5af097c2df1294786a3456?url="},
{"name":"RX2","type":1,"url":"http://rxjx.kuanjv.com/allm3u8.php?url="},
{"name":"江湖","type":1,"url":"http://pandown.pro/app/ysmjx.php?url=","ext":{"flag":["qq","qiyi","mgtv","youku","letv","sohu","xigua","1905","优播线路","腾播线路"],"header":{"User-Agent":"Dart/2.14(dart:io)"}}},
{"name":"刚刚","type":1,"url":"https://play.fuqizhishi.com/jx2/API.php?appkey=iiiixiaobai&url="},
{"name":"酷享","type":1,"url":"http://pandown.pro/app/kxjx.php?url=","ext":{"flag":["qq","腾讯","qiyi","爱奇艺","奇艺","youku","优酷","sohu","搜狐","letv","乐视","mgtv","芒果","CL4K","renrenmi","ltnb","bilibili","1905","xigua"]}},
{"name":"175","type":1,"url":"http://175.178.27.186:27/?url="},
{"name":"可鱼","type":1,"url":"http://newjiexi.gotka.top/keyu3.php?url="},
//{"name":"懒湖","type":1,"url":"http://jx.vipmv.co/json.php?token=123457&url=","ext":{"flag":["qq","腾讯","qiyi","爱奇艺","奇艺","youku","优酷","mgtv","芒果","letv","乐视","pptv","PPTV","sohu","bilibili","哔哩哔哩","哔哩"],"header":{"User-Agent":"okhttp/4.1.0"}}},
//{"name":"懒懒","type":1,"url":"http://123.57.56.94:9931/lanlan/?url="},
//{"name":"BT5V","type":1,"url":"https://rx.bt5v.com/json/jsonindex.php/?url="},
//{"name":"DYG","type":1,"url":"http://101.34.67.237/parse/api/dyg.js?url="},
//{"name":"晓成","type":1,"url":"https://api.cygc.xyz/analysis/?url=","ext":{"flag":["qq","腾讯","qiyi","爱奇艺","奇艺","youku","优酷","mgtv","芒果","letv","乐视","pptv","PPTV","sohu","bilibili","哔哩哔哩","哔哩"],"header":{"User-Agent":"okhttp/4.1.0"}}},
{"name":"OK解","type":0,"url":"https://api.okjx.cc:3389/jx.php?url="},
//{"name":"云解","type":0,"url":"https://jx.aidouer.net/?url="},
{"name":"融兴","type":0,"url":"http://jx.dygfsdy.com/dp/?url="},
{"name":"诺讯","type":0,"url":"https://www.nxflv.com/?url="},
{"name":"M3U8二","type":0,"url":"https://dmjx.m3u8.tv/?url="},
{"name":"夜幕","type":0,"url":"https://www.yemu.xyz/?url="},
{"name":"77二","type":0,"url":"https://jx.jsonplayer.com/player/?url="},
{"name":"777","type":0,"url":"https://jx.777jiexi.com/player/?url="},
//{"name":"parvip","type":0,"url":"https://vip.parwix.com:4433/player/?url=","ext":{"flag":["qq","腾讯","qiyi","iqiyi","爱奇艺","奇艺","youku","优酷","mgtv","芒果","letv","乐视","pptv","PPTV","sohu","bilibili","哔哩哔哩","哔哩"]}},
//{"name":"parwix","type":0,"url":"https://jx.parwix.com:4433/player/analysis.php?v=","ext":{"flag":["qq","腾讯","qiyi","iqiyi","爱奇艺","奇艺","youku","优酷","mgtv","芒果","letv","乐视","pptv","PPTV","sohu","bilibili","哔哩哔哩","哔哩"]}},
//{"name":"往往","type":0,"url":"https://zyone.vqyt.cn/player/?url="},
//{"name":"PJ蓝","type":0,"url":"https://bf.ppjbk.cn/?url="},
//{"name":"PJ解","type":0,"url":"https://jx.ppjbk.cn/?url="},
//{"name":"lecurl","type":0,"url":"https://lecurl.cn/?url="},
//{"name":"007","type":0,"url":"https://jx.007ts.net:6112/?url=","ext":{"flag":["rx","ltnb","renrenmi","rongxing","bilibili","哔哩哔哩","哔哩","youku","优酷","qiyi","爱奇艺","奇艺","qq","腾讯","mgtv","芒果","sohu","搜狐","letv","乐视","xigua","CL4K","西瓜"],"header":{"User-Agent":"okhttp/4.1.0"}}},
//{"name":"KB解析","type":0,"url":"https://player.238238.xyz/?v=","ext":{"flag":["rx","ltnb","renrenmi","rongxing","bilibili","哔哩哔哩","哔哩","youku","优酷","qiyi","爱奇艺","奇艺","qq","腾讯","mgtv","芒果","sohu","搜狐","letv","乐视","xigua","CL4K","西瓜"],"header":{"User-Agent":"okhttp/4.1.0"}}},
{"name":"365","type":0,"url":"https://chaxun.truechat365.com/?url=","ext":{"flag":["bilibili","哔哩哔哩","哔哩"]}},
//{"name":"199","type":0,"url":"http://m.199cn.cn/live_qjx/jx.html?url="},
//{"name":"线路7","type":0,"url":"https://jx.parwix.com:4433/player/?url="},
//{"name":"线路12","type":0,"url":"http://1.117.152.239:39000/?url="},
//{"name":"26db","type":0,"url":"http://vip.26db.cn/g/?url="},
//{"name":"KJV","type":1,"url":"https://za.kuanjv.com/?url=","header":{"User-Agent":"Mozilla/5.0"}},
{"name":"全民","type":0,"url":"http://api.wpsseo.cn/?v="},
{"name":"CK","type":0,"url":"https://www.ckplayer.vip/jiexi/?url="},
{"name":"555","type":0,"url":"https://jiexi.555jiexi.net:555/player/?url="},
{"name":"2090","type":0,"url":"https://m2090.com/?url="},
{"name":"kanb","type":0,"url":"https://kanb.tv/kanbplay/?url="},
{"name":"量子","type":0,"url":"https://lziplayer.com/?url="},

//{"name":"cainisi","type":0,"url":"https://jx.cainisi.cf/?v="},
//{"name":"cxk8","type":0,"url":"https://dm.cxk8.com/player/?url="},
//{"name":"NB解析","type":1,"url":"http://rxjx.kuanjv.com/allm3u8.php?url="},
//{"name":"RDHK","type":0,"url":"https://jx.rdhk.net/?v="},
//{"name":"H8","type":0,"url":"https://www.h8jx.com/jiexi.php?url=","header":{"User-Agent":"Mozilla/5.0"}},
//{"name":"CCY","type":0,"url":"https://ckmov.ccyjjd.com/ckmov/?url=","header":{"User-Agent":"Mozilla/5.0"}},
{"name":"91","type":0,"url":"http://91fanli.top/m3u8/?url="},
//{"name":"爱豆","type":0,"url":"https://jx.aidouer.net/?url="},
{"name":"ckmov","type":0,"url":"https://www.ckmov.com/?url="},
//{"name":"JY","type":0,"url":"https://jx.playerjy.com/?url=","header":{"User-Agent":"Mozilla/5.0"}},
//{"name":"freejx","type":0,"url":"https://json.freejx.in/?url="},
//{"name":"醉仙","type":0,"url":"https://jx.zui.cm/?url="},
{"name":"So","type":0,"url":"https://tljiaqing.nde.tw/m3u8/?url="},
{"name":"peng","type":0,"url":"https://jiexi.pengdouw.com/jiexi2/?url="},
//{"name":"im1907","type":1,"url":"https://im1907.top/?jx="},
{"name":"——底线——","type":2,"url":"Parallel"}
],


"flags":["youku","qq","iqiyi","qiyi","letv","sohu","tudou","pptv","mgtv","wasu","bilibili","renrenmi"],
"ijk":[
{"group":"软解码","options":[
{"category":4,"name":"opensles","value":"0"},
{"category":4,"name":"overlay-format","value":"842225234"},
{"category":4,"name":"framedrop","value":"1"},
{"category":4,"name":"soundtouch","value":"1"},
{"category":4,"name":"start-on-prepared","value":"1"},
{"category":1,"name":"http-detect-range-support","value":"0"},
{"category":1,"name":"fflags","value":"fastseek"},
{"category":2,"name":"skip_loop_filter","value":"48"},
{"category":4,"name":"reconnect","value":"1"},
{"category":4,"name":"enable-accurate-seek","value":"0"},
{"category":4,"name":"mediacodec","value":"0"},
{"category":4,"name":"mediacodec-auto-rotate","value":"0"},
{"category":4,"name":"mediacodec-handle-resolution-change","value":"0"},
{"category":4,"name":"mediacodec-hevc","value":"0"},
{"category":1,"name":"dns_cache_timeout","value":"600000000"}
]},
{"group":"硬解码","options":[
{"category":4,"name":"opensles","value":"0"},
{"category":4,"name":"overlay-format","value":"842225234"},
{"category":4,"name":"framedrop","value":"1"},
{"category":4,"name":"soundtouch","value":"1"},
{"category":4,"name":"start-on-prepared","value":"1"},
{"category":1,"name":"http-detect-range-support","value":"0"},
{"category":1,"name":"fflags","value":"fastseek"},
{"category":2,"name":"skip_loop_filter","value":"48"},
{"category":4,"name":"reconnect","value":"1"},
{"category":4,"name":"enable-accurate-seek","value":"0"},
{"category":4,"name":"mediacodec","value":"1"},
{"category":4,"name":"mediacodec-auto-rotate","value":"1"},
{"category":4,"name":"mediacodec-handle-resolution-change","value":"1"},
{"category":4,"name":"mediacodec-hevc","value":"1"},
{"category":1,"name":"dns_cache_timeout","value":"600000000"}
]}
],
"ads":["https://lf1-cdn-tos.bytegoofy.com/obj/tos-cn-i-dy/455ccf9e8ae744378118e4bd289288dd","mimg.0c1q0l.cn","www.googletagmanager.com","www.google-analytics.com","mc.usihnbcq.cn","mg.g1mm3d.cn","mscs.svaeuzh.cn","cnzz.hhttm.top","tp.vinuxhome.com","cnzz.mmstat.com","www.baihuillq.com","s23.cnzz.com","z3.cnzz.com","c.cnzz.com","stj.v1vo.top","z12.cnzz.com","img.mosflower.cn","tips.gamevvip.com","ehwe.yhdtns.com","xdn.cqqc3.com","www.jixunkyy.cn","sp.chemacid.cn","hm.baidu.com","s9.cnzz.com","z6.cnzz.com","um.cavuc.com","mav.mavuz.com","wofwk.aoidf3.com","z5.cnzz.com","xc.hubeijieshikj.cn","tj.tianwenhu.com","xg.gars57.cn","k.jinxiuzhilv.com","cdn.bootcss.com","ppl.xunzhuo123.com","xomk.jiangjunmh.top","img.xunzhuo123.com","z1.cnzz.com","s13.cnzz.com","xg.huataisangao.cn","z7.cnzz.com","xg.huataisangao.cn","z2.cnzz.com","s96.cnzz.com","q11.cnzz.com","thy.dacedsfa.cn","xg.whsbpw.cn","s19.cnzz.com","z8.cnzz.com","s4.cnzz.com","f5w.as12df.top","ae01.alicdn.com","www.92424.cn","k.wudejia.com","vivovip.mmszxc.top","qiu.xixiqiu.com","cdnjs.hnfenxun.com","cms.qdwght.com"]
}
