{
  "作者": "菜妮丝https://cainisi.cf",
  "站名": "无名小站",
  "主页url": "https://blssv.com",
  "热门": "电视剧$20",
  
  "分类": "电影$1#电视剧$2#综艺$3#动漫$4#记录$5",
  
  "分类url": "https://blssv.com/vodshow-{cateId}/page/{catePg}/",
  
  "数组": "data-key=\"2\">&&</a>",
  "图片": "data-original=\"&&\"",
  "标题": "mdui-p-t-1\">&&</span>",
  "链接": "href=\"/voddetail&&/\"",
  "副标题": "title*>&&</span>",
  "链接前缀": "https://blssv.com/vodplay",
  "链接后缀": "-1-1/",
  
  "搜索模式": "1",
  "搜索url": "/vodsearch/{wd}----------1---/",
  "搜索数组": "data-key=\"2\">&&</a>",
  "搜索图片": "data-original=\"&&\"",
  "搜索标题": "mdui-p-t-1\">&&</span>",
  "搜索链接": "href=\"/voddetail&&/\"",
  "搜索副标题": "title*>&&</span>",
  "搜索链接前缀": "https://blssv.com/vodplay",
  "搜索链接后缀": "-1-1/",
  
  "主演": "主演：&&</div>",
  "简介": "<p>&&</p>",
  
  "线路数组": "mdui-panel-item-title&&/div>",
  "线路标题": ">&&<",
  
  "播放数组": "mdui-panel-item-body\">&&<div"
}
