{
    "作者": "JMG0923",
    "站名": "AUete",
    "请求头": "电脑",
    "分类url": "https://www.l0l.tv/index.php/vod/show/area/{area}/class/{class}/id/{cateId}/page/{catePg}/year/{year}.html",
    "分类": "电视剧$2#电影$1#动漫$3#综艺$4#数字||bilibili$5",
    "副标题": "hidden\">&&</span>",
    "线路数组": "data-from=&&/a>",
    "线路标题": "\"&&\"",
    "播放数组": "id=\"playsx&&</ul>",
    "导演": "导演：</span>&&概要：",
    "简介": "概要：</span>&&</p>"
}
