{
"站名":"天空影视-xbpq",
"分类url":"http://tkznp.com/vodshow{area}{by}{catelog}{lang}/id/{cateId}/page/{catePg}{year}.html",
"分类":"电影$1#电视剧$2#综艺$3#动漫$4",
     
// "副标题":"uk-overlay-primary uk-position-bottom\">&&<",
// "线路数组":"来自<span class=\"uk-label\"&&/span>",
// "线路标题":">&&<",
// "播放数组":"</ul><ul class=\"fed-part-rows\">&&</ul>",

// "类型": "1--动作片$6#喜剧片$7#爱情片$8#科幻片$9#恐怖片$10#剧情片$11#战争片$12#纪录片$29#动画片$31||2--国产剧$13#港剧$14#日剧$15#欧美剧$16#韩剧$23#越南剧$22#泰剧$21#台剧$20#海外剧$30",
// "地区": "",
// "剧情":"1--0||2--0||3--选秀$选秀#情感$情感#访谈$访谈#播报$播报#旅游$旅游#音乐$音乐#美食$美食#纪实$纪实#曲艺$曲艺#生活$生活#游戏互动$游戏互动#财经$财经#求职$求职||4--情感$情感#科幻$科幻#热血$热血#推理$推理#搞笑$搞笑#冒险$冒险#萝莉$萝莉#校园$校园#动作$动作#机战$机战#运动$运动#战争$战争#少年$少年#少女$少女#社会$社会#原创$原创#亲子$亲子#益智$益智#励志$励志#其他$其他",
// "年份":"2000-2022",
// "排序":"按更新$time#按上映$pubdate#按人气$hits#按豆瓣分$douban_score%2Cscore",
"免嗅":"1",
"筛选":"0"} 
}
