{
"站名": "兄弟影院",
"主页url": "https://brovod.com/",
"请求头": "",
"头部集合": "User-Agent$Mozilla/5.0 (iPhone; CPU iPhone OS 13_2_3 like Mac OS X) AppleWebKit/605.1.15 (KHTML, like Gecko) Version/13.0.3 Mobile/15E148 Safari/604.1#Referer$https://brovod.com/",
"热门推荐": "",
"起始页": "1",
"直接播放": "0",
"倒序播放": "0",
"图片代理": "0",
"二次截取": "class=\"module-items&&id=\"page",
"数组": "<a&&no-referrer",
"图片": "data-original=\"&&\"",
"标题": "title=\"&&\"",
"副标题": "class=\"module-item-note\">&&</div>",
"链接": "href=\"&&\"",
"链接前缀": "https://brovod.com",
"线路二次截取": "",
"线路数组": "class=\"module-tab-item tab-item&&</div>",
"线路标题": "<span>&&</span>",
"线路链接": "",
"影片类型": "更新：</span>&&</div>",
"影片年代": "",
"影片地区": "",
"导演": "导演：</span>&&</div>",
"主演": "主演：</span>&&</div>",
"简介": "<div class=\"module-info-introduction-content show-desc\" style=\"line-height: 20px;\">&&</p>",
"搜索url": "https://brovod.com/search/-------------/?wd={wd}",
"搜索模式": "1",
"搜索二次截取": "class=\"module-items&&id=\"page",
"搜索数组": "<a&&</a>",
"搜索图片": "data-original=\"&&\"",
"搜索标题": "title=\"&&\"",
"搜索副标题": "<div class=\"module-item-note\">&&</div>",
"搜索链接": "href=\"&&\"",
"搜索链接前缀": "https://brovod.com",
// "播放二次截取": "",
// "播放数组": "class=\"module-play-list&&/div>",
// "列表二次截取": "",
// "播放列表": "<a&&</a>",
// "播放标题": "title=\"&&\"",
// "播放链接": "href=\"&&\"",
// "播放链接前缀": "https://brovod.com",
// "播放链接后缀": "",
"免嗅": "0",
"嗅探词":"",
"过滤词":"",
"播放请求头": "User-Agent$Mozilla/5.0 (iPhone; CPU iPhone OS 13_2_3 like Mac OS X) AppleWebKit/605.1.15 (KHTML, like Gecko) Version/13.0.3 Mobile/15E148 Safari/604.1#Referer$https://brovod.com",
"分类url": "https://brovod.com/show/{cateId}--------{catePg}---/",
"分类": "电影$W8888W#电视剧$u8888W#综艺$B8888W#动漫$o8888W#记录$7888W",
"分类二次截取": "",
"分类数组": "",
"分类标题": "",
"分类ID": "",
"类型": "",
"剧情": "",
"地区": "",
"年份": "",
"排序": "",
"筛选": ""
}
