{
  "name": "云雀视频",
  "url": "https://v.yunque.vip",
  "User": "",
  "shouye": "1",

"分类页": "https://v.yunque.vip/index.php/vod/show{area}{class}/id/{cateId}/page/{catePg}{year}.html",

"分类": "电影$20#电视剧$21#综艺$22#动漫$23",

  "shifouercijiequ": "0",
  "jiequqian": "空",
  "jiequhou": "空",
  "jiequshuzuqian": "class=\"module-poster-item-title",
  "jiequshuzuhou": "class=\"icon-play",
  "tupianqian": "data-original=\"",
  "tupianhou": "\"",
  "biaotiqian": "title=\"",
  "biaotihou": "\"",
  "lianjieqian": "href=\"",
  "lianjiehou": "\"",
  "sousuoqian": "/index.php/ajax/suggest?mid=1&wd=",
  "sousuohou": "&limit=500",
  "sousuohouzhui": "/vod/",
  "ssmoshi": "0",
  "sousuoshifouercijiequ": "0",
  "jspic": "pic",
  "jsname": "name",
  "jsid": "id",
  "ssjiequqian": "空",
  "ssjiequhou": "空",
  "ssjiequshuzuqian": "空",
  "ssjiequshuzuhou": "空",
  "sstupianqian": "空",
  "sstupianhou": "空",
  "ssbiaotiqian": "空",
  "ssbiaotihou": "空",
  "sslianjieqian": "空",
  "sslianjiehou": "空",
"xlshifouercijiequ": "0",
 "xljiequqian": "",
 "xljiequhou": "",
 "xljiequshuzuqian": "class=\"module-tab-item tab-item",
 "xljiequshuzuhou": "</div>",
 "xlbiaotiqian": "<span>",
 "xlbiaotihou": "</span>",
 "zhuangtaiqian": "状态：</span>",
  "zhuangtaihou": "</p>",
  "daoyanqian": "导演：</span>",
  "daoyanhou": "</p>",
  "zhuyanqian": "主演：</span>",
  "zhuyanhou": "</p>",
  "juqingqian": "简介：</span>",
  "juqinghou": "</a>",
"bfshifouercijiequ": "0",
  "bfjiequqian": "空",
  "bfjiequhou": "空",
  "bfjiequshuzuqian": "class=\"module-play-list-content  module-play-list-base",
  "bfjiequshuzuhou": "</div>",
  "bfyshifouercijiequ": "0",
  "bfyjiequqian": "空",
  "bfyjiequhou": "空",
  "bfyjiequshuzuqian": "<a",
  "bfyjiequshuzuhou": "/a>",
  "bfbiaotiqian": "<span>",
  "bfbiaotihou": "</span>",
  "bflianjieqian": "href=\"",
  "bflianjiehou": "\"",
"嗅探词":"",
"过滤词":"",

"筛选": {
        "20": [
            {
                "key": "class",
                "name": "类型",
                "value": [
                    {
                        "n": "全部",
                        "v": ""
                    },
                    {
                        "n": "动作",
                        "v": "/class/动作"
                    },
                    {
                        "n": "喜剧",
                        "v": "/class/喜剧"
                    },
                    {
                        "n": "爱情",
                        "v": "/class/爱情"
                    },
                    {
                        "n": "奇幻",
                        "v": "/class/奇幻"
                    },
                    {
                        "n": "恐怖",
                        "v": "/class/恐怖"
                    },
                    {
                        "n": "剧情",
                        "v": "/class/剧情"
                    },
                    {
                        "n": "战争",
                        "v": "/class/战争"
                    },
                    {
                        "n": "犯罪",
                        "v": "/class/犯罪"
                    },
                    {
                        "n": "惊悚",
                        "v": "/class/惊悚"
                    },
                    {
                        "n": "冒险",
                        "v": "/class/冒险"
                    },
                    {
                        "n": "悬疑",
                        "v": "/class/悬疑"
                    },
                    {
                        "n": "武侠",
                        "v": "/class/武侠"
                    },
                    {
                        "n": "奇幻",
                        "v": "/class/奇幻"
                    },
                    {
                        "n": "纪录",
                        "v": "/class/纪录"
                    },
                    {
                        "n": "动画",
                        "v": "/class/动画"
                    }
                ]
            },
            {
                "key": "area",
                "name": "地区",
                "value": [
                    {
                        "n": "全部",
                        "v": ""
                    },
                    {
                        "n": "大陆",
                        "v": "/area/大陆"
                    },
                    {
                        "n": "香港",
                        "v": "/area/香港"
                    },
                    {
                        "n": "台湾",
                        "v": "/area/台湾"
                    },
                    {
                        "n": "美国",
                        "v": "/area/美国"
                    },
                    {
                        "n": "法国",
                        "v": "/area/法国"
                    },
                    {
                        "n": "英国",
                        "v": "/area/英国"
                    },
                    {
                        "n": "日本",
                        "v": "/area/日本"
                    },
                    {
                        "n": "韩国",
                        "v": "/area/韩国"
                    },
                    {
                        "n": "德国",
                        "v": "/area/德国"
                    },
                    {
                        "n": "泰国",
                        "v": "/area/泰国"
                    },
                    {
                        "n": "印度",
                        "v": "/area/印度"
                    },
                    {
                        "n": "意大利",
                        "v": "/area/意大利"
                    },
                    {
                        "n": "西班牙",
                        "v": "/area/西班牙"
                    },
                    {
                        "n": "加拿大",
                        "v": "/area/加拿大"
                    },
                    {
                        "n": "俄罗斯",
                        "v": "/area/俄罗斯"
                    }
                ]
            },
            {
                "key": "year",
                "name": "年份",
                "value": [
                    {
                        "n": "全部",
                        "v": ""
                    },
                    {
                        "n": "year/2022",
                        "v": "2022"
                    },
                    {
                        "n": "2021",
                        "v": "/year/2021"
                    },
                    {
                        "n": "2020",
                        "v": "/year/2020"
                    },
                    {
                        "n": "2019",
                        "v": "/year/2019"
                    },
                    {
                        "n": "2018",
                        "v": "/year/2018"
                    },
                    {
                        "n": "2017",
                        "v": "/year/2017"
                    },
                    {
                        "n": "2016",
                        "v": "/year/2016"
                    },
                    {
                        "n": "2015",
                        "v": "/year/2015"
                    },
                    {
                        "n": "2014",
                        "v": "/year/2014"
                    },
                    {
                        "n": "2013",
                        "v": "/year/2013"
                    },
                    {
                        "n": "2012",
                        "v": "/year/2012"
                    },
                    {
                        "n": "2011",
                        "v": "/year/2011"
                    },
                    {
                        "n": "2010",
                        "v": "/year/2010"
                    },
                    {
                        "n": "2009",
                        "v": "/year/2009"
                    },
                    {
                        "n": "2008",
                        "v": "/year/2008"
                    },
                    {
                        "n": "2007",
                        "v": "/year/2007"
                    },
                    {
                        "n": "2006",
                        "v": "/year/2006"
                    },
                    {
                        "n": "2005",
                        "v": "/year/2005"
                    },
                    {
                        "n": "2004",
                        "v": "/year/2004"
                    },
                    {
                        "n": "2003",
                        "v": "/year/2003"
                    },
                    {
                        "n": "2002",
                        "v": "/year/2002"
                    },
                    {
                        "n": "2001",
                        "v": "/year/2001"
                    },
                    {
                        "n": "2000",
                        "v": "/year/2000"
                    }
                ]
            }
        ],
        "21": [
            {
                "key": "area",
                "name": "地区",
                "value": [
                    {
                        "n": "全部",
                        "v": ""
                    },
                    {
                        "n": "大陆",
                        "v": "/area/大陆"
                    },
                    {
                        "n": "香港",
                        "v": "/area/香港"
                    },
                    {
                        "n": "台湾",
                        "v": "/area/台湾"
                    },
                    {
                        "n": "美国",
                        "v": "/area/美国"
                    },
                    {
                        "n": "法国",
                        "v": "/area/法国"
                    },
                    {
                        "n": "英国",
                        "v": "/area/英国"
                    },
                    {
                        "n": "日本",
                        "v": "/area/日本"
                    },
                    {
                        "n": "韩国",
                        "v": "/area/韩国"
                    },
                    {
                        "n": "德国",
                        "v": "/area/德国"
                    },
                    {
                        "n": "泰国",
                        "v": "/area/泰国"
                    },
                    {
                        "n": "印度",
                        "v": "/area/印度"
                    },
                    {
                        "n": "意大利",
                        "v": "/area/意大利"
                    },
                    {
                        "n": "西班牙",
                        "v": "/area/西班牙"
                    },
                    {
                        "n": "加拿大",
                        "v": "/area/加拿大"
                    },
                    {
                        "n": "俄罗斯",
                        "v": "/area/俄罗斯"
                    }
                ]
            },
            {
                "key": "year",
                "name": "年份",
                "value": [
                    {
                        "n": "全部",
                        "v": ""
                    },
                    {
                        "n": "year/2022",
                        "v": "2022"
                    },
                    {
                        "n": "2021",
                        "v": "/year/2021"
                    },
                    {
                        "n": "2020",
                        "v": "/year/2020"
                    },
                    {
                        "n": "2019",
                        "v": "/year/2019"
                    },
                    {
                        "n": "2018",
                        "v": "/year/2018"
                    },
                    {
                        "n": "2017",
                        "v": "/year/2017"
                    },
                    {
                        "n": "2016",
                        "v": "/year/2016"
                    },
                    {
                        "n": "2015",
                        "v": "/year/2015"
                    },
                    {
                        "n": "2014",
                        "v": "/year/2014"
                    },
                    {
                        "n": "2013",
                        "v": "/year/2013"
                    },
                    {
                        "n": "2012",
                        "v": "/year/2012"
                    },
                    {
                        "n": "2011",
                        "v": "/year/2011"
                    },
                    {
                        "n": "2010",
                        "v": "/year/2010"
                    },
                    {
                        "n": "2009",
                        "v": "/year/2009"
                    },
                    {
                        "n": "2008",
                        "v": "/year/2008"
                    },
                    {
                        "n": "2007",
                        "v": "/year/2007"
                    },
                    {
                        "n": "2006",
                        "v": "/year/2006"
                    },
                    {
                        "n": "2005",
                        "v": "/year/2005"
                    },
                    {
                        "n": "2004",
                        "v": "/year/2004"
                    },
                    {
                        "n": "2003",
                        "v": "/year/2003"
                    },
                    {
                        "n": "2002",
                        "v": "/year/2002"
                    },
                    {
                        "n": "2001",
                        "v": "/year/2001"
                    },
                    {
                        "n": "2000",
                        "v": "/year/2000"
                    }
                ]
            }
 
        ],
        "23": [
            {
                "key": "class",
                "name": "剧情",
                "value": [
                    {
                        "n": "全部",
                        "v": ""
                    },
                    {
                        "n": "情感",
                        "v": "/class/情感"
                    },
                    {
                        "n": "科幻",
                        "v": "/class/科幻"
                    },
                    {
                        "n": "热血",
                        "v": "/class/热血"
                    },
                    {
                        "n": "推理",
                        "v": "/class/推理"
                    },
                    {
                        "n": "搞笑",
                        "v": "/class/搞笑"
                    },
                    {
                        "n": "冒险",
                        "v": "/class/冒险"
                    },
                    {
                        "n": "萝莉",
                        "v": "/class/萝莉"
                    },
                    {
                        "n": "校园",
                        "v": "/class/校园"
                    },
                    {
                        "n": "动作",
                        "v": "/class/动作"
                    },
                    {
                        "n": "机战",
                        "v": "/class/机战"
                    },
                    {
                        "n": "运动",
                        "v": "/class/运动"
                    },
                    {
                        "n": "战争",
                        "v": "/class/战争"
                    },
                    {
                        "n": "少年",
                        "v": "/class/少年"
                    },
                    {
                        "n": "少女",
                        "v": "/class/少女"
                    },
                    {
                        "n": "社会",
                        "v": "/class/社会"
                    },
                    {
                        "n": "原创",
                        "v": "/class/原创"
                    },
                    {
                        "n": "亲子",
                        "v": "/class/亲子"
                    },
                    {
                        "n": "益智",
                        "v": "/class/益智"
                    },
                    {
                        "n": "励志",
                        "v": "/class/励志"
                    },
                    {
                        "n": "其他",
                        "v": "/class/其他"
                    }
                ]
            },
            {
                "key": "area",
                "name": "地区",
                "value": [
                    {
                        "n": "全部",
                        "v": ""
                    },
                    {
                        "n": "大陆",
                        "v": "/area/大陆"
                    },
                    {
                        "n": "香港",
                        "v": "/area/香港"
                    },
                    {
                        "n": "台湾",
                        "v": "/area/台湾"
                    },
                    {
                        "n": "美国",
                        "v": "/area/美国"
                    },
                    {
                        "n": "法国",
                        "v": "/area/法国"
                    },
                    {
                        "n": "英国",
                        "v": "/area/英国"
                    },
                    {
                        "n": "日本",
                        "v": "/area/日本"
                    },
                    {
                        "n": "韩国",
                        "v": "/area/韩国"
                    },
                    {
                        "n": "德国",
                        "v": "/area/德国"
                    },
                    {
                        "n": "泰国",
                        "v": "/area/泰国"
                    },
                    {
                        "n": "印度",
                        "v": "/area/印度"
                    },
                    {
                        "n": "意大利",
                        "v": "/area/意大利"
                    },
                    {
                        "n": "西班牙",
                        "v": "/area/西班牙"
                    },
                    {
                        "n": "加拿大",
                        "v": "/area/加拿大"
                    },
                    {
                        "n": "俄罗斯",
                        "v": "/area/俄罗斯"
                    }
                ]
            },
            {
                "key": "year",
                "name": "年份",
                "value": [
                    {
                        "n": "全部",
                        "v": ""
                    },
                    {
                        "n": "year/2022",
                        "v": "2022"
                    },
                    {
                        "n": "2021",
                        "v": "/year/2021"
                    },
                    {
                        "n": "2020",
                        "v": "/year/2020"
                    },
                    {
                        "n": "2019",
                        "v": "/year/2019"
                    },
                    {
                        "n": "2018",
                        "v": "/year/2018"
                    },
                    {
                        "n": "2017",
                        "v": "/year/2017"
                    },
                    {
                        "n": "2016",
                        "v": "/year/2016"
                    },
                    {
                        "n": "2015",
                        "v": "/year/2015"
                    },
                    {
                        "n": "2014",
                        "v": "/year/2014"
                    },
                    {
                        "n": "2013",
                        "v": "/year/2013"
                    },
                    {
                        "n": "2012",
                        "v": "/year/2012"
                    },
                    {
                        "n": "2011",
                        "v": "/year/2011"
                    },
                    {
                        "n": "2010",
                        "v": "/year/2010"
                    },
                    {
                        "n": "2009",
                        "v": "/year/2009"
                    },
                    {
                        "n": "2008",
                        "v": "/year/2008"
                    },
                    {
                        "n": "2007",
                        "v": "/year/2007"
                    },
                    {
                        "n": "2006",
                        "v": "/year/2006"
                    },
                    {
                        "n": "2005",
                        "v": "/year/2005"
                    },
                    {
                        "n": "2004",
                        "v": "/year/2004"
                    },
                    {
                        "n": "2003",
                        "v": "/year/2003"
                    },
                    {
                        "n": "2002",
                        "v": "/year/2002"
                    },
                    {
                        "n": "2001",
                        "v": "/year/2001"
                    },
                    {
                        "n": "2000",
                        "v": "/year/2000"
                    }
                ]
            }
         ]
    }
}
