{
    "规则名": "看看剧",
    "请求头参数": "User-Agent$电脑",
    "网页编码格式": "UTF-8",
    "图片是否需要代理": "",
    "是否开启获取首页数据": "0",
    "首页推荐链接": "https://kankanju.cc/",
    "首页列表数组规则": "body&&.stui-vodlist__box",
    "首页片单列表数组规则": ".stui-vodlist__box&&li",
    "首页片单是否Jsoup写法": "1",
    "分类起始页码": "1",
    "分类链接": "https://kankanju.cc/vodshow/area/{area}/by/{by}/class/{class}/id/{cateId}/page/{catePg}/year/{year}.html",
    "分类名称": "电影&连续剧&综艺&动漫",
    "分类名称替换词": "dianying&dianshiju&zongyi&dongman",
    "筛选数据": "ext",
    //{cateId}
    "筛选子分类名称": "动作片&喜剧片&爱情片&科幻片&恐怖片&剧情片&战争片&纪录片||国产剧&香港剧&韩剧&欧美剧&日剧&台剧&海外剧||",
    "筛选子分类替换词": "dongzuopian&xijupian&aiqingpian&kehuanpian&kongbupian&juqingpian&zhanzhengpian&jilupian||guochanju&xianggangju&hanju&oumeiju&riju&taiju&haiwaiju||",
    //{class}
    "筛选类型名称": "喜剧&爱情&恐怖&动作&科幻&剧情&战争&警匪&犯罪&动画&奇幻&武侠&冒险&枪战&恐怖&悬疑&惊悚&经典||古装&战争&青春偶像&喜剧&家庭&犯罪&动作&奇幻&剧情&历史&经典&乡村&情景&商战&网剧&其他||选秀&情感&访谈&播报&旅游&音乐&美食&纪实&曲艺&生活&游戏互动&财经&求职||情感&科幻&热血&推理&搞笑&冒险&萝莉&校园&动作&机战&运动&战争&少年&少女&社会&原创&亲子&益智&励志",
    "筛选类型替换词": "*",
    //{area}
    "筛选地区名称": "大陆&香港&台湾&美国&法国&英国&日本&韩国&德国&泰国&印度&意大利&西班牙&加拿大&其他||内地&韩国&香港&台湾&日本&美国&泰国&英国&新加坡&其他||内地&港台&日韩&欧美||内地&日本&欧美&其他",
    "筛选地区替换词": "*",
    //{year}
    "筛选年份名称": "2023&2022&2021&2020&2019&2018&2017&2016&2015&2014&2013&2012&2011",
    "筛选年份替换词": "*",
    "分类截取模式": "1",
    "分类列表数组规则": ".stui-vodlist.clearfix&&li",
    "分类片单是否Jsoup写法": "1",
    "分类片单标题": "a&&title",
    "分类片单链接": "a&&href",
    "分类片单图片": ".lazyload&&data-original",
    "分类片单副标题": ".pic-text.text-right&&Text",
    "分类片单链接加前缀": "https://kankanju.cc",
    "分类片单链接加后缀": "",
    "搜索请求头参数": "User-Agent$电脑",
    "搜索链接": "https://kankanju.cc/vodsearch.html?wd={wd}&submit=",
    "POST请求数据": "searchword={wd}",
    "搜索截取模式": "1",
    "搜索列表数组规则": ".stui-vodlist.clearfix",
    "搜索片单是否Jsoup写法": "1",
    "搜索片单图片": ".lazyload&&data-original",
    "搜索片单标题": "a&&title",
    "搜索片单链接": "a&&href",
    "搜索片单副标题": ".pic-text&&Text",
    "搜索片单链接加前缀": "https://kankanju.cc",
    "搜索片单链接加后缀": "",
    "链接是否直接播放": "0",
    "直接播放链接加前缀": "",
    "直接播放链接加后缀": "#isVideo=true#",
    "直接播放直链视频请求头": "authority$ku.peizq.online#Referer$https://play.peizq.online",
    "详情是否Jsoup写法": "0",
    "类型详情": "",
    "年代详情": "",
    "地区详情": "更新：</span>&&</div>",
    "演员详情": "主演：</span>&&</div>",
    "简介详情": "class=\"detail-content\"&&</p>",
    "线路列表数组规则": "body&&.stui-vodlist__head",
    "线路标题": "h3.title&&Text",
    "播放列表数组规则": "body&&.stui-content__playlist",
    "选集列表数组规则": "a",
    "选集标题链接是否Jsoup写法": "1",
    "选集标题": "Text",
    "选集链接": "a&&href",
    "是否反转选集序列": "0",
    "选集链接加前缀": "https://kankanju.cc",
    "选集链接加后缀": "",
    "分析MacPlayer": "2",
    "是否开启手动嗅探": "0",
    "手动嗅探视频链接关键词": "mp4#.m3u8",
    "手动嗅探视频链接过滤词": "html#=http#=https"
}
