{
    "规则名": "兔兔瓜",
    "规则作者": "",
    "请求头参数": "手机",
    "网页编码格式": "UTF-8",
    "图片是否需要代理": "0",
    "是否开启获取首页数据": "1",
    "首页推荐链接": "http://www.tutugua.com",
    "首页列表数组规则": "body&&.stui-vodlist:has(h4)",
    "首页片单列表数组规则": "li",
    "首页片单是否Jsoup写法": "1",
    "分类起始页码": "1",
    "分类链接": "http://www.tutugua.com/type/{cateId}-{catePg}.html",
    "分类名称": "电影&电视剧&动漫&综艺",
    "分类名称替换词": "1&2&4&3",
    //"筛选数据": {},
    "筛选数据": "ext",
    //{cateId}
    "筛选子分类名称": "",
    "筛选子分类替换词": "",
    //{class}
    "筛选类型名称": "喜剧&爱情&恐怖&动作&科幻&剧情&战争&犯罪&灾难&奇幻&悬疑&惊悚&冒险||国产&港台&日韩&欧美&海外&古装&战争&偶像&犯罪&奇幻&剧情&历史&网剧||科幻&热血&推理&搞笑&冒险&萝莉&校园&动作&机战&运动&战争&少年&少女||相声&真人秀&脱口秀&选秀&情感&访谈&播报&旅游&音乐&美食&纪实&舞蹈",
    "筛选类型替换词": "*",
    //{area}
    "筛选地区名称": "大陆&香港&台湾&美国&法国&英国&日本&韩国&德国&泰国&印度&其他||大陆&韩国&香港&台湾&日本&美国&泰国&英国&新加坡&其他||大陆&日本&欧美&海外||大陆&香港&台湾&日本&欧美&韩国",
    "筛选地区替换词": "*",
    //{year}
    "筛选年份名称": "",
    "筛选年份替换词": "*",
    //{lang}
    "筛选语言名称": "普通话&英语&粤语&闽南语&韩语&日语&法语&德语&其它||普通话&英语&粤语&闽南语&韩语&日语&其它||普通话&英语&韩语&日语&其他||普通话&粤语&英语&闽南语&韩语&日语&其它",
    "筛选语言替换词": "*",
    //{by}
    "筛选排序名称": "时间&人气&评分",
    "筛选排序替换词": "time&hits&score",
    "分类截取模式": "1",
    "分类列表数组规则": ".stui-vodlist&&li",
    "分类片单是否Jsoup写法": "1",
    "分类片单标题": "h4&&a&&Text",
    "分类片单链接": "h4&&a&&href",
    "分类片单图片": ".lazyload&&data-original",
    "分类片单副标题": ".pic-text&&Text",
    "分类片单链接加前缀": "http://www.tutugua.com",
    "分类片单链接加后缀": "",
    "搜索请求头参数": "User-Agent$手机#Referer$http://www.tutugua.com/",
    "搜索链接": "http://www.tutugua.com/index.php?m=vod-search;post",
    "POST请求数据": "wd={wd}",
    "搜索截取模式": "1",
    "搜索列表数组规则": ".stui-vodlist.clearfix&&li",
    "搜索片单是否Jsoup写法": "1",
    "搜索片单图片": ".lazyload&&data-original",
    "搜索片单标题": "h4&&a&&Text",
    "搜索片单链接": "h4&&a&&href",
    "搜索片单副标题": ".pic-text&&Text",
    "搜索片单链接加前缀": "http://www.tutugua.com",
    "搜索片单链接加后缀": "",
    "链接是否直接播放": "0",
    "直接播放链接加前缀": "",
    "直接播放链接加后缀": "",
    "直接播放直链视频请求头": "",
    "详情是否Jsoup写法": "0",
    "类型详情": "类型：</span>&&</a>",
    "年代详情": "年份：</span>&&</a>",
    "地区详情": "地区：</span>&&</a>",
    "演员详情": "主演：</span>&&</p>",
    "简介详情": "简介：</span>&&</p>",
    "线路列表数组规则": "body&&.stui-pannel__head",
    "线路标题": "h3&&Text",
    "播放列表数组规则": "body&&.stui-content__playlist",
    "选集列表数组规则": "li",
    "选集标题链接是否Jsoup写法": "1",
    "选集标题": "a&&Text",
    "选集链接": "a&&href",
    "是否反转选集序列": "1",
    "选集链接加前缀": "http://www.tutugua.com",
    "选集链接加后缀": "",
    "分析MacPlayer": "2",
    "是否开启手动嗅探": "0",
    "手动嗅探视频链接关键词": ".mp4#.m3u8",
    "手动嗅探视频链接过滤词": ""
}
