{
    "规则名": "243影视网",
    "规则作者": "tx",
    "请求头参数": "User-Agent$PC_UA#Referer$WebView",
    "网页编码格式": "UTF-8",
    "图片是否需要代理": "1",
    "是否开启获取首页数据": "1",
    "首页推荐链接": "https://www.knyu.net",
    "首页列表数组规则": "body&&.module-items:has(.module-item-pic),0:2||1:3",
    "首页片单列表数组规则": ".module-item",
    "首页片单是否Jsoup写法": "1",
    "分类起始页码": "1",
    "分类链接": "https://www.knyu.net/show/{cateId}--------{catePg}---.html",    
    "分类名称": "电影&电视剧&综艺&动漫",
    "分类名称替换词": "1&2&3&4",
//  "筛选数据": {},
    "筛选数据": "ext",
    //{cateId}
    "筛选子分类名称": "",
    "筛选子分类替换词": "*",
    //{class}
    "筛选类型名称": "古装&战争&青春偶像&喜剧&家庭&犯罪&动作&奇幻&剧情&历史&经典&乡村&情景&商战&网剧&其他||喜剧&爱情&恐怖&动作&科幻&剧情&战争&警匪&犯罪&动画&奇幻&武侠&冒险&枪战&恐怖&悬疑&惊悚&经典&青春&文艺&微电影&古装&历史&运动&农村&儿童&网络电影||情感&科幻&热血&推理&搞笑&冒险&萝莉&校园&动作&机战&运动&战争&少年&少女&社会&原创&亲子&益智&励志&其他||",
    "筛选类型替换词": "*",
    //{area}
    "筛选地区名称": "韩国&香港&台湾&日本&美国&泰国&英国&新加坡&西班牙&俄罗斯||韩国&香港&台湾&日本&美国&泰国&英国&新加坡&其他||日本&欧美&其他||",
    "筛选地区替换词": "*",
    //{year}
    "筛选年份名称": "2022&2021&2020&2019&2018&2017&2016&2015&2014&2013&2012&2011&2010&2009&2008&2007&2006&2005&2004",
    "筛选年份替换词": "*",
    //{lang}
    "筛选语言名称": "英语&粤语&闽南语&韩语&日语&其它||英语&粤语&闽南语&韩语&日语&法语&德语&其它||英语&粤语&闽南语&韩语&日语&其它||",
    "筛选语言替换词": "*",
    //{by}
    "筛选排序名称": "",
    "筛选排序替换词": "*",
    "分类截取模式": "1",
    "分类列表数组规则": ".module-items&&.module-item",
    "分类片单是否Jsoup写法": "1",
    "分类片单标题": "a&&title",
    "分类片单链接": "a&&href",
    "分类片单图片": ".lazy&&data-src",
    "分类片单副标题": ".module-item-text&&Text",
    "分类片单链接加前缀": "https://www.knyu.net",
    "分类片单链接加后缀": "",
    "搜索请求头参数": "User-Agent$PC_UA",
    "搜索链接": "https://www.knyu.net/search/-------------.html?wd={wd}",
    "POST请求数据": "",
    "搜索截取模式": "1",
    "搜索列表数组规则": ".module-items&&.module-search-item",
    "搜索片单是否Jsoup写法": "1",
    "搜索片单图片": ".lazy&&data-src",
    "搜索片单标题": "h3&&a&&title",
    "搜索片单链接": "h3&&a&&href",
    "搜索片单副标题": ".video-info-header&Text",
    "搜索片单链接加前缀": "https://www.knyu.net",
    "搜索片单链接加后缀": ".html", 
    "链接是否直接播放": "0",
    "直接播放链接加前缀": "",
    "直接播放链接加后缀": "#isVideo=true#",
    "直接播放直链视频请求头": "",
    "详情是否Jsoup写法": "1",
    "类型详情": ".video-info-aux,0&&.tag-link,1&&Text",
    "年代详情": ".video-info-aux,0&&.tag-link,2&&Text",
    "地区详情": ".video-info-aux,0&&.tag-link,3&&Text",
    "演员详情": ".video-info-items,1&&.video-info-item,0&&Text!主演：",
    "简介详情": ".video-info-item.video-info-content&&Text",
    "线路列表数组规则": ".module-tab-items&&.module-tab-item",
    "线路标题": "span&&Text",
    "播放列表数组规则": "body&&.module-blocklist",
    "选集列表数组规则": "a",
    "选集标题链接是否Jsoup写法": "1",
    "选集标题": "a&&Text",
    "选集链接": "a&&href",
    "是否反转选集序列": "0",
    "选集链接加前缀": "https://www.knyu.net",
    "选集链接加后缀": "",
    "分析MacPlayer": "0",
    "是否开启手动嗅探": "0",
    "手动嗅探视频链接关键词": ".m3u8#.mp4#.flv",
    "手动嗅探视频链接过滤词": ".html#=http#=https"
}
