{
    "规则名": "速搜影院",
    "请求头参数": "User-Agent$电脑",
    "网页编码格式": "UTF-8",
    "图片是否需要代理": "0",
    "是否开启获取首页数据": "0",
    "首页推荐链接": "",
    "首页列表数组规则": "",
    "首页片单列表数组规则": "",
    "首页片单是否Jsoup写法": "1",
    "分类起始页码": "1",
    "分类链接": "https://www.sstv.pw/vodshow-{cateId}/area/{area}/by/{by}/class/{class}/lang/{lang}/page/{catePg}/year/{year}/",
    "分类名称": "电影&电视剧&综艺&动漫&记录",
    "分类名称替换词": "1&2&3&4&21",
    "筛选数据": "ext",
    "筛选类型名称": "动作&喜剧&爱情&科幻&恐怖&剧情&战争&魔幻&悬疑&犯罪&灾难&冒险&同性&惊悚&动画&奇幻||古装&战争&青春&偶像&喜剧&家庭&犯罪&动作&奇幻&剧情&同性&惊悚||搞笑&晚会&音乐&游戏&八卦&生活&真人秀||番剧&侦探&热血&搞笑&科幻&剧情&同性&惊悚&动画&奇幻&恋爱&古风&武侠&动态漫画||空",
    "筛选类型替换词": "*",
    "筛选地区名称": "大陆&台湾&香港&美国&日本&韩国&法国&英国&印度&其他",
    "筛选地区替换词": "*",
    "筛选语言名称": "国语&粤语&英语&日语&韩语&法语&泰语&德语&俄语&其他",
    "筛选语言替换词": "*",
    "分类截取模式": "1",
    "分类列表数组规则": "body&&.vod_item",
    "分类片单是否Jsoup写法": "1",
    "分类片单标题": ".mdui-p-t-1&&Text",
    "分类片单链接": "a&&href!/project-!/",
    "分类片单图片": "img&&data-original",
    "分类片单副标题": ".vod_remarks&&Text",
    "分类片单链接加前缀": "https://www.sstv.pw/play-",
    "分类片单链接加后缀": "-1-1/",
    "搜索请求头参数": "User-Agent$电脑",
    "搜索链接": "https://www.sstv.pw/index.php/ajax/suggest?mid=1&wd={wd}",
    "POST请求数据": "",
    "搜索截取模式": "0",
    "搜索列表数组规则": "list",
    "搜索片单是否Jsoup写法": "1",
    "搜索片单图片": "pic",
    "搜索片单标题": "name",
    "搜索片单链接": "id",
    "搜索片单副标题": "",
    "搜索片单链接加前缀": "",
    "搜索片单链接加后缀": "/",
    "链接是否直接播放": "0",
    "直接播放链接加前缀": "",
    "直接播放链接加后缀": "#isVideo=true#",
    "直接播放直链视频请求头": "authority$ku.peizq.online#Referer$https://play.peizq.online",
    "详情是否Jsoup写法": "0",
    "类型详情": "备注：&&</div>",
    "年代详情": "年代：&&</p>",
    "地区详情": "地区：&&</p>",
    "演员详情": "主演：&&</div>",
    "简介详情": "<p>&&</p>",
    "线路列表数组规则": "body&&.mdui-panel-item-title",
    "线路标题": "Text",
    "播放列表数组规则": "body&&.mdui-panel-item-body",
    "选集列表数组规则": "a",
    "选集标题链接是否Jsoup写法": "1",
    "选集标题": "Text",
    "选集链接": "a&&href",
    "是否反转选集序列": "0",
    "选集链接加前缀": "https://www.sstv.pw",
    "选集链接加后缀": "",
    "分析MacPlayer": "0",
    "是否开启手动嗅探": "1",
    "手动嗅探视频链接关键词": ".mp4#.m3u8#.flv",
    "手动嗅探视频链接过滤词": ""
}
