{
    "规则名": "23影视",
    "请求头参数": "User-Agent$手机",
    "网页编码格式": "UTF-8",
    "图片是否需要代理": "0",
    "是否开启获取首页数据": "1",
    "首页推荐链接": "https://222.186.150.32",
    "首页列表数组规则": "body&&.leo-video-item",
    "首页片单列表数组规则": ".leo-video-item",
    "首页片单是否Jsoup写法": "1",
    "分类起始页码": "1",
    "分类链接": "https://222.186.150.32/vodshow/area/{area}/class/{class}/id/{cateId}/page/{catePg}/year/{year}.html",
    "分类名称": "电影&电视剧&综艺&动漫&记录",
    "分类名称替换词": "1&2&3&4&20",
    "筛选数据": "ext",
    "筛选子分类名称": "喜剧片&爱情片&科幻片&恐怖片&剧情片&战争片&动作片&奇幻片&犯罪片&悬疑片&冒险片&惊悚片&其他片||国产剧&港台剧&日韩剧&欧美剧&泰国剧&哔哩 哔哩&海外剧&其他剧||",
    "筛选子分类替换词": "7&8&9&10&11&12&6&52&53&58&59&64&63||13&14&15&16&25&39&51&62||",
    "筛选地区名称": "大陆&香港&台湾&美国&法国&英国&日本&韩国&德国&泰国&印度&意大利&西班牙&加拿大&其他||内地&韩国&香港&台湾&日本&美国&泰国&英国&新加坡&其他||内地&港台&日韩&欧美||国产&日本&欧美&其他||中国&香港&台湾&美国&日本&德国&法国&欧洲&非洲&韩国",
    "筛选地区替换词": "*",
    "筛选类型名称": "空||空||选秀&情感&访谈&播报&旅游&音乐&美食&纪实&曲艺&生活&游戏互动&财经&求职||国漫&日漫&经典&治愈&战斗&魔幻&幻想&推理&冒险&搞笑||历史&军事&社会&自然&人文&罪案&科技&美食",
    "筛选类型替换词": "*",
    "分类截取模式": "1",
    "分类列表数组规则": "body&&.leo-video-item",
    "分类片单是否Jsoup写法": "1",
    "分类片单标题": "a&&title",
    "分类片单链接": "a&&href!/voddetail/!.html",
    "分类片单图片": "img&&data-original",
    "分类片单副标题": ".leo-video-remark&&Text",
    "分类片单链接加前缀": "https://222.186.150.32/vodplay/",
    "分类片单链接加后缀": "-1-1.html",
    "搜索请求头参数": "User-Agent$手机",
    "搜索链接": "https://222.186.150.32/index.php/ajax/suggest?mid=1&wd={wd}",
    "POST请求数据": "",
    "搜索截取模式": "0",
    "搜索列表数组规则": "list",
    "搜索片单是否Jsoup写法": "1",
    "搜索片单图片": "pic",
    "搜索片单标题": "name",
    "搜索片单链接": "id",
    "搜索片单副标题": "",
    "搜索片单链接加前缀": "https://222.186.150.32/vodplay/",
    "搜索片单链接加后缀": "-1-1.html",
    "链接是否直接播放": "0",
    "直接播放链接加前缀": "",
    "直接播放链接加后缀": "#isVideo=true#",
    "直接播放直链视频请求头": "authority$ku.peizq.online#Referer$https://play.peizq.online",
    "详情是否Jsoup写法": "0",
    "类型详情": "og:video:class\" content=\"&&\"",
    "年代详情": "og:video:date\" content=\"&&\"",
    "地区详情": "og:video:area\" content=\"&&\"",
    "演员详情": "og:video:actor\" content=\"&&\"",
    "简介详情": "og:description\" content=\"&&\"",
    "线路列表数组规则": "body&&ul&&.swiper-slide",
    "线路标题": "li&&Text",
    "播放列表数组规则": "body&&.leo-play-num",
    "选集列表数组规则": "a",
    "选集标题链接是否Jsoup写法": "1",
    "选集标题": "a&&Text",
    "选集链接": "a&&href",
    "是否反转选集序列": "0",
    "选集链接加前缀": "https://222.186.150.32",
    "选集链接加后缀": "",
    "分析MacPlayer": "0",
    "是否开启手动嗅探": "0",
    "手动嗅探视频链接关键词": ".mp4#.m3u8",
    "手动嗅探视频链接过滤词": ""
}
